EESchema Schematic File Version 2
LIBS:power
LIBS:device
LIBS:transistors
LIBS:conn
LIBS:linear
LIBS:regul
LIBS:74xx
LIBS:cmos4000
LIBS:adc-dac
LIBS:memory
LIBS:xilinx
LIBS:microcontrollers
LIBS:dsp
LIBS:microchip
LIBS:analog_switches
LIBS:motorola
LIBS:texas
LIBS:intel
LIBS:audio
LIBS:interface
LIBS:digital-audio
LIBS:philips
LIBS:display
LIBS:cypress
LIBS:siliconi
LIBS:opto
LIBS:atmel
LIBS:contrib
LIBS:valves
LIBS:my-relays
LIBS:dual-relay-board-cache
EELAYER 25 0
EELAYER END
$Descr A4 8268 11693 portrait
encoding utf-8
Sheet 1 1
Title ""
Date ""
Rev ""
Comp ""
Comment1 ""
Comment2 ""
Comment3 ""
Comment4 ""
$EndDescr
$Comp
L RELAY_SPDT K1
U 1 1 5DAC9C19
P 4750 3550
F 0 "K1" H 4700 3650 50  0000 C CNN
F 1 "SRD-05VDC-SL-C" H 4750 3050 50  0000 C CNN
F 2 "myRelays:Relay_SPDT_Finder-36.11" H 4750 3550 50  0001 C CNN
F 3 "" H 4750 3550 50  0000 C CNN
	1    4750 3550
	1    0    0    -1  
$EndComp
$Comp
L RELAY_SPDT K2
U 1 1 5DAC9DD2
P 4750 4450
F 0 "K2" H 4700 4550 50  0000 C CNN
F 1 "SRD-05VDC-SL-C" H 4750 3950 50  0000 C CNN
F 2 "myRelays:Relay_SPDT_Finder-36.11" H 4750 4450 50  0001 C CNN
F 3 "" H 4750 4450 50  0000 C CNN
	1    4750 4450
	1    0    0    -1  
$EndComp
$Comp
L Q_NPN_EBC Q1
U 1 1 5DAC9E7B
P 3100 4200
F 0 "Q1" H 3400 4250 50  0000 R CNN
F 1 "2N2222" H 3700 4150 50  0000 R CNN
F 2 "TO_SOT_Packages_THT:TO-92_Inline_Wide" H 3300 4300 50  0001 C CNN
F 3 "" H 3100 4200 50  0000 C CNN
	1    3100 4200
	1    0    0    -1  
$EndComp
$Comp
L Q_NPN_EBC Q2
U 1 1 5DAC9EEA
P 3300 5100
F 0 "Q2" H 3600 5150 50  0000 R CNN
F 1 "2N2222" H 3900 5050 50  0000 R CNN
F 2 "TO_SOT_Packages_THT:TO-92_Inline_Wide" H 3500 5200 50  0001 C CNN
F 3 "" H 3300 5100 50  0000 C CNN
	1    3300 5100
	1    0    0    -1  
$EndComp
$Comp
L R R2
U 1 1 5DACA0F7
P 2850 5100
F 0 "R2" V 2930 5100 50  0000 C CNN
F 1 "1K" V 2850 5100 50  0000 C CNN
F 2 "Resistors_ThroughHole:Resistor_Horizontal_RM10mm" V 2780 5100 50  0001 C CNN
F 3 "" H 2850 5100 50  0000 C CNN
	1    2850 5100
	0    1    1    0   
$EndComp
$Comp
L R R1
U 1 1 5DACA148
P 2650 4200
F 0 "R1" V 2730 4200 50  0000 C CNN
F 1 "1K" V 2650 4200 50  0000 C CNN
F 2 "Resistors_ThroughHole:Resistor_Horizontal_RM10mm" V 2580 4200 50  0001 C CNN
F 3 "" H 2650 4200 50  0000 C CNN
	1    2650 4200
	0    1    1    0   
$EndComp
$Comp
L D_Small D1
U 1 1 5DACA1CE
P 3200 3700
F 0 "D1" H 3150 3780 50  0000 L CNN
F 1 "1N4148" H 3050 3620 50  0000 L CNN
F 2 "Diodes_ThroughHole:Diode_DO-35_SOD27_Horizontal_RM10" V 3200 3700 50  0001 C CNN
F 3 "" V 3200 3700 50  0000 C CNN
	1    3200 3700
	0    1    1    0   
$EndComp
Wire Wire Line
	3200 3800 3200 4000
$Comp
L D_Small D2
U 1 1 5DACA274
P 3400 4600
F 0 "D2" H 3350 4680 50  0000 L CNN
F 1 "1N4148" H 3250 4520 50  0000 L CNN
F 2 "Diodes_ThroughHole:Diode_DO-35_SOD27_Horizontal_RM10" V 3400 4600 50  0001 C CNN
F 3 "" V 3400 4600 50  0000 C CNN
	1    3400 4600
	0    1    1    0   
$EndComp
Wire Wire Line
	3400 4700 3400 4900
Wire Wire Line
	3000 5100 3100 5100
Wire Wire Line
	2900 4200 2800 4200
Wire Wire Line
	4350 4800 3400 4800
Connection ~ 3400 4800
Wire Wire Line
	4350 3900 3200 3900
Connection ~ 3200 3900
$Comp
L +5V #PWR01
U 1 1 5DACA823
P 4100 3400
F 0 "#PWR01" H 4100 3250 50  0001 C CNN
F 1 "+5V" H 4100 3540 50  0000 C CNN
F 2 "" H 4100 3400 50  0000 C CNN
F 3 "" H 4100 3400 50  0000 C CNN
	1    4100 3400
	1    0    0    -1  
$EndComp
Wire Wire Line
	4100 3800 4350 3800
Wire Wire Line
	3200 3600 3200 3500
Wire Wire Line
	3200 3500 4100 3500
Connection ~ 4100 3500
Wire Wire Line
	4100 4700 4350 4700
Connection ~ 4100 3800
Wire Wire Line
	3400 4500 3400 4400
Wire Wire Line
	3400 4400 4100 4400
Connection ~ 4100 4400
Wire Wire Line
	2300 4200 2500 4200
Wire Wire Line
	2300 4300 2600 4300
Wire Wire Line
	2600 4300 2600 5100
Wire Wire Line
	2600 5100 2700 5100
$Comp
L GND #PWR02
U 1 1 5DACAC96
P 2400 4500
F 0 "#PWR02" H 2400 4250 50  0001 C CNN
F 1 "GND" H 2400 4350 50  0000 C CNN
F 2 "" H 2400 4500 50  0000 C CNN
F 3 "" H 2400 4500 50  0000 C CNN
	1    2400 4500
	1    0    0    -1  
$EndComp
Wire Wire Line
	2400 4500 2400 4400
Wire Wire Line
	2400 4400 2300 4400
$Comp
L GND #PWR03
U 1 1 5DACAD38
P 3200 4500
F 0 "#PWR03" H 3200 4250 50  0001 C CNN
F 1 "GND" H 3200 4350 50  0000 C CNN
F 2 "" H 3200 4500 50  0000 C CNN
F 3 "" H 3200 4500 50  0000 C CNN
	1    3200 4500
	1    0    0    -1  
$EndComp
Wire Wire Line
	3200 4500 3200 4400
$Comp
L GND #PWR04
U 1 1 5DACAE08
P 3400 5400
F 0 "#PWR04" H 3400 5150 50  0001 C CNN
F 1 "GND" H 3400 5250 50  0000 C CNN
F 2 "" H 3400 5400 50  0000 C CNN
F 3 "" H 3400 5400 50  0000 C CNN
	1    3400 5400
	1    0    0    -1  
$EndComp
Wire Wire Line
	3400 5400 3400 5300
$Comp
L CONN_01X03 P2
U 1 1 5DACB075
P 5500 3600
F 0 "P2" H 5500 3800 50  0000 C CNN
F 1 "RELAY1" V 5600 3600 50  0000 C CNN
F 2 "Connect:bornier3" H 5500 3600 50  0001 C CNN
F 3 "" H 5500 3600 50  0000 C CNN
	1    5500 3600
	1    0    0    1   
$EndComp
Wire Wire Line
	5300 3500 5150 3500
Wire Wire Line
	5150 3700 5300 3700
Wire Wire Line
	5300 3600 5200 3600
Wire Wire Line
	5200 3600 5200 3300
Wire Wire Line
	5200 3300 4250 3300
Wire Wire Line
	4250 3300 4250 3600
Wire Wire Line
	4250 3600 4350 3600
$Comp
L CONN_01X03 P3
U 1 1 5DACB292
P 5500 4500
F 0 "P3" H 5500 4700 50  0000 C CNN
F 1 "RELAY2" V 5600 4500 50  0000 C CNN
F 2 "Connect:bornier3" H 5500 4500 50  0001 C CNN
F 3 "" H 5500 4500 50  0000 C CNN
	1    5500 4500
	1    0    0    1   
$EndComp
Wire Wire Line
	5300 4400 5150 4400
Wire Wire Line
	5150 4600 5300 4600
Wire Wire Line
	5300 4500 5200 4500
Wire Wire Line
	5200 4500 5200 4200
Wire Wire Line
	5200 4200 4250 4200
Wire Wire Line
	4250 4200 4250 4500
Wire Wire Line
	4250 4500 4350 4500
$Comp
L +5V #PWR05
U 1 1 5DAD98C1
P 2400 4000
F 0 "#PWR05" H 2400 3850 50  0001 C CNN
F 1 "+5V" H 2400 4140 50  0000 C CNN
F 2 "" H 2400 4000 50  0000 C CNN
F 3 "" H 2400 4000 50  0000 C CNN
	1    2400 4000
	1    0    0    -1  
$EndComp
Wire Wire Line
	2400 4000 2400 4100
Wire Wire Line
	2400 4100 2300 4100
Wire Wire Line
	4100 3400 4100 4700
$Comp
L CONN_01X04 P1
U 1 1 5EB59023
P 2100 4250
F 0 "P1" H 2100 4500 50  0000 C CNN
F 1 "INPUT" V 2200 4250 50  0000 C CNN
F 2 "Pin_Headers:Pin_Header_Straight_1x04" H 2100 4250 50  0001 C CNN
F 3 "" H 2100 4250 50  0000 C CNN
	1    2100 4250
	-1   0    0    1   
$EndComp
$EndSCHEMATC
