EESchema Schematic File Version 2
LIBS:power
LIBS:device
LIBS:transistors
LIBS:conn
LIBS:linear
LIBS:regul
LIBS:74xx
LIBS:cmos4000
LIBS:adc-dac
LIBS:memory
LIBS:xilinx
LIBS:microcontrollers
LIBS:dsp
LIBS:microchip
LIBS:analog_switches
LIBS:motorola
LIBS:texas
LIBS:intel
LIBS:audio
LIBS:interface
LIBS:digital-audio
LIBS:philips
LIBS:display
LIBS:cypress
LIBS:siliconi
LIBS:opto
LIBS:atmel
LIBS:contrib
LIBS:valves
LIBS:display-board-cache
EELAYER 25 0
EELAYER END
$Descr A4 11693 8268
encoding utf-8
Sheet 1 1
Title ""
Date ""
Rev ""
Comp ""
Comment1 ""
Comment2 ""
Comment3 ""
Comment4 ""
$EndDescr
$Comp
L KYX3661AS DS1
U 1 1 5AF059AD
P 5800 2400
F 0 "DS1" H 5400 2700 60  0000 C CNN
F 1 "KYX3661AS" H 5900 2700 60  0000 C CNN
F 2 "myDisplays:KYX3661AS" H 5500 2400 60  0001 C CNN
F 3 "" H 5500 2400 60  0000 C CNN
	1    5800 2400
	1    0    0    -1  
$EndComp
$Comp
L MAX7219 U3
U 1 1 5AF05D8D
P 5450 4150
F 0 "U3" H 5750 4150 60  0000 C CNN
F 1 "MAX7219" H 5750 4300 60  0000 C CNN
F 2 "Housings_DIP:DIP-24_W7.62mm_LongPads" H 5150 4150 60  0001 C CNN
F 3 "" H 5150 4150 60  0000 C CNN
	1    5450 4150
	1    0    0    -1  
$EndComp
$Comp
L GND #PWR01
U 1 1 5AF06032
P 5700 5300
F 0 "#PWR01" H 5700 5050 50  0001 C CNN
F 1 "GND" H 5700 5150 50  0000 C CNN
F 2 "" H 5700 5300 50  0000 C CNN
F 3 "" H 5700 5300 50  0000 C CNN
	1    5700 5300
	1    0    0    -1  
$EndComp
$Comp
L +5V #PWR02
U 1 1 5AF060AB
P 6900 4400
F 0 "#PWR02" H 6900 4250 50  0001 C CNN
F 1 "+5V" H 6900 4540 50  0000 C CNN
F 2 "" H 6900 4400 50  0000 C CNN
F 3 "" H 6900 4400 50  0000 C CNN
	1    6900 4400
	1    0    0    -1  
$EndComp
$Comp
L R R1
U 1 1 5AF0613D
P 6150 4850
F 0 "R1" V 6230 4850 50  0000 C CNN
F 1 "100K" V 6150 4850 50  0000 C CNN
F 2 "Resistors_ThroughHole:Resistor_Horizontal_RM10mm" V 6080 4850 50  0001 C CNN
F 3 "" H 6150 4850 50  0000 C CNN
	1    6150 4850
	0    1    1    0   
$EndComp
$Comp
L C C1
U 1 1 5AF06214
P 6600 4950
F 0 "C1" H 6625 5050 50  0000 L CNN
F 1 "100nF" H 6625 4850 50  0000 L CNN
F 2 "Capacitors_ThroughHole:C_Rect_L7_W3.5_P5" H 6638 4800 50  0001 C CNN
F 3 "" H 6600 4950 50  0000 C CNN
	1    6600 4950
	1    0    0    -1  
$EndComp
Connection ~ 5800 5200
Wire Wire Line
	6600 5200 6600 5100
Connection ~ 6600 4700
Wire Wire Line
	6600 4700 6600 4800
Connection ~ 6400 4700
Wire Wire Line
	6400 4850 6400 4700
Wire Wire Line
	6300 4850 6400 4850
Wire Wire Line
	5900 4850 5900 4600
Wire Wire Line
	6000 4850 5900 4850
Wire Wire Line
	5600 4700 5600 4600
Wire Wire Line
	5600 4700 6400 4700
Wire Wire Line
	6400 4700 6600 4700
Wire Wire Line
	6600 4700 6900 4700
Wire Wire Line
	6900 4700 6900 4400
Connection ~ 5700 5200
Wire Wire Line
	5800 5200 5800 4600
Wire Wire Line
	5700 5200 5800 5200
Wire Wire Line
	5800 5200 6600 5200
Wire Wire Line
	5700 4600 5700 5200
Wire Wire Line
	5700 5200 5700 5300
Wire Wire Line
	6400 2700 6400 2600
Wire Wire Line
	6600 2700 6400 2700
Wire Wire Line
	6600 3450 6600 2700
Wire Wire Line
	6500 2750 6500 3450
Wire Wire Line
	6300 2750 6500 2750
Wire Wire Line
	6300 2600 6300 2750
Wire Wire Line
	6400 2850 6400 3450
Wire Wire Line
	6200 2850 6400 2850
Wire Wire Line
	6200 2600 6200 2850
Wire Wire Line
	6100 2950 6100 2600
Wire Wire Line
	6300 2950 6100 2950
Wire Wire Line
	6300 3450 6300 2950
Wire Wire Line
	6200 3050 6200 3450
Wire Wire Line
	6000 3050 6200 3050
Wire Wire Line
	6000 2600 6000 3050
Wire Wire Line
	5900 3150 5900 2600
Wire Wire Line
	6100 3150 5900 3150
Wire Wire Line
	6100 3450 6100 3150
Wire Wire Line
	6000 3250 6000 3450
Wire Wire Line
	5800 3250 6000 3250
Wire Wire Line
	5800 2600 5800 3250
Wire Wire Line
	5700 3350 5700 2600
Wire Wire Line
	5900 3350 5700 3350
Wire Wire Line
	5900 3450 5900 3350
Wire Wire Line
	5600 3250 5600 2600
Wire Wire Line
	5500 3250 5600 3250
Wire Wire Line
	5500 3450 5500 3250
Wire Wire Line
	5500 3150 5500 2600
Wire Wire Line
	5400 3150 5500 3150
Wire Wire Line
	5400 3450 5400 3150
Wire Wire Line
	5400 3050 5400 2600
Wire Wire Line
	5300 3050 5400 3050
Wire Wire Line
	5300 3450 5300 3050
Wire Wire Line
	5300 2950 5300 2600
Wire Wire Line
	5200 2950 5300 2950
Wire Wire Line
	5200 3450 5200 2950
Wire Wire Line
	5200 2850 5200 2600
Wire Wire Line
	5100 2850 5200 2850
Wire Wire Line
	5100 3450 5100 2850
Wire Wire Line
	5100 2750 5100 2600
Wire Wire Line
	5000 2750 5100 2750
Wire Wire Line
	5000 2750 5000 3450
$Comp
L CONN_01X05 P?
U 1 1 5DC06541
P 4050 3900
F 0 "P?" H 4050 4200 50  0000 C CNN
F 1 "INPUT" V 4150 3900 50  0000 C CNN
F 2 "" H 4050 3900 50  0000 C CNN
F 3 "" H 4050 3900 50  0000 C CNN
	1    4050 3900
	-1   0    0    1   
$EndComp
Wire Wire Line
	4250 4100 4700 4100
Wire Wire Line
	4700 4000 4600 4000
Wire Wire Line
	4600 4000 4600 3900
Wire Wire Line
	4600 3900 4250 3900
Wire Wire Line
	4250 4000 4550 4000
Wire Wire Line
	4550 4000 4550 4200
Wire Wire Line
	4550 4200 4700 4200
Wire Wire Line
	4350 3700 4250 3700
$Comp
L GND #PWR?
U 1 1 5DC06756
P 4350 4200
F 0 "#PWR?" H 4350 3950 50  0001 C CNN
F 1 "GND" H 4350 4050 50  0000 C CNN
F 2 "" H 4350 4200 50  0000 C CNN
F 3 "" H 4350 4200 50  0000 C CNN
	1    4350 4200
	1    0    0    -1  
$EndComp
Wire Wire Line
	4350 4200 4350 3800
Wire Wire Line
	4350 3800 4250 3800
$Comp
L +5V #PWR?
U 1 1 5DC06861
P 4350 3600
F 0 "#PWR?" H 4350 3450 50  0001 C CNN
F 1 "+5V" H 4350 3740 50  0000 C CNN
F 2 "" H 4350 3600 50  0000 C CNN
F 3 "" H 4350 3600 50  0000 C CNN
	1    4350 3600
	1    0    0    -1  
$EndComp
Wire Wire Line
	4350 3600 4350 3700
$EndSCHEMATC
