EESchema Schematic File Version 2
LIBS:power
LIBS:device
LIBS:transistors
LIBS:conn
LIBS:linear
LIBS:regul
LIBS:74xx
LIBS:cmos4000
LIBS:adc-dac
LIBS:memory
LIBS:xilinx
LIBS:microcontrollers
LIBS:dsp
LIBS:microchip
LIBS:analog_switches
LIBS:motorola
LIBS:texas
LIBS:intel
LIBS:audio
LIBS:interface
LIBS:digital-audio
LIBS:philips
LIBS:display
LIBS:cypress
LIBS:siliconi
LIBS:opto
LIBS:atmel
LIBS:contrib
LIBS:valves
LIBS:my-ICs
LIBS:sot23-16-mcp23017-cache
EELAYER 25 0
EELAYER END
$Descr A4 11693 8268
encoding utf-8
Sheet 1 1
Title ""
Date ""
Rev ""
Comp ""
Comment1 ""
Comment2 ""
Comment3 ""
Comment4 ""
$EndDescr
$Comp
L MCP23017 U1
U 1 1 60E41CE6
P 5000 3750
F 0 "U1" H 5150 4100 50  0000 C CNN
F 1 "MCP23017" H 5150 4200 50  0000 C CNN
F 2 "Housings_DIP:DIP-28_W7.62mm_LongPads" H 5050 3750 50  0001 C CNN
F 3 "" H 5050 3750 50  0000 C CNN
	1    5000 3750
	-1   0    0    -1  
$EndComp
$Comp
L GND #PWR01
U 1 1 60E422EE
P 3900 5400
F 0 "#PWR01" H 3900 5150 50  0001 C CNN
F 1 "GND" H 3900 5250 50  0000 C CNN
F 2 "" H 3900 5400 50  0000 C CNN
F 3 "" H 3900 5400 50  0000 C CNN
	1    3900 5400
	1    0    0    -1  
$EndComp
$Comp
L GND #PWR02
U 1 1 60E422FB
P 3600 3300
F 0 "#PWR02" H 3600 3050 50  0001 C CNN
F 1 "GND" H 3600 3150 50  0000 C CNN
F 2 "" H 3600 3300 50  0000 C CNN
F 3 "" H 3600 3300 50  0000 C CNN
	1    3600 3300
	1    0    0    -1  
$EndComp
$Comp
L VDD #PWR03
U 1 1 60E42315
P 4000 4450
F 0 "#PWR03" H 4000 4300 50  0001 C CNN
F 1 "VDD" H 4000 4600 50  0000 C CNN
F 2 "" H 4000 4450 50  0000 C CNN
F 3 "" H 4000 4450 50  0000 C CNN
	1    4000 4450
	1    0    0    -1  
$EndComp
$Comp
L R R1
U 1 1 60E4231B
P 4300 4850
F 0 "R1" V 4380 4850 50  0000 C CNN
F 1 "4.7K" V 4300 4850 50  0000 C CNN
F 2 "Resistors_ThroughHole:Resistor_Horizontal_RM10mm" V 4230 4850 50  0001 C CNN
F 3 "" H 4300 4850 50  0000 C CNN
	1    4300 4850
	-1   0    0    1   
$EndComp
$Comp
L R R2
U 1 1 60E42322
P 4500 4850
F 0 "R2" V 4580 4850 50  0000 C CNN
F 1 "4.7K" V 4500 4850 50  0000 C CNN
F 2 "Resistors_ThroughHole:Resistor_Horizontal_RM10mm" V 4430 4850 50  0001 C CNN
F 3 "" H 4500 4850 50  0000 C CNN
	1    4500 4850
	-1   0    0    1   
$EndComp
$Comp
L VDD #PWR04
U 1 1 60E4232F
P 4050 2700
F 0 "#PWR04" H 4050 2550 50  0001 C CNN
F 1 "VDD" H 4050 2850 50  0000 C CNN
F 2 "" H 4050 2700 50  0000 C CNN
F 3 "" H 4050 2700 50  0000 C CNN
	1    4050 2700
	1    0    0    -1  
$EndComp
$Comp
L AddressSelector3 JP1
U 1 1 60E42335
P 3800 2900
F 0 "JP1" H 3840 2990 50  0000 C CNN
F 1 "ADDRESS" H 3820 3060 50  0000 C CNN
F 2 "mySwitches:AdressSelector3" H 3800 2900 50  0001 C CNN
F 3 "" H 3800 2900 50  0000 C CNN
	1    3800 2900
	1    0    0    -1  
$EndComp
Wire Wire Line
	4000 5000 3800 5000
Wire Wire Line
	4000 4450 4000 5000
Wire Wire Line
	3800 5200 4800 5200
Wire Wire Line
	3800 5100 4900 5100
Wire Wire Line
	3800 5300 3900 5300
Wire Wire Line
	3900 4900 3900 5400
Wire Wire Line
	4300 4700 4300 4600
Wire Wire Line
	4000 4600 4500 4600
Connection ~ 4000 4600
Wire Wire Line
	4500 4600 4500 4700
Connection ~ 4300 4600
Wire Wire Line
	4300 5000 4300 5100
Connection ~ 4300 5100
Wire Wire Line
	4500 5000 4500 5200
Connection ~ 4500 5200
Wire Wire Line
	4050 2700 4050 3200
Wire Wire Line
	4050 2900 4000 2900
Wire Wire Line
	4050 3050 4000 3050
Connection ~ 4050 2900
Wire Wire Line
	4050 3200 4000 3200
Connection ~ 4050 3050
Wire Wire Line
	3700 2900 3600 2900
Wire Wire Line
	3600 2900 3600 3300
Wire Wire Line
	3700 3200 3600 3200
Connection ~ 3600 3200
Wire Wire Line
	3700 3050 3600 3050
Connection ~ 3600 3050
Wire Wire Line
	4150 3250 3850 3250
Wire Wire Line
	3850 3100 4450 3100
Wire Wire Line
	3850 2950 4150 2950
Wire Wire Line
	4900 5100 4900 4700
Wire Wire Line
	4800 5200 4800 4700
Wire Wire Line
	4450 3000 4150 3000
Wire Wire Line
	4150 3000 4150 2950
Wire Wire Line
	4450 3200 4150 3200
Wire Wire Line
	4150 3200 4150 3250
$Comp
L CONN_01X17 P2
U 1 1 60E42506
P 6050 3650
F 0 "P2" H 6050 4550 50  0000 C CNN
F 1 "OUT" V 6150 3650 50  0000 C CNN
F 2 "Pin_Headers:Pin_Header_Straight_1x17" H 6050 3650 50  0001 C CNN
F 3 "" H 6050 3650 50  0000 C CNN
	1    6050 3650
	1    0    0    -1  
$EndComp
$Comp
L CONN_01X04 P1
U 1 1 60E42B60
P 3600 5150
F 0 "P1" H 3600 5400 50  0000 C CNN
F 1 "IN" V 3700 5150 50  0000 C CNN
F 2 "Pin_Headers:Pin_Header_Straight_1x04" H 3600 5150 50  0001 C CNN
F 3 "" H 3600 5150 50  0000 C CNN
	1    3600 5150
	-1   0    0    1   
$EndComp
Wire Wire Line
	5550 2950 5850 2950
Wire Wire Line
	5850 3050 5550 3050
Wire Wire Line
	5550 3150 5850 3150
Wire Wire Line
	5850 3250 5550 3250
Wire Wire Line
	5550 3350 5850 3350
Wire Wire Line
	5850 3450 5550 3450
Wire Wire Line
	5550 3550 5850 3550
Wire Wire Line
	5850 3650 5550 3650
Wire Wire Line
	5550 3750 5850 3750
Wire Wire Line
	5850 3850 5550 3850
Wire Wire Line
	5550 3950 5850 3950
Wire Wire Line
	5850 4050 5550 4050
Wire Wire Line
	5550 4150 5850 4150
Wire Wire Line
	5850 4250 5550 4250
Wire Wire Line
	5550 4350 5850 4350
Wire Wire Line
	5850 4450 5550 4450
$Comp
L GND #PWR05
U 1 1 60E43B07
P 5650 2700
F 0 "#PWR05" H 5650 2450 50  0001 C CNN
F 1 "GND" H 5650 2550 50  0000 C CNN
F 2 "" H 5650 2700 50  0000 C CNN
F 3 "" H 5650 2700 50  0000 C CNN
	1    5650 2700
	1    0    0    -1  
$EndComp
$Comp
L VDD #PWR06
U 1 1 60E43B47
P 4900 2600
F 0 "#PWR06" H 4900 2450 50  0001 C CNN
F 1 "VDD" H 4900 2750 50  0000 C CNN
F 2 "" H 4900 2600 50  0000 C CNN
F 3 "" H 4900 2600 50  0000 C CNN
	1    4900 2600
	1    0    0    -1  
$EndComp
Wire Wire Line
	4900 2600 4900 2700
Wire Wire Line
	5750 2850 5850 2850
Wire Wire Line
	5750 2850 5750 2600
Wire Wire Line
	5750 2600 5650 2600
Wire Wire Line
	5650 2600 5650 2700
$Comp
L VSS #PWR07
U 1 1 60E5AD2B
P 3900 4900
F 0 "#PWR07" H 3900 4750 50  0001 C CNN
F 1 "VSS" H 3900 5050 50  0000 C CNN
F 2 "" H 3900 4900 50  0000 C CNN
F 3 "" H 3900 4900 50  0000 C CNN
	1    3900 4900
	1    0    0    -1  
$EndComp
Connection ~ 3900 5300
$EndSCHEMATC
