(kicad_pcb (version 4) (host pcbnew 4.0.2+dfsg1-stable)

  (general
    (links 40)
    (no_connects 0)
    (area 84.265 51.82 158.305 115.035)
    (thickness 1.6)
    (drawings 4)
    (tracks 119)
    (zones 0)
    (modules 25)
    (nets 27)
  )

  (page A4)
  (layers
    (0 F.Cu signal)
    (31 B.Cu signal)
    (32 B.Adhes user)
    (33 F.Adhes user)
    (34 B.Paste user)
    (35 F.Paste user)
    (36 B.SilkS user)
    (37 F.SilkS user)
    (38 B.Mask user)
    (39 F.Mask user)
    (40 Dwgs.User user)
    (41 Cmts.User user)
    (42 Eco1.User user)
    (43 Eco2.User user)
    (44 Edge.Cuts user)
    (45 Margin user)
    (46 B.CrtYd user)
    (47 F.CrtYd user)
    (48 B.Fab user)
    (49 F.Fab user)
  )

  (setup
    (last_trace_width 0.5)
    (trace_clearance 0.2)
    (zone_clearance 0.5)
    (zone_45_only no)
    (trace_min 0.2)
    (segment_width 0.2)
    (edge_width 0.15)
    (via_size 0.6)
    (via_drill 0.4)
    (via_min_size 0.4)
    (via_min_drill 0.3)
    (uvia_size 0.3)
    (uvia_drill 0.1)
    (uvias_allowed no)
    (uvia_min_size 0.2)
    (uvia_min_drill 0.1)
    (pcb_text_width 0.3)
    (pcb_text_size 1.5 1.5)
    (mod_edge_width 0.15)
    (mod_text_size 1 1)
    (mod_text_width 0.15)
    (pad_size 3 3)
    (pad_drill 1)
    (pad_to_mask_clearance 0.2)
    (aux_axis_origin 0 0)
    (visible_elements FFFFFF7F)
    (pcbplotparams
      (layerselection 0x00030_80000001)
      (usegerberextensions false)
      (excludeedgelayer true)
      (linewidth 0.100000)
      (plotframeref false)
      (viasonmask false)
      (mode 1)
      (useauxorigin false)
      (hpglpennumber 1)
      (hpglpenspeed 20)
      (hpglpendiameter 15)
      (hpglpenoverlay 2)
      (psnegative false)
      (psa4output false)
      (plotreference true)
      (plotvalue true)
      (plotinvisibletext false)
      (padsonsilk false)
      (subtractmaskfromsilk false)
      (outputformat 1)
      (mirror false)
      (drillshape 1)
      (scaleselection 1)
      (outputdirectory ""))
  )

  (net 0 "")
  (net 1 "Net-(D1-Pad2)")
  (net 2 +5V)
  (net 3 "Net-(D2-Pad2)")
  (net 4 "Net-(D3-Pad2)")
  (net 5 "Net-(D4-Pad2)")
  (net 6 "Net-(K1-PadC1)")
  (net 7 "Net-(K1-PadO1)")
  (net 8 "Net-(K1-PadP1)")
  (net 9 "Net-(K2-PadC1)")
  (net 10 "Net-(K2-PadO1)")
  (net 11 "Net-(K2-PadP1)")
  (net 12 "Net-(K3-PadC1)")
  (net 13 "Net-(K3-PadO1)")
  (net 14 "Net-(K3-PadP1)")
  (net 15 "Net-(K4-PadC1)")
  (net 16 "Net-(K4-PadO1)")
  (net 17 "Net-(K4-PadP1)")
  (net 18 GND)
  (net 19 "Net-(P1-Pad2)")
  (net 20 "Net-(P1-Pad3)")
  (net 21 "Net-(P1-Pad4)")
  (net 22 "Net-(P1-Pad5)")
  (net 23 "Net-(Q1-Pad2)")
  (net 24 "Net-(Q2-Pad2)")
  (net 25 "Net-(Q3-Pad2)")
  (net 26 "Net-(Q4-Pad2)")

  (net_class Default "This is the default net class."
    (clearance 0.2)
    (trace_width 0.5)
    (via_dia 0.6)
    (via_drill 0.4)
    (uvia_dia 0.3)
    (uvia_drill 0.1)
    (add_net +5V)
    (add_net GND)
    (add_net "Net-(D1-Pad2)")
    (add_net "Net-(D2-Pad2)")
    (add_net "Net-(D3-Pad2)")
    (add_net "Net-(D4-Pad2)")
    (add_net "Net-(P1-Pad2)")
    (add_net "Net-(P1-Pad3)")
    (add_net "Net-(P1-Pad4)")
    (add_net "Net-(P1-Pad5)")
    (add_net "Net-(Q1-Pad2)")
    (add_net "Net-(Q2-Pad2)")
    (add_net "Net-(Q3-Pad2)")
    (add_net "Net-(Q4-Pad2)")
  )

  (net_class 230V ""
    (clearance 2.5)
    (trace_width 1)
    (via_dia 0.6)
    (via_drill 0.4)
    (uvia_dia 0.3)
    (uvia_drill 0.1)
    (add_net "Net-(K1-PadC1)")
    (add_net "Net-(K1-PadO1)")
    (add_net "Net-(K1-PadP1)")
    (add_net "Net-(K2-PadC1)")
    (add_net "Net-(K2-PadO1)")
    (add_net "Net-(K2-PadP1)")
    (add_net "Net-(K3-PadC1)")
    (add_net "Net-(K3-PadO1)")
    (add_net "Net-(K3-PadP1)")
    (add_net "Net-(K4-PadC1)")
    (add_net "Net-(K4-PadO1)")
    (add_net "Net-(K4-PadP1)")
  )

  (module Wire_Pads:SolderWirePad_single_2-5mmDrill (layer F.Cu) (tedit 5DAD7E95) (tstamp 5DAE8D7A)
    (at 88.265 60.325)
    (fp_text reference "" (at 0 -5.08) (layer F.SilkS)
      (effects (font (size 1 1) (thickness 0.15)))
    )
    (fp_text value "" (at 1.27 5.08) (layer F.Fab)
      (effects (font (size 1 1) (thickness 0.15)))
    )
    (pad "" thru_hole circle (at 0 0) (size 3 3) (drill 1) (layers *.Cu *.Mask F.SilkS))
  )

  (module Wire_Pads:SolderWirePad_single_2-5mmDrill (layer F.Cu) (tedit 5DAD7EA3) (tstamp 5DAE8D76)
    (at 154.305 106.68)
    (fp_text reference "" (at 0 -5.08) (layer F.SilkS)
      (effects (font (size 1 1) (thickness 0.15)))
    )
    (fp_text value "" (at 1.27 5.08) (layer F.Fab)
      (effects (font (size 1 1) (thickness 0.15)))
    )
    (pad "" thru_hole circle (at 0 0) (size 3 3) (drill 1) (layers *.Cu *.Mask F.SilkS))
  )

  (module Wire_Pads:SolderWirePad_single_2-5mmDrill (layer F.Cu) (tedit 5DAD7E9B) (tstamp 5DAE8D72)
    (at 154.305 60.325)
    (fp_text reference "" (at 0 -5.08) (layer F.SilkS)
      (effects (font (size 1 1) (thickness 0.15)))
    )
    (fp_text value "" (at 1.27 5.08) (layer F.Fab)
      (effects (font (size 1 1) (thickness 0.15)))
    )
    (pad "" thru_hole circle (at 0 0) (size 3 3) (drill 1) (layers *.Cu *.Mask F.SilkS))
  )

  (module Diodes_ThroughHole:Diode_DO-35_SOD27_Horizontal_RM10 (layer F.Cu) (tedit 5DACA32F) (tstamp 5DACA17E)
    (at 91.44 76.835)
    (descr "Diode, DO-35,  SOD27, Horizontal, RM 10mm")
    (tags "Diode, DO-35, SOD27, Horizontal, RM 10mm, 1N4148,")
    (path /5DACA1CE)
    (fp_text reference D1 (at 12.7 0) (layer F.SilkS)
      (effects (font (size 1 1) (thickness 0.15)))
    )
    (fp_text value 1N4148 (at 5.08 0) (layer F.Fab)
      (effects (font (size 1 1) (thickness 0.15)))
    )
    (fp_line (start 7.36652 -0.00254) (end 8.76352 -0.00254) (layer F.SilkS) (width 0.15))
    (fp_line (start 2.92152 -0.00254) (end 1.39752 -0.00254) (layer F.SilkS) (width 0.15))
    (fp_line (start 3.30252 -0.76454) (end 3.30252 0.75946) (layer F.SilkS) (width 0.15))
    (fp_line (start 3.04852 -0.76454) (end 3.04852 0.75946) (layer F.SilkS) (width 0.15))
    (fp_line (start 2.79452 -0.00254) (end 2.79452 0.75946) (layer F.SilkS) (width 0.15))
    (fp_line (start 2.79452 0.75946) (end 7.36652 0.75946) (layer F.SilkS) (width 0.15))
    (fp_line (start 7.36652 0.75946) (end 7.36652 -0.76454) (layer F.SilkS) (width 0.15))
    (fp_line (start 7.36652 -0.76454) (end 2.79452 -0.76454) (layer F.SilkS) (width 0.15))
    (fp_line (start 2.79452 -0.76454) (end 2.79452 -0.00254) (layer F.SilkS) (width 0.15))
    (pad 2 thru_hole circle (at 10.16052 -0.00254 180) (size 1.69926 1.69926) (drill 0.70104) (layers *.Cu *.Mask F.SilkS)
      (net 1 "Net-(D1-Pad2)"))
    (pad 1 thru_hole rect (at 0.00052 -0.00254 180) (size 1.69926 1.69926) (drill 0.70104) (layers *.Cu *.Mask F.SilkS)
      (net 2 +5V))
    (model Diodes_ThroughHole.3dshapes/Diode_DO-35_SOD27_Horizontal_RM10.wrl
      (at (xyz 0.2 0 0))
      (scale (xyz 0.4 0.4 0.4))
      (rotate (xyz 0 0 180))
    )
  )

  (module Diodes_ThroughHole:Diode_DO-35_SOD27_Horizontal_RM10 (layer F.Cu) (tedit 5DACA343) (tstamp 5DACA184)
    (at 107.95 76.835)
    (descr "Diode, DO-35,  SOD27, Horizontal, RM 10mm")
    (tags "Diode, DO-35, SOD27, Horizontal, RM 10mm, 1N4148,")
    (path /5DACA274)
    (fp_text reference D2 (at 12.7 0) (layer F.SilkS)
      (effects (font (size 1 1) (thickness 0.15)))
    )
    (fp_text value 1N4148 (at 5.08 0) (layer F.Fab)
      (effects (font (size 1 1) (thickness 0.15)))
    )
    (fp_line (start 7.36652 -0.00254) (end 8.76352 -0.00254) (layer F.SilkS) (width 0.15))
    (fp_line (start 2.92152 -0.00254) (end 1.39752 -0.00254) (layer F.SilkS) (width 0.15))
    (fp_line (start 3.30252 -0.76454) (end 3.30252 0.75946) (layer F.SilkS) (width 0.15))
    (fp_line (start 3.04852 -0.76454) (end 3.04852 0.75946) (layer F.SilkS) (width 0.15))
    (fp_line (start 2.79452 -0.00254) (end 2.79452 0.75946) (layer F.SilkS) (width 0.15))
    (fp_line (start 2.79452 0.75946) (end 7.36652 0.75946) (layer F.SilkS) (width 0.15))
    (fp_line (start 7.36652 0.75946) (end 7.36652 -0.76454) (layer F.SilkS) (width 0.15))
    (fp_line (start 7.36652 -0.76454) (end 2.79452 -0.76454) (layer F.SilkS) (width 0.15))
    (fp_line (start 2.79452 -0.76454) (end 2.79452 -0.00254) (layer F.SilkS) (width 0.15))
    (pad 2 thru_hole circle (at 10.16052 -0.00254 180) (size 1.69926 1.69926) (drill 0.70104) (layers *.Cu *.Mask F.SilkS)
      (net 3 "Net-(D2-Pad2)"))
    (pad 1 thru_hole rect (at 0.00052 -0.00254 180) (size 1.69926 1.69926) (drill 0.70104) (layers *.Cu *.Mask F.SilkS)
      (net 2 +5V))
    (model Diodes_ThroughHole.3dshapes/Diode_DO-35_SOD27_Horizontal_RM10.wrl
      (at (xyz 0.2 0 0))
      (scale (xyz 0.4 0.4 0.4))
      (rotate (xyz 0 0 180))
    )
  )

  (module Diodes_ThroughHole:Diode_DO-35_SOD27_Horizontal_RM10 (layer F.Cu) (tedit 5DACA355) (tstamp 5DACA18A)
    (at 124.46 76.835)
    (descr "Diode, DO-35,  SOD27, Horizontal, RM 10mm")
    (tags "Diode, DO-35, SOD27, Horizontal, RM 10mm, 1N4148,")
    (path /5DACA3C5)
    (fp_text reference D3 (at 12.7 0) (layer F.SilkS)
      (effects (font (size 1 1) (thickness 0.15)))
    )
    (fp_text value 1N4148 (at 5.08 0) (layer F.Fab)
      (effects (font (size 1 1) (thickness 0.15)))
    )
    (fp_line (start 7.36652 -0.00254) (end 8.76352 -0.00254) (layer F.SilkS) (width 0.15))
    (fp_line (start 2.92152 -0.00254) (end 1.39752 -0.00254) (layer F.SilkS) (width 0.15))
    (fp_line (start 3.30252 -0.76454) (end 3.30252 0.75946) (layer F.SilkS) (width 0.15))
    (fp_line (start 3.04852 -0.76454) (end 3.04852 0.75946) (layer F.SilkS) (width 0.15))
    (fp_line (start 2.79452 -0.00254) (end 2.79452 0.75946) (layer F.SilkS) (width 0.15))
    (fp_line (start 2.79452 0.75946) (end 7.36652 0.75946) (layer F.SilkS) (width 0.15))
    (fp_line (start 7.36652 0.75946) (end 7.36652 -0.76454) (layer F.SilkS) (width 0.15))
    (fp_line (start 7.36652 -0.76454) (end 2.79452 -0.76454) (layer F.SilkS) (width 0.15))
    (fp_line (start 2.79452 -0.76454) (end 2.79452 -0.00254) (layer F.SilkS) (width 0.15))
    (pad 2 thru_hole circle (at 10.16052 -0.00254 180) (size 1.69926 1.69926) (drill 0.70104) (layers *.Cu *.Mask F.SilkS)
      (net 4 "Net-(D3-Pad2)"))
    (pad 1 thru_hole rect (at 0.00052 -0.00254 180) (size 1.69926 1.69926) (drill 0.70104) (layers *.Cu *.Mask F.SilkS)
      (net 2 +5V))
    (model Diodes_ThroughHole.3dshapes/Diode_DO-35_SOD27_Horizontal_RM10.wrl
      (at (xyz 0.2 0 0))
      (scale (xyz 0.4 0.4 0.4))
      (rotate (xyz 0 0 180))
    )
  )

  (module Diodes_ThroughHole:Diode_DO-35_SOD27_Horizontal_RM10 (layer F.Cu) (tedit 5DACA396) (tstamp 5DACA190)
    (at 140.97 76.835)
    (descr "Diode, DO-35,  SOD27, Horizontal, RM 10mm")
    (tags "Diode, DO-35, SOD27, Horizontal, RM 10mm, 1N4148,")
    (path /5DACA435)
    (fp_text reference D4 (at 12.7 0) (layer F.SilkS)
      (effects (font (size 1 1) (thickness 0.15)))
    )
    (fp_text value 1N4148 (at 5.08 0) (layer F.Fab)
      (effects (font (size 1 1) (thickness 0.15)))
    )
    (fp_line (start 7.36652 -0.00254) (end 8.76352 -0.00254) (layer F.SilkS) (width 0.15))
    (fp_line (start 2.92152 -0.00254) (end 1.39752 -0.00254) (layer F.SilkS) (width 0.15))
    (fp_line (start 3.30252 -0.76454) (end 3.30252 0.75946) (layer F.SilkS) (width 0.15))
    (fp_line (start 3.04852 -0.76454) (end 3.04852 0.75946) (layer F.SilkS) (width 0.15))
    (fp_line (start 2.79452 -0.00254) (end 2.79452 0.75946) (layer F.SilkS) (width 0.15))
    (fp_line (start 2.79452 0.75946) (end 7.36652 0.75946) (layer F.SilkS) (width 0.15))
    (fp_line (start 7.36652 0.75946) (end 7.36652 -0.76454) (layer F.SilkS) (width 0.15))
    (fp_line (start 7.36652 -0.76454) (end 2.79452 -0.76454) (layer F.SilkS) (width 0.15))
    (fp_line (start 2.79452 -0.76454) (end 2.79452 -0.00254) (layer F.SilkS) (width 0.15))
    (pad 2 thru_hole circle (at 10.16052 -0.00254 180) (size 1.69926 1.69926) (drill 0.70104) (layers *.Cu *.Mask F.SilkS)
      (net 5 "Net-(D4-Pad2)"))
    (pad 1 thru_hole rect (at 0.00052 -0.00254 180) (size 1.69926 1.69926) (drill 0.70104) (layers *.Cu *.Mask F.SilkS)
      (net 2 +5V))
    (model Diodes_ThroughHole.3dshapes/Diode_DO-35_SOD27_Horizontal_RM10.wrl
      (at (xyz 0.2 0 0))
      (scale (xyz 0.4 0.4 0.4))
      (rotate (xyz 0 0 180))
    )
  )

  (module myRelays:Relay_SPDT_Finder-36.11 (layer F.Cu) (tedit 581780D6) (tstamp 5DACA199)
    (at 97.155 87.63 90)
    (path /5DAC9C19)
    (fp_text reference K1 (at -0.635 1.778 90) (layer F.SilkS)
      (effects (font (size 1 1) (thickness 0.15)))
    )
    (fp_text value SRD-05VDC-SL-C (at -0.381 -3.048 90) (layer F.Fab)
      (effects (font (size 1 1) (thickness 0.15)))
    )
    (fp_line (start -10.16 -8.382) (end 8.89 -8.382) (layer F.SilkS) (width 0.15))
    (fp_line (start 8.89 -8.382) (end 8.89 7.366) (layer F.SilkS) (width 0.15))
    (fp_line (start 8.89 7.366) (end -10.16 7.366) (layer F.SilkS) (width 0.15))
    (fp_line (start -10.16 7.366) (end -10.16 -8.382) (layer F.SilkS) (width 0.15))
    (pad C1 thru_hole circle (at -6.731 5.588 90) (size 2.54 2.54) (drill 0.762) (layers *.Cu *.Mask F.SilkS)
      (net 6 "Net-(K1-PadC1)"))
    (pad O1 thru_hole circle (at -6.731 -6.477 90) (size 2.54 2.54) (drill 0.762) (layers *.Cu *.Mask F.SilkS)
      (net 7 "Net-(K1-PadO1)"))
    (pad 1 thru_hole circle (at 5.461 -6.477 90) (size 2.54 2.54) (drill 0.762) (layers *.Cu *.Mask F.SilkS)
      (net 2 +5V))
    (pad 2 thru_hole circle (at 5.461 5.588 90) (size 2.54 2.54) (drill 0.762) (layers *.Cu *.Mask F.SilkS)
      (net 1 "Net-(D1-Pad2)"))
    (pad P1 thru_hole circle (at 7.493 -0.508 90) (size 2.54 2.54) (drill 0.762) (layers *.Cu *.Mask F.SilkS)
      (net 8 "Net-(K1-PadP1)"))
  )

  (module myRelays:Relay_SPDT_Finder-36.11 (layer F.Cu) (tedit 581780D6) (tstamp 5DACA1A2)
    (at 113.665 87.63 90)
    (path /5DAC9DD2)
    (fp_text reference K2 (at -0.635 1.778 90) (layer F.SilkS)
      (effects (font (size 1 1) (thickness 0.15)))
    )
    (fp_text value SRD-05VDC-SL-C (at -0.381 -3.048 90) (layer F.Fab)
      (effects (font (size 1 1) (thickness 0.15)))
    )
    (fp_line (start -10.16 -8.382) (end 8.89 -8.382) (layer F.SilkS) (width 0.15))
    (fp_line (start 8.89 -8.382) (end 8.89 7.366) (layer F.SilkS) (width 0.15))
    (fp_line (start 8.89 7.366) (end -10.16 7.366) (layer F.SilkS) (width 0.15))
    (fp_line (start -10.16 7.366) (end -10.16 -8.382) (layer F.SilkS) (width 0.15))
    (pad C1 thru_hole circle (at -6.731 5.588 90) (size 2.54 2.54) (drill 0.762) (layers *.Cu *.Mask F.SilkS)
      (net 9 "Net-(K2-PadC1)"))
    (pad O1 thru_hole circle (at -6.731 -6.477 90) (size 2.54 2.54) (drill 0.762) (layers *.Cu *.Mask F.SilkS)
      (net 10 "Net-(K2-PadO1)"))
    (pad 1 thru_hole circle (at 5.461 -6.477 90) (size 2.54 2.54) (drill 0.762) (layers *.Cu *.Mask F.SilkS)
      (net 2 +5V))
    (pad 2 thru_hole circle (at 5.461 5.588 90) (size 2.54 2.54) (drill 0.762) (layers *.Cu *.Mask F.SilkS)
      (net 3 "Net-(D2-Pad2)"))
    (pad P1 thru_hole circle (at 7.493 -0.508 90) (size 2.54 2.54) (drill 0.762) (layers *.Cu *.Mask F.SilkS)
      (net 11 "Net-(K2-PadP1)"))
  )

  (module myRelays:Relay_SPDT_Finder-36.11 (layer F.Cu) (tedit 581780D6) (tstamp 5DACA1AB)
    (at 130.175 87.63 90)
    (path /5DAC9E08)
    (fp_text reference K3 (at -0.635 1.778 90) (layer F.SilkS)
      (effects (font (size 1 1) (thickness 0.15)))
    )
    (fp_text value SRD-05VDC-SL-C (at -0.381 -3.048 90) (layer F.Fab)
      (effects (font (size 1 1) (thickness 0.15)))
    )
    (fp_line (start -10.16 -8.382) (end 8.89 -8.382) (layer F.SilkS) (width 0.15))
    (fp_line (start 8.89 -8.382) (end 8.89 7.366) (layer F.SilkS) (width 0.15))
    (fp_line (start 8.89 7.366) (end -10.16 7.366) (layer F.SilkS) (width 0.15))
    (fp_line (start -10.16 7.366) (end -10.16 -8.382) (layer F.SilkS) (width 0.15))
    (pad C1 thru_hole circle (at -6.731 5.588 90) (size 2.54 2.54) (drill 0.762) (layers *.Cu *.Mask F.SilkS)
      (net 12 "Net-(K3-PadC1)"))
    (pad O1 thru_hole circle (at -6.731 -6.477 90) (size 2.54 2.54) (drill 0.762) (layers *.Cu *.Mask F.SilkS)
      (net 13 "Net-(K3-PadO1)"))
    (pad 1 thru_hole circle (at 5.461 -6.477 90) (size 2.54 2.54) (drill 0.762) (layers *.Cu *.Mask F.SilkS)
      (net 2 +5V))
    (pad 2 thru_hole circle (at 5.461 5.588 90) (size 2.54 2.54) (drill 0.762) (layers *.Cu *.Mask F.SilkS)
      (net 4 "Net-(D3-Pad2)"))
    (pad P1 thru_hole circle (at 7.493 -0.508 90) (size 2.54 2.54) (drill 0.762) (layers *.Cu *.Mask F.SilkS)
      (net 14 "Net-(K3-PadP1)"))
  )

  (module myRelays:Relay_SPDT_Finder-36.11 (layer F.Cu) (tedit 581780D6) (tstamp 5DACA1B4)
    (at 146.685 87.63 90)
    (path /5DAC9E41)
    (fp_text reference K4 (at -0.635 1.778 90) (layer F.SilkS)
      (effects (font (size 1 1) (thickness 0.15)))
    )
    (fp_text value SRD-05VDC-SL-C (at -0.381 -3.048 90) (layer F.Fab)
      (effects (font (size 1 1) (thickness 0.15)))
    )
    (fp_line (start -10.16 -8.382) (end 8.89 -8.382) (layer F.SilkS) (width 0.15))
    (fp_line (start 8.89 -8.382) (end 8.89 7.366) (layer F.SilkS) (width 0.15))
    (fp_line (start 8.89 7.366) (end -10.16 7.366) (layer F.SilkS) (width 0.15))
    (fp_line (start -10.16 7.366) (end -10.16 -8.382) (layer F.SilkS) (width 0.15))
    (pad C1 thru_hole circle (at -6.731 5.588 90) (size 2.54 2.54) (drill 0.762) (layers *.Cu *.Mask F.SilkS)
      (net 15 "Net-(K4-PadC1)"))
    (pad O1 thru_hole circle (at -6.731 -6.477 90) (size 2.54 2.54) (drill 0.762) (layers *.Cu *.Mask F.SilkS)
      (net 16 "Net-(K4-PadO1)"))
    (pad 1 thru_hole circle (at 5.461 -6.477 90) (size 2.54 2.54) (drill 0.762) (layers *.Cu *.Mask F.SilkS)
      (net 2 +5V))
    (pad 2 thru_hole circle (at 5.461 5.588 90) (size 2.54 2.54) (drill 0.762) (layers *.Cu *.Mask F.SilkS)
      (net 5 "Net-(D4-Pad2)"))
    (pad P1 thru_hole circle (at 7.493 -0.508 90) (size 2.54 2.54) (drill 0.762) (layers *.Cu *.Mask F.SilkS)
      (net 17 "Net-(K4-PadP1)"))
  )

  (module Connect:bornier3 (layer F.Cu) (tedit 0) (tstamp 5DACA1C4)
    (at 98.425 103.505)
    (descr "Bornier d'alimentation 3 pins")
    (tags DEV)
    (path /5DACB075)
    (fp_text reference P2 (at 0 -5.08) (layer F.SilkS)
      (effects (font (size 1 1) (thickness 0.15)))
    )
    (fp_text value RELAY1 (at 0 5.08) (layer F.Fab)
      (effects (font (size 1 1) (thickness 0.15)))
    )
    (fp_line (start -7.62 3.81) (end -7.62 -3.81) (layer F.SilkS) (width 0.15))
    (fp_line (start 7.62 3.81) (end 7.62 -3.81) (layer F.SilkS) (width 0.15))
    (fp_line (start -7.62 2.54) (end 7.62 2.54) (layer F.SilkS) (width 0.15))
    (fp_line (start -7.62 -3.81) (end 7.62 -3.81) (layer F.SilkS) (width 0.15))
    (fp_line (start -7.62 3.81) (end 7.62 3.81) (layer F.SilkS) (width 0.15))
    (pad 1 thru_hole rect (at -5.08 0) (size 2.54 2.54) (drill 1.524) (layers *.Cu *.Mask F.SilkS)
      (net 7 "Net-(K1-PadO1)"))
    (pad 2 thru_hole circle (at 0 0) (size 2.54 2.54) (drill 1.524) (layers *.Cu *.Mask F.SilkS)
      (net 8 "Net-(K1-PadP1)"))
    (pad 3 thru_hole circle (at 5.08 0) (size 2.54 2.54) (drill 1.524) (layers *.Cu *.Mask F.SilkS)
      (net 6 "Net-(K1-PadC1)"))
    (model Connect.3dshapes/bornier3.wrl
      (at (xyz 0 0 0))
      (scale (xyz 1 1 1))
      (rotate (xyz 0 0 0))
    )
  )

  (module Connect:bornier3 (layer F.Cu) (tedit 0) (tstamp 5DACA1CB)
    (at 113.665 103.505)
    (descr "Bornier d'alimentation 3 pins")
    (tags DEV)
    (path /5DACB292)
    (fp_text reference P3 (at 0 -5.08) (layer F.SilkS)
      (effects (font (size 1 1) (thickness 0.15)))
    )
    (fp_text value RELAY2 (at 0 5.08) (layer F.Fab)
      (effects (font (size 1 1) (thickness 0.15)))
    )
    (fp_line (start -7.62 3.81) (end -7.62 -3.81) (layer F.SilkS) (width 0.15))
    (fp_line (start 7.62 3.81) (end 7.62 -3.81) (layer F.SilkS) (width 0.15))
    (fp_line (start -7.62 2.54) (end 7.62 2.54) (layer F.SilkS) (width 0.15))
    (fp_line (start -7.62 -3.81) (end 7.62 -3.81) (layer F.SilkS) (width 0.15))
    (fp_line (start -7.62 3.81) (end 7.62 3.81) (layer F.SilkS) (width 0.15))
    (pad 1 thru_hole rect (at -5.08 0) (size 2.54 2.54) (drill 1.524) (layers *.Cu *.Mask F.SilkS)
      (net 10 "Net-(K2-PadO1)"))
    (pad 2 thru_hole circle (at 0 0) (size 2.54 2.54) (drill 1.524) (layers *.Cu *.Mask F.SilkS)
      (net 11 "Net-(K2-PadP1)"))
    (pad 3 thru_hole circle (at 5.08 0) (size 2.54 2.54) (drill 1.524) (layers *.Cu *.Mask F.SilkS)
      (net 9 "Net-(K2-PadC1)"))
    (model Connect.3dshapes/bornier3.wrl
      (at (xyz 0 0 0))
      (scale (xyz 1 1 1))
      (rotate (xyz 0 0 0))
    )
  )

  (module Connect:bornier3 (layer F.Cu) (tedit 0) (tstamp 5DACA1D2)
    (at 128.905 103.505)
    (descr "Bornier d'alimentation 3 pins")
    (tags DEV)
    (path /5DACB587)
    (fp_text reference P4 (at 0 -5.08) (layer F.SilkS)
      (effects (font (size 1 1) (thickness 0.15)))
    )
    (fp_text value RELAY3 (at 0 5.08) (layer F.Fab)
      (effects (font (size 1 1) (thickness 0.15)))
    )
    (fp_line (start -7.62 3.81) (end -7.62 -3.81) (layer F.SilkS) (width 0.15))
    (fp_line (start 7.62 3.81) (end 7.62 -3.81) (layer F.SilkS) (width 0.15))
    (fp_line (start -7.62 2.54) (end 7.62 2.54) (layer F.SilkS) (width 0.15))
    (fp_line (start -7.62 -3.81) (end 7.62 -3.81) (layer F.SilkS) (width 0.15))
    (fp_line (start -7.62 3.81) (end 7.62 3.81) (layer F.SilkS) (width 0.15))
    (pad 1 thru_hole rect (at -5.08 0) (size 2.54 2.54) (drill 1.524) (layers *.Cu *.Mask F.SilkS)
      (net 13 "Net-(K3-PadO1)"))
    (pad 2 thru_hole circle (at 0 0) (size 2.54 2.54) (drill 1.524) (layers *.Cu *.Mask F.SilkS)
      (net 14 "Net-(K3-PadP1)"))
    (pad 3 thru_hole circle (at 5.08 0) (size 2.54 2.54) (drill 1.524) (layers *.Cu *.Mask F.SilkS)
      (net 12 "Net-(K3-PadC1)"))
    (model Connect.3dshapes/bornier3.wrl
      (at (xyz 0 0 0))
      (scale (xyz 1 1 1))
      (rotate (xyz 0 0 0))
    )
  )

  (module Connect:bornier3 (layer F.Cu) (tedit 0) (tstamp 5DACA1D9)
    (at 144.145 103.505)
    (descr "Bornier d'alimentation 3 pins")
    (tags DEV)
    (path /5DACB658)
    (fp_text reference P5 (at 0 -5.08) (layer F.SilkS)
      (effects (font (size 1 1) (thickness 0.15)))
    )
    (fp_text value RELAY4 (at 0 5.08) (layer F.Fab)
      (effects (font (size 1 1) (thickness 0.15)))
    )
    (fp_line (start -7.62 3.81) (end -7.62 -3.81) (layer F.SilkS) (width 0.15))
    (fp_line (start 7.62 3.81) (end 7.62 -3.81) (layer F.SilkS) (width 0.15))
    (fp_line (start -7.62 2.54) (end 7.62 2.54) (layer F.SilkS) (width 0.15))
    (fp_line (start -7.62 -3.81) (end 7.62 -3.81) (layer F.SilkS) (width 0.15))
    (fp_line (start -7.62 3.81) (end 7.62 3.81) (layer F.SilkS) (width 0.15))
    (pad 1 thru_hole rect (at -5.08 0) (size 2.54 2.54) (drill 1.524) (layers *.Cu *.Mask F.SilkS)
      (net 16 "Net-(K4-PadO1)"))
    (pad 2 thru_hole circle (at 0 0) (size 2.54 2.54) (drill 1.524) (layers *.Cu *.Mask F.SilkS)
      (net 17 "Net-(K4-PadP1)"))
    (pad 3 thru_hole circle (at 5.08 0) (size 2.54 2.54) (drill 1.524) (layers *.Cu *.Mask F.SilkS)
      (net 15 "Net-(K4-PadC1)"))
    (model Connect.3dshapes/bornier3.wrl
      (at (xyz 0 0 0))
      (scale (xyz 1 1 1))
      (rotate (xyz 0 0 0))
    )
  )

  (module TO_SOT_Packages_THT:TO-92_Inline_Wide (layer F.Cu) (tedit 54F242B4) (tstamp 5DACA1E0)
    (at 93.98 71.755)
    (descr "TO-92 leads in-line, wide, drill 0.8mm (see NXP sot054_po.pdf)")
    (tags "to-92 sc-43 sc-43a sot54 PA33 transistor")
    (path /5DAC9E7B)
    (fp_text reference Q1 (at 0 -4 180) (layer F.SilkS)
      (effects (font (size 1 1) (thickness 0.15)))
    )
    (fp_text value 2N2222 (at 0 3) (layer F.Fab)
      (effects (font (size 1 1) (thickness 0.15)))
    )
    (fp_arc (start 2.54 0) (end 0.84 1.7) (angle 20.5) (layer F.SilkS) (width 0.15))
    (fp_arc (start 2.54 0) (end 4.24 1.7) (angle -20.5) (layer F.SilkS) (width 0.15))
    (fp_line (start -1 1.95) (end -1 -2.65) (layer F.CrtYd) (width 0.05))
    (fp_line (start -1 1.95) (end 6.1 1.95) (layer F.CrtYd) (width 0.05))
    (fp_line (start 0.84 1.7) (end 4.24 1.7) (layer F.SilkS) (width 0.15))
    (fp_arc (start 2.54 0) (end 2.54 -2.4) (angle -65.55604127) (layer F.SilkS) (width 0.15))
    (fp_arc (start 2.54 0) (end 2.54 -2.4) (angle 65.55604127) (layer F.SilkS) (width 0.15))
    (fp_line (start -1 -2.65) (end 6.1 -2.65) (layer F.CrtYd) (width 0.05))
    (fp_line (start 6.1 1.95) (end 6.1 -2.65) (layer F.CrtYd) (width 0.05))
    (pad 2 thru_hole circle (at 2.54 0 90) (size 1.524 1.524) (drill 0.8) (layers *.Cu *.Mask F.SilkS)
      (net 23 "Net-(Q1-Pad2)"))
    (pad 3 thru_hole circle (at 5.08 0 90) (size 1.524 1.524) (drill 0.8) (layers *.Cu *.Mask F.SilkS)
      (net 1 "Net-(D1-Pad2)"))
    (pad 1 thru_hole circle (at 0 0 90) (size 1.524 1.524) (drill 0.8) (layers *.Cu *.Mask F.SilkS)
      (net 18 GND))
    (model TO_SOT_Packages_THT.3dshapes/TO-92_Inline_Wide.wrl
      (at (xyz 0.1 0 0))
      (scale (xyz 1 1 1))
      (rotate (xyz 0 0 -90))
    )
  )

  (module TO_SOT_Packages_THT:TO-92_Inline_Wide (layer F.Cu) (tedit 54F242B4) (tstamp 5DACA1E7)
    (at 110.49 71.755)
    (descr "TO-92 leads in-line, wide, drill 0.8mm (see NXP sot054_po.pdf)")
    (tags "to-92 sc-43 sc-43a sot54 PA33 transistor")
    (path /5DAC9EEA)
    (fp_text reference Q2 (at 0 -4 180) (layer F.SilkS)
      (effects (font (size 1 1) (thickness 0.15)))
    )
    (fp_text value 2N2222 (at 0 3) (layer F.Fab)
      (effects (font (size 1 1) (thickness 0.15)))
    )
    (fp_arc (start 2.54 0) (end 0.84 1.7) (angle 20.5) (layer F.SilkS) (width 0.15))
    (fp_arc (start 2.54 0) (end 4.24 1.7) (angle -20.5) (layer F.SilkS) (width 0.15))
    (fp_line (start -1 1.95) (end -1 -2.65) (layer F.CrtYd) (width 0.05))
    (fp_line (start -1 1.95) (end 6.1 1.95) (layer F.CrtYd) (width 0.05))
    (fp_line (start 0.84 1.7) (end 4.24 1.7) (layer F.SilkS) (width 0.15))
    (fp_arc (start 2.54 0) (end 2.54 -2.4) (angle -65.55604127) (layer F.SilkS) (width 0.15))
    (fp_arc (start 2.54 0) (end 2.54 -2.4) (angle 65.55604127) (layer F.SilkS) (width 0.15))
    (fp_line (start -1 -2.65) (end 6.1 -2.65) (layer F.CrtYd) (width 0.05))
    (fp_line (start 6.1 1.95) (end 6.1 -2.65) (layer F.CrtYd) (width 0.05))
    (pad 2 thru_hole circle (at 2.54 0 90) (size 1.524 1.524) (drill 0.8) (layers *.Cu *.Mask F.SilkS)
      (net 24 "Net-(Q2-Pad2)"))
    (pad 3 thru_hole circle (at 5.08 0 90) (size 1.524 1.524) (drill 0.8) (layers *.Cu *.Mask F.SilkS)
      (net 3 "Net-(D2-Pad2)"))
    (pad 1 thru_hole circle (at 0 0 90) (size 1.524 1.524) (drill 0.8) (layers *.Cu *.Mask F.SilkS)
      (net 18 GND))
    (model TO_SOT_Packages_THT.3dshapes/TO-92_Inline_Wide.wrl
      (at (xyz 0.1 0 0))
      (scale (xyz 1 1 1))
      (rotate (xyz 0 0 -90))
    )
  )

  (module TO_SOT_Packages_THT:TO-92_Inline_Wide (layer F.Cu) (tedit 54F242B4) (tstamp 5DACA1EE)
    (at 127 71.755)
    (descr "TO-92 leads in-line, wide, drill 0.8mm (see NXP sot054_po.pdf)")
    (tags "to-92 sc-43 sc-43a sot54 PA33 transistor")
    (path /5DAC9F38)
    (fp_text reference Q3 (at 0 -4 180) (layer F.SilkS)
      (effects (font (size 1 1) (thickness 0.15)))
    )
    (fp_text value 2N2222 (at 0 3) (layer F.Fab)
      (effects (font (size 1 1) (thickness 0.15)))
    )
    (fp_arc (start 2.54 0) (end 0.84 1.7) (angle 20.5) (layer F.SilkS) (width 0.15))
    (fp_arc (start 2.54 0) (end 4.24 1.7) (angle -20.5) (layer F.SilkS) (width 0.15))
    (fp_line (start -1 1.95) (end -1 -2.65) (layer F.CrtYd) (width 0.05))
    (fp_line (start -1 1.95) (end 6.1 1.95) (layer F.CrtYd) (width 0.05))
    (fp_line (start 0.84 1.7) (end 4.24 1.7) (layer F.SilkS) (width 0.15))
    (fp_arc (start 2.54 0) (end 2.54 -2.4) (angle -65.55604127) (layer F.SilkS) (width 0.15))
    (fp_arc (start 2.54 0) (end 2.54 -2.4) (angle 65.55604127) (layer F.SilkS) (width 0.15))
    (fp_line (start -1 -2.65) (end 6.1 -2.65) (layer F.CrtYd) (width 0.05))
    (fp_line (start 6.1 1.95) (end 6.1 -2.65) (layer F.CrtYd) (width 0.05))
    (pad 2 thru_hole circle (at 2.54 0 90) (size 1.524 1.524) (drill 0.8) (layers *.Cu *.Mask F.SilkS)
      (net 25 "Net-(Q3-Pad2)"))
    (pad 3 thru_hole circle (at 5.08 0 90) (size 1.524 1.524) (drill 0.8) (layers *.Cu *.Mask F.SilkS)
      (net 4 "Net-(D3-Pad2)"))
    (pad 1 thru_hole circle (at 0 0 90) (size 1.524 1.524) (drill 0.8) (layers *.Cu *.Mask F.SilkS)
      (net 18 GND))
    (model TO_SOT_Packages_THT.3dshapes/TO-92_Inline_Wide.wrl
      (at (xyz 0.1 0 0))
      (scale (xyz 1 1 1))
      (rotate (xyz 0 0 -90))
    )
  )

  (module TO_SOT_Packages_THT:TO-92_Inline_Wide (layer F.Cu) (tedit 54F242B4) (tstamp 5DACA1F5)
    (at 143.51 71.755)
    (descr "TO-92 leads in-line, wide, drill 0.8mm (see NXP sot054_po.pdf)")
    (tags "to-92 sc-43 sc-43a sot54 PA33 transistor")
    (path /5DAC9F85)
    (fp_text reference Q4 (at 0 -4 180) (layer F.SilkS)
      (effects (font (size 1 1) (thickness 0.15)))
    )
    (fp_text value 2N2222 (at 0 3) (layer F.Fab)
      (effects (font (size 1 1) (thickness 0.15)))
    )
    (fp_arc (start 2.54 0) (end 0.84 1.7) (angle 20.5) (layer F.SilkS) (width 0.15))
    (fp_arc (start 2.54 0) (end 4.24 1.7) (angle -20.5) (layer F.SilkS) (width 0.15))
    (fp_line (start -1 1.95) (end -1 -2.65) (layer F.CrtYd) (width 0.05))
    (fp_line (start -1 1.95) (end 6.1 1.95) (layer F.CrtYd) (width 0.05))
    (fp_line (start 0.84 1.7) (end 4.24 1.7) (layer F.SilkS) (width 0.15))
    (fp_arc (start 2.54 0) (end 2.54 -2.4) (angle -65.55604127) (layer F.SilkS) (width 0.15))
    (fp_arc (start 2.54 0) (end 2.54 -2.4) (angle 65.55604127) (layer F.SilkS) (width 0.15))
    (fp_line (start -1 -2.65) (end 6.1 -2.65) (layer F.CrtYd) (width 0.05))
    (fp_line (start 6.1 1.95) (end 6.1 -2.65) (layer F.CrtYd) (width 0.05))
    (pad 2 thru_hole circle (at 2.54 0 90) (size 1.524 1.524) (drill 0.8) (layers *.Cu *.Mask F.SilkS)
      (net 26 "Net-(Q4-Pad2)"))
    (pad 3 thru_hole circle (at 5.08 0 90) (size 1.524 1.524) (drill 0.8) (layers *.Cu *.Mask F.SilkS)
      (net 5 "Net-(D4-Pad2)"))
    (pad 1 thru_hole circle (at 0 0 90) (size 1.524 1.524) (drill 0.8) (layers *.Cu *.Mask F.SilkS)
      (net 18 GND))
    (model TO_SOT_Packages_THT.3dshapes/TO-92_Inline_Wide.wrl
      (at (xyz 0.1 0 0))
      (scale (xyz 1 1 1))
      (rotate (xyz 0 0 -90))
    )
  )

  (module Resistors_ThroughHole:Resistor_Horizontal_RM10mm (layer F.Cu) (tedit 5DACA2F2) (tstamp 5DACA1FB)
    (at 97.155 63.5)
    (descr "Resistor, Axial,  RM 10mm, 1/3W")
    (tags "Resistor Axial RM 10mm 1/3W")
    (path /5DACA148)
    (fp_text reference R1 (at -2.54 0) (layer F.SilkS)
      (effects (font (size 1 1) (thickness 0.15)))
    )
    (fp_text value 1K (at 5.08 0) (layer F.Fab)
      (effects (font (size 1 1) (thickness 0.15)))
    )
    (fp_line (start -1.25 -1.5) (end 11.4 -1.5) (layer F.CrtYd) (width 0.05))
    (fp_line (start -1.25 1.5) (end -1.25 -1.5) (layer F.CrtYd) (width 0.05))
    (fp_line (start 11.4 -1.5) (end 11.4 1.5) (layer F.CrtYd) (width 0.05))
    (fp_line (start -1.25 1.5) (end 11.4 1.5) (layer F.CrtYd) (width 0.05))
    (fp_line (start 2.54 -1.27) (end 7.62 -1.27) (layer F.SilkS) (width 0.15))
    (fp_line (start 7.62 -1.27) (end 7.62 1.27) (layer F.SilkS) (width 0.15))
    (fp_line (start 7.62 1.27) (end 2.54 1.27) (layer F.SilkS) (width 0.15))
    (fp_line (start 2.54 1.27) (end 2.54 -1.27) (layer F.SilkS) (width 0.15))
    (fp_line (start 2.54 0) (end 1.27 0) (layer F.SilkS) (width 0.15))
    (fp_line (start 7.62 0) (end 8.89 0) (layer F.SilkS) (width 0.15))
    (pad 1 thru_hole circle (at 0 0) (size 1.99898 1.99898) (drill 1.00076) (layers *.Cu *.SilkS *.Mask)
      (net 23 "Net-(Q1-Pad2)"))
    (pad 2 thru_hole circle (at 10.16 0) (size 1.99898 1.99898) (drill 1.00076) (layers *.Cu *.SilkS *.Mask)
      (net 22 "Net-(P1-Pad5)"))
    (model Resistors_ThroughHole.3dshapes/Resistor_Horizontal_RM10mm.wrl
      (at (xyz 0 0 0))
      (scale (xyz 0.4 0.4 0.4))
      (rotate (xyz 0 0 0))
    )
  )

  (module Resistors_ThroughHole:Resistor_Horizontal_RM10mm (layer F.Cu) (tedit 5DACA2F9) (tstamp 5DACA201)
    (at 108.585 67.31)
    (descr "Resistor, Axial,  RM 10mm, 1/3W")
    (tags "Resistor Axial RM 10mm 1/3W")
    (path /5DACA0F7)
    (fp_text reference R2 (at -2.54 0) (layer F.SilkS)
      (effects (font (size 1 1) (thickness 0.15)))
    )
    (fp_text value 1K (at 5.08 0) (layer F.Fab)
      (effects (font (size 1 1) (thickness 0.15)))
    )
    (fp_line (start -1.25 -1.5) (end 11.4 -1.5) (layer F.CrtYd) (width 0.05))
    (fp_line (start -1.25 1.5) (end -1.25 -1.5) (layer F.CrtYd) (width 0.05))
    (fp_line (start 11.4 -1.5) (end 11.4 1.5) (layer F.CrtYd) (width 0.05))
    (fp_line (start -1.25 1.5) (end 11.4 1.5) (layer F.CrtYd) (width 0.05))
    (fp_line (start 2.54 -1.27) (end 7.62 -1.27) (layer F.SilkS) (width 0.15))
    (fp_line (start 7.62 -1.27) (end 7.62 1.27) (layer F.SilkS) (width 0.15))
    (fp_line (start 7.62 1.27) (end 2.54 1.27) (layer F.SilkS) (width 0.15))
    (fp_line (start 2.54 1.27) (end 2.54 -1.27) (layer F.SilkS) (width 0.15))
    (fp_line (start 2.54 0) (end 1.27 0) (layer F.SilkS) (width 0.15))
    (fp_line (start 7.62 0) (end 8.89 0) (layer F.SilkS) (width 0.15))
    (pad 1 thru_hole circle (at 0 0) (size 1.99898 1.99898) (drill 1.00076) (layers *.Cu *.SilkS *.Mask)
      (net 24 "Net-(Q2-Pad2)"))
    (pad 2 thru_hole circle (at 10.16 0) (size 1.99898 1.99898) (drill 1.00076) (layers *.Cu *.SilkS *.Mask)
      (net 21 "Net-(P1-Pad4)"))
    (model Resistors_ThroughHole.3dshapes/Resistor_Horizontal_RM10mm.wrl
      (at (xyz 0 0 0))
      (scale (xyz 0.4 0.4 0.4))
      (rotate (xyz 0 0 0))
    )
  )

  (module Resistors_ThroughHole:Resistor_Horizontal_RM10mm (layer F.Cu) (tedit 5DACA381) (tstamp 5DACA207)
    (at 133.985 67.31 180)
    (descr "Resistor, Axial,  RM 10mm, 1/3W")
    (tags "Resistor Axial RM 10mm 1/3W")
    (path /5DACA0A9)
    (fp_text reference R3 (at -2.54 0 180) (layer F.SilkS)
      (effects (font (size 1 1) (thickness 0.15)))
    )
    (fp_text value 1K (at 5.08 0 180) (layer F.Fab)
      (effects (font (size 1 1) (thickness 0.15)))
    )
    (fp_line (start -1.25 -1.5) (end 11.4 -1.5) (layer F.CrtYd) (width 0.05))
    (fp_line (start -1.25 1.5) (end -1.25 -1.5) (layer F.CrtYd) (width 0.05))
    (fp_line (start 11.4 -1.5) (end 11.4 1.5) (layer F.CrtYd) (width 0.05))
    (fp_line (start -1.25 1.5) (end 11.4 1.5) (layer F.CrtYd) (width 0.05))
    (fp_line (start 2.54 -1.27) (end 7.62 -1.27) (layer F.SilkS) (width 0.15))
    (fp_line (start 7.62 -1.27) (end 7.62 1.27) (layer F.SilkS) (width 0.15))
    (fp_line (start 7.62 1.27) (end 2.54 1.27) (layer F.SilkS) (width 0.15))
    (fp_line (start 2.54 1.27) (end 2.54 -1.27) (layer F.SilkS) (width 0.15))
    (fp_line (start 2.54 0) (end 1.27 0) (layer F.SilkS) (width 0.15))
    (fp_line (start 7.62 0) (end 8.89 0) (layer F.SilkS) (width 0.15))
    (pad 1 thru_hole circle (at 0 0 180) (size 1.99898 1.99898) (drill 1.00076) (layers *.Cu *.SilkS *.Mask)
      (net 25 "Net-(Q3-Pad2)"))
    (pad 2 thru_hole circle (at 10.16 0 180) (size 1.99898 1.99898) (drill 1.00076) (layers *.Cu *.SilkS *.Mask)
      (net 20 "Net-(P1-Pad3)"))
    (model Resistors_ThroughHole.3dshapes/Resistor_Horizontal_RM10mm.wrl
      (at (xyz 0 0 0))
      (scale (xyz 0.4 0.4 0.4))
      (rotate (xyz 0 0 0))
    )
  )

  (module Resistors_ThroughHole:Resistor_Horizontal_RM10mm (layer F.Cu) (tedit 5DACA36F) (tstamp 5DACA20D)
    (at 145.415 63.5 180)
    (descr "Resistor, Axial,  RM 10mm, 1/3W")
    (tags "Resistor Axial RM 10mm 1/3W")
    (path /5DACA04D)
    (fp_text reference R4 (at -2.54 0 180) (layer F.SilkS)
      (effects (font (size 1 1) (thickness 0.15)))
    )
    (fp_text value 1K (at 5.08 0 180) (layer F.Fab)
      (effects (font (size 1 1) (thickness 0.15)))
    )
    (fp_line (start -1.25 -1.5) (end 11.4 -1.5) (layer F.CrtYd) (width 0.05))
    (fp_line (start -1.25 1.5) (end -1.25 -1.5) (layer F.CrtYd) (width 0.05))
    (fp_line (start 11.4 -1.5) (end 11.4 1.5) (layer F.CrtYd) (width 0.05))
    (fp_line (start -1.25 1.5) (end 11.4 1.5) (layer F.CrtYd) (width 0.05))
    (fp_line (start 2.54 -1.27) (end 7.62 -1.27) (layer F.SilkS) (width 0.15))
    (fp_line (start 7.62 -1.27) (end 7.62 1.27) (layer F.SilkS) (width 0.15))
    (fp_line (start 7.62 1.27) (end 2.54 1.27) (layer F.SilkS) (width 0.15))
    (fp_line (start 2.54 1.27) (end 2.54 -1.27) (layer F.SilkS) (width 0.15))
    (fp_line (start 2.54 0) (end 1.27 0) (layer F.SilkS) (width 0.15))
    (fp_line (start 7.62 0) (end 8.89 0) (layer F.SilkS) (width 0.15))
    (pad 1 thru_hole circle (at 0 0 180) (size 1.99898 1.99898) (drill 1.00076) (layers *.Cu *.SilkS *.Mask)
      (net 26 "Net-(Q4-Pad2)"))
    (pad 2 thru_hole circle (at 10.16 0 180) (size 1.99898 1.99898) (drill 1.00076) (layers *.Cu *.SilkS *.Mask)
      (net 19 "Net-(P1-Pad2)"))
    (model Resistors_ThroughHole.3dshapes/Resistor_Horizontal_RM10mm.wrl
      (at (xyz 0 0 0))
      (scale (xyz 0.4 0.4 0.4))
      (rotate (xyz 0 0 0))
    )
  )

  (module Wire_Pads:SolderWirePad_single_2-5mmDrill (layer F.Cu) (tedit 5DAD7EA9) (tstamp 5DACAB89)
    (at 88.265 106.68)
    (fp_text reference "" (at 0 -5.08) (layer F.SilkS)
      (effects (font (size 1 1) (thickness 0.15)))
    )
    (fp_text value "" (at 1.27 5.08) (layer F.Fab)
      (effects (font (size 1 1) (thickness 0.15)))
    )
    (pad "" thru_hole circle (at 0 0) (size 3 3) (drill 1) (layers *.Cu *.Mask F.SilkS))
  )

  (module Pin_Headers:Pin_Header_Straight_1x06 (layer F.Cu) (tedit 0) (tstamp 5DAD970A)
    (at 127.635 63.5 270)
    (descr "Through hole pin header")
    (tags "pin header")
    (path /5DAD9861)
    (fp_text reference P1 (at 0 -5.1 270) (layer F.SilkS)
      (effects (font (size 1 1) (thickness 0.15)))
    )
    (fp_text value INPUT (at 0 -3.1 270) (layer F.Fab)
      (effects (font (size 1 1) (thickness 0.15)))
    )
    (fp_line (start -1.75 -1.75) (end -1.75 14.45) (layer F.CrtYd) (width 0.05))
    (fp_line (start 1.75 -1.75) (end 1.75 14.45) (layer F.CrtYd) (width 0.05))
    (fp_line (start -1.75 -1.75) (end 1.75 -1.75) (layer F.CrtYd) (width 0.05))
    (fp_line (start -1.75 14.45) (end 1.75 14.45) (layer F.CrtYd) (width 0.05))
    (fp_line (start 1.27 1.27) (end 1.27 13.97) (layer F.SilkS) (width 0.15))
    (fp_line (start 1.27 13.97) (end -1.27 13.97) (layer F.SilkS) (width 0.15))
    (fp_line (start -1.27 13.97) (end -1.27 1.27) (layer F.SilkS) (width 0.15))
    (fp_line (start 1.55 -1.55) (end 1.55 0) (layer F.SilkS) (width 0.15))
    (fp_line (start 1.27 1.27) (end -1.27 1.27) (layer F.SilkS) (width 0.15))
    (fp_line (start -1.55 0) (end -1.55 -1.55) (layer F.SilkS) (width 0.15))
    (fp_line (start -1.55 -1.55) (end 1.55 -1.55) (layer F.SilkS) (width 0.15))
    (pad 1 thru_hole rect (at 0 0 270) (size 2.032 1.7272) (drill 1.016) (layers *.Cu *.Mask F.SilkS)
      (net 18 GND))
    (pad 2 thru_hole oval (at 0 2.54 270) (size 2.032 1.7272) (drill 1.016) (layers *.Cu *.Mask F.SilkS)
      (net 19 "Net-(P1-Pad2)"))
    (pad 3 thru_hole oval (at 0 5.08 270) (size 2.032 1.7272) (drill 1.016) (layers *.Cu *.Mask F.SilkS)
      (net 20 "Net-(P1-Pad3)"))
    (pad 4 thru_hole oval (at 0 7.62 270) (size 2.032 1.7272) (drill 1.016) (layers *.Cu *.Mask F.SilkS)
      (net 21 "Net-(P1-Pad4)"))
    (pad 5 thru_hole oval (at 0 10.16 270) (size 2.032 1.7272) (drill 1.016) (layers *.Cu *.Mask F.SilkS)
      (net 22 "Net-(P1-Pad5)"))
    (pad 6 thru_hole oval (at 0 12.7 270) (size 2.032 1.7272) (drill 1.016) (layers *.Cu *.Mask F.SilkS)
      (net 2 +5V))
    (model Pin_Headers.3dshapes/Pin_Header_Straight_1x06.wrl
      (at (xyz 0 -0.25 0))
      (scale (xyz 1 1 1))
      (rotate (xyz 0 0 90))
    )
  )

  (gr_line (start 86.36 108.585) (end 86.36 58.42) (angle 90) (layer Edge.Cuts) (width 0.15))
  (gr_line (start 156.21 108.585) (end 86.36 108.585) (angle 90) (layer Edge.Cuts) (width 0.15))
  (gr_line (start 156.21 58.42) (end 156.21 108.585) (angle 90) (layer Edge.Cuts) (width 0.15))
  (gr_line (start 86.36 58.42) (end 156.21 58.42) (angle 90) (layer Edge.Cuts) (width 0.15))

  (segment (start 102.743 82.169) (end 102.743 77.97494) (width 0.5) (layer B.Cu) (net 1) (status 10))
  (segment (start 102.743 77.97494) (end 101.60052 76.83246) (width 0.5) (layer B.Cu) (net 1) (tstamp 5DAD7AE4))
  (segment (start 101.60052 76.83246) (end 101.60052 74.29552) (width 0.5) (layer B.Cu) (net 1))
  (segment (start 101.60052 74.29552) (end 99.06 71.755) (width 0.5) (layer B.Cu) (net 1) (tstamp 5DAD7ADB))
  (segment (start 102.108 77.33994) (end 101.60052 76.83246) (width 0.5) (layer B.Cu) (net 1) (tstamp 5DACA54A) (status 30))
  (segment (start 114.935 63.5) (end 114.935 64.77) (width 0.5) (layer B.Cu) (net 2) (status 400000))
  (segment (start 114.935 64.77) (end 114.3 65.405) (width 0.5) (layer B.Cu) (net 2) (tstamp 5DAD9751))
  (segment (start 110.49254 76.83246) (end 107.95052 76.83246) (width 0.5) (layer B.Cu) (net 2) (tstamp 5DAD972D))
  (segment (start 114.3 65.405) (end 114.3 73.025) (width 0.5) (layer B.Cu) (net 2) (tstamp 5DAD972A))
  (segment (start 114.3 73.025) (end 110.49254 76.83246) (width 0.5) (layer B.Cu) (net 2) (tstamp 5DAD972B))
  (segment (start 90.678 82.169) (end 90.678 77.59498) (width 0.5) (layer B.Cu) (net 2) (status 10))
  (segment (start 90.678 77.59498) (end 91.44052 76.83246) (width 0.5) (layer B.Cu) (net 2) (tstamp 5DAD7ADF))
  (segment (start 107.95 74.93) (end 107.95 76.83194) (width 0.5) (layer F.Cu) (net 2))
  (segment (start 107.95 76.83194) (end 107.95052 76.83246) (width 0.5) (layer F.Cu) (net 2) (tstamp 5DACA89F))
  (segment (start 124.46 74.93) (end 124.46 76.83194) (width 0.5) (layer F.Cu) (net 2))
  (segment (start 124.46 76.83194) (end 124.46052 76.83246) (width 0.5) (layer F.Cu) (net 2) (tstamp 5DACA89A))
  (segment (start 91.44052 76.83246) (end 91.44052 76.19948) (width 0.5) (layer F.Cu) (net 2) (status 30))
  (segment (start 91.44052 76.19948) (end 92.71 74.93) (width 0.5) (layer F.Cu) (net 2) (tstamp 5DACA893) (status 10))
  (segment (start 139.06806 74.93) (end 140.97052 76.83246) (width 0.5) (layer F.Cu) (net 2) (tstamp 5DACA895))
  (segment (start 92.71 74.93) (end 107.95 74.93) (width 0.5) (layer F.Cu) (net 2) (tstamp 5DACA894))
  (segment (start 107.95 74.93) (end 124.46 74.93) (width 0.5) (layer F.Cu) (net 2) (tstamp 5DACA89D))
  (segment (start 124.46 74.93) (end 139.06806 74.93) (width 0.5) (layer F.Cu) (net 2) (tstamp 5DACA898))
  (segment (start 140.97052 76.83246) (end 140.97052 76.20052) (width 0.5) (layer F.Cu) (net 2) (status 30))
  (segment (start 140.208 82.169) (end 140.208 77.59498) (width 0.5) (layer B.Cu) (net 2) (status 20))
  (segment (start 140.208 77.59498) (end 140.97052 76.83246) (width 0.5) (layer B.Cu) (net 2) (tstamp 5DACA4B8) (status 30))
  (segment (start 123.698 82.169) (end 123.698 77.59498) (width 0.5) (layer B.Cu) (net 2) (status 20))
  (segment (start 123.698 77.59498) (end 124.46052 76.83246) (width 0.5) (layer B.Cu) (net 2) (tstamp 5DACA4B5) (status 30))
  (segment (start 107.188 82.169) (end 107.188 77.59498) (width 0.5) (layer B.Cu) (net 2) (status 20))
  (segment (start 107.188 77.59498) (end 107.95052 76.83246) (width 0.5) (layer B.Cu) (net 2) (tstamp 5DACA4B0) (status 30))
  (segment (start 119.253 82.169) (end 119.253 77.97494) (width 0.5) (layer B.Cu) (net 3))
  (segment (start 119.253 77.97494) (end 118.11052 76.83246) (width 0.5) (layer B.Cu) (net 3) (tstamp 5DAD7B74))
  (segment (start 118.11052 76.83246) (end 118.11052 74.29552) (width 0.5) (layer B.Cu) (net 3) (status 10))
  (segment (start 118.11052 74.29552) (end 115.57 71.755) (width 0.5) (layer B.Cu) (net 3) (tstamp 5DACA680))
  (segment (start 135.763 82.169) (end 135.763 77.97494) (width 0.5) (layer B.Cu) (net 4))
  (segment (start 135.763 77.97494) (end 134.62052 76.83246) (width 0.5) (layer B.Cu) (net 4) (tstamp 5DAD7B6E))
  (segment (start 134.62052 76.83246) (end 134.62052 74.29552) (width 0.5) (layer B.Cu) (net 4) (status 10))
  (segment (start 134.62052 74.29552) (end 132.08 71.755) (width 0.5) (layer B.Cu) (net 4) (tstamp 5DACA684))
  (segment (start 152.273 82.169) (end 152.273 77.97494) (width 0.5) (layer B.Cu) (net 5))
  (segment (start 152.273 77.97494) (end 151.13052 76.83246) (width 0.5) (layer B.Cu) (net 5) (tstamp 5DAD7B7F))
  (segment (start 151.13052 76.83246) (end 151.13052 74.29552) (width 0.5) (layer B.Cu) (net 5) (status 10))
  (segment (start 151.13052 74.29552) (end 148.59 71.755) (width 0.5) (layer B.Cu) (net 5) (tstamp 5DACA687))
  (segment (start 102.743 94.361) (end 102.743 102.743) (width 1) (layer B.Cu) (net 6) (status 10))
  (segment (start 102.743 102.743) (end 103.505 103.505) (width 1) (layer B.Cu) (net 6) (tstamp 5DACA443))
  (segment (start 90.678 94.361) (end 90.678 100.838) (width 1) (layer B.Cu) (net 7) (status 10))
  (segment (start 90.678 100.838) (end 93.345 103.505) (width 1) (layer B.Cu) (net 7) (tstamp 5DACA447))
  (segment (start 96.647 80.137) (end 96.647 96.012) (width 1) (layer B.Cu) (net 8) (status 10))
  (segment (start 98.425 97.79) (end 98.425 103.505) (width 1) (layer B.Cu) (net 8) (tstamp 5DACA44F))
  (segment (start 96.647 96.012) (end 98.425 97.79) (width 1) (layer B.Cu) (net 8) (tstamp 5DACA44B))
  (segment (start 118.745 103.505) (end 118.745 94.869) (width 1) (layer B.Cu) (net 9) (status 20))
  (segment (start 118.745 94.869) (end 119.253 94.361) (width 1) (layer B.Cu) (net 9) (tstamp 5DACA41C) (status 30))
  (segment (start 108.585 103.505) (end 108.585 94.488) (width 1) (layer B.Cu) (net 10))
  (segment (start 108.585 94.488) (end 107.188 94.361) (width 1) (layer B.Cu) (net 10) (tstamp 5DACA421) (status 20))
  (segment (start 113.665 103.505) (end 113.665 92.71) (width 1) (layer B.Cu) (net 11))
  (segment (start 113.157 92.202) (end 113.157 80.137) (width 1) (layer B.Cu) (net 11) (tstamp 5DACA432) (status 20))
  (segment (start 113.665 92.71) (end 113.157 92.202) (width 1) (layer B.Cu) (net 11) (tstamp 5DACA42D))
  (segment (start 133.985 103.505) (end 133.985 94.869) (width 1) (layer B.Cu) (net 12))
  (segment (start 133.985 94.869) (end 135.763 94.361) (width 1) (layer B.Cu) (net 12) (tstamp 5DACA45E) (status 20))
  (segment (start 123.825 103.505) (end 123.825 94.488) (width 1) (layer B.Cu) (net 13) (status 20))
  (segment (start 123.825 94.488) (end 123.698 94.361) (width 1) (layer B.Cu) (net 13) (tstamp 5DACA459) (status 30))
  (segment (start 129.667 80.137) (end 129.667 92.583) (width 1) (layer B.Cu) (net 14) (status 10))
  (segment (start 128.905 93.345) (end 128.905 103.505) (width 1) (layer B.Cu) (net 14) (tstamp 5DACA465))
  (segment (start 129.667 92.583) (end 128.905 93.345) (width 1) (layer B.Cu) (net 14) (tstamp 5DACA462))
  (segment (start 152.273 94.361) (end 152.273 100.457) (width 1) (layer B.Cu) (net 15) (status 10))
  (segment (start 152.273 100.457) (end 149.225 103.505) (width 1) (layer B.Cu) (net 15) (tstamp 5DACA48D))
  (segment (start 140.208 94.361) (end 140.208 102.362) (width 1) (layer B.Cu) (net 16) (status 10))
  (segment (start 140.208 102.362) (end 139.065 103.505) (width 1) (layer B.Cu) (net 16) (tstamp 5DACA46D))
  (segment (start 146.177 80.137) (end 146.177 95.123) (width 1) (layer B.Cu) (net 17) (status 10))
  (segment (start 144.145 97.155) (end 144.145 103.505) (width 1) (layer B.Cu) (net 17) (tstamp 5DACA475))
  (segment (start 146.177 95.123) (end 144.145 97.155) (width 1) (layer B.Cu) (net 17) (tstamp 5DACA471))
  (segment (start 104.775 60.96) (end 104.775 67.945) (width 0.5) (layer B.Cu) (net 18))
  (segment (start 104.775 67.945) (end 108.585 71.755) (width 0.5) (layer B.Cu) (net 18) (tstamp 5DAD976A))
  (segment (start 127 71.755) (end 127 66.04) (width 0.5) (layer B.Cu) (net 18))
  (segment (start 127 66.04) (end 127.635 65.405) (width 0.5) (layer B.Cu) (net 18) (tstamp 5DAD7C78))
  (segment (start 135.89 59.69) (end 137.795 61.595) (width 0.5) (layer B.Cu) (net 18))
  (segment (start 137.795 61.595) (end 137.795 65.405) (width 0.5) (layer B.Cu) (net 18) (tstamp 5DAD7C27))
  (segment (start 106.045 59.69) (end 135.89 59.69) (width 0.5) (layer B.Cu) (net 18) (tstamp 5DAD7B99))
  (segment (start 102.87 60.96) (end 104.775 60.96) (width 0.5) (layer B.Cu) (net 18))
  (segment (start 110.49 71.755) (end 108.585 71.755) (width 0.5) (layer B.Cu) (net 18))
  (segment (start 127 71.755) (end 127 71.12) (width 0.5) (layer B.Cu) (net 18))
  (segment (start 137.16 65.405) (end 137.795 65.405) (width 0.5) (layer B.Cu) (net 18))
  (segment (start 137.795 65.405) (end 139.065 65.405) (width 0.5) (layer B.Cu) (net 18) (tstamp 5DAD7C2A))
  (segment (start 143.51 69.85) (end 143.51 71.755) (width 0.5) (layer B.Cu) (net 18) (tstamp 5DAD7BB4))
  (segment (start 139.065 65.405) (end 143.51 69.85) (width 0.5) (layer B.Cu) (net 18) (tstamp 5DAD7BB3))
  (segment (start 104.775 60.96) (end 106.045 59.69) (width 0.5) (layer B.Cu) (net 18) (tstamp 5DAD7B92))
  (segment (start 95.25 60.96) (end 102.87 60.96) (width 0.5) (layer B.Cu) (net 18))
  (segment (start 93.98 71.755) (end 93.98 62.23) (width 0.5) (layer B.Cu) (net 18))
  (segment (start 93.98 62.23) (end 95.25 60.96) (width 0.5) (layer B.Cu) (net 18) (tstamp 5DAD7AED))
  (segment (start 127.635 63.5) (end 127.635 64.135) (width 0.5) (layer B.Cu) (net 18) (status 30))
  (segment (start 127.635 64.135) (end 127.635 65.405) (width 0.5) (layer B.Cu) (net 18) (tstamp 5DAD7A34) (status 10))
  (segment (start 127.635 65.405) (end 128.27 65.405) (width 0.5) (layer B.Cu) (net 18) (tstamp 5DAD7A36))
  (segment (start 128.905 65.405) (end 129.54 65.405) (width 0.5) (layer B.Cu) (net 18) (tstamp 5DAD7BAB))
  (segment (start 128.27 65.405) (end 128.905 65.405) (width 0.5) (layer B.Cu) (net 18) (tstamp 5DAD7A47))
  (segment (start 129.54 65.405) (end 137.16 65.405) (width 0.5) (layer B.Cu) (net 18) (tstamp 5DAD7BD2))
  (segment (start 143.51 71.755) (end 143.51 71.4375) (width 0.5) (layer B.Cu) (net 18))
  (segment (start 127.635 63.5) (end 127.635 63.9445) (width 0.5) (layer B.Cu) (net 18) (status 30))
  (segment (start 125.095 63.5) (end 125.095 62.23) (width 0.5) (layer B.Cu) (net 19) (status 400000))
  (segment (start 125.095 62.23) (end 126.365 60.96) (width 0.5) (layer B.Cu) (net 19) (tstamp 5DAD9754))
  (segment (start 126.365 60.96) (end 132.715 60.96) (width 0.5) (layer B.Cu) (net 19) (tstamp 5DAD975A))
  (segment (start 132.715 60.96) (end 135.255 63.5) (width 0.5) (layer B.Cu) (net 19) (tstamp 5DAD79E5))
  (segment (start 122.555 63.5) (end 122.555 66.04) (width 0.5) (layer B.Cu) (net 20) (status 400000))
  (segment (start 122.555 66.04) (end 123.825 67.31) (width 0.5) (layer B.Cu) (net 20) (tstamp 5DAD9746) (status 800000))
  (segment (start 123.825 67.31) (end 123.19 67.31) (width 0.5) (layer B.Cu) (net 20) (status 10))
  (segment (start 120.015 63.5) (end 120.015 66.04) (width 0.5) (layer B.Cu) (net 21) (status 400000))
  (segment (start 120.015 66.04) (end 118.745 67.31) (width 0.5) (layer B.Cu) (net 21) (tstamp 5DAD974A) (status 800000))
  (segment (start 109.855 60.96) (end 116.205 60.96) (width 0.5) (layer B.Cu) (net 22))
  (segment (start 117.475 62.23) (end 117.475 63.5) (width 0.5) (layer B.Cu) (net 22) (tstamp 5DAD974E) (status 800000))
  (segment (start 116.205 60.96) (end 117.475 62.23) (width 0.5) (layer B.Cu) (net 22) (tstamp 5DAD974D))
  (segment (start 109.855 60.96) (end 107.315 63.5) (width 0.5) (layer B.Cu) (net 22) (tstamp 5DAD9723))
  (segment (start 96.52 71.755) (end 96.52 64.135) (width 0.5) (layer B.Cu) (net 23))
  (segment (start 96.52 64.135) (end 97.155 63.5) (width 0.5) (layer B.Cu) (net 23) (tstamp 5DAD7AE8))
  (segment (start 108.585 67.31) (end 109.855 67.31) (width 0.5) (layer B.Cu) (net 24) (status 10))
  (segment (start 109.855 67.31) (end 113.03 70.485) (width 0.5) (layer B.Cu) (net 24) (tstamp 5DAD7A58))
  (segment (start 108.585 67.31) (end 108.585 67.945) (width 0.5) (layer B.Cu) (net 24) (status 30))
  (segment (start 113.03 70.485) (end 113.03 71.755) (width 0.5) (layer B.Cu) (net 24) (tstamp 5DACA603))
  (segment (start 129.54 71.755) (end 129.54 70.485) (width 0.5) (layer B.Cu) (net 25))
  (segment (start 129.54 70.485) (end 132.715 67.31) (width 0.5) (layer B.Cu) (net 25) (tstamp 5DAD7A4E))
  (segment (start 132.715 67.31) (end 133.985 67.31) (width 0.5) (layer B.Cu) (net 25) (tstamp 5DAD7A51) (status 20))
  (segment (start 146.05 71.755) (end 146.05 64.135) (width 0.5) (layer B.Cu) (net 26))
  (segment (start 146.05 64.135) (end 145.415 63.5) (width 0.5) (layer B.Cu) (net 26) (tstamp 5DAD798C))

  (zone (net 18) (net_name GND) (layer B.Cu) (tstamp 5DACA8A2) (hatch edge 0.508)
    (connect_pads (clearance 0.5))
    (min_thickness 0.254)
    (fill yes (arc_segments 16) (thermal_gap 2) (thermal_bridge_width 1))
    (polygon
      (pts
        (xy 156.21 108.585) (xy 86.36 108.585) (xy 86.36 58.42) (xy 156.21 58.42) (xy 156.21 108.585)
      )
    )
    (filled_polygon
      (pts
        (xy 152.17837 59.900057) (xy 152.177632 60.74623) (xy 152.500766 61.528274) (xy 153.098578 62.127131) (xy 153.880057 62.45163)
        (xy 154.72623 62.452368) (xy 155.508 62.129347) (xy 155.508 92.085645) (xy 154.483356 91.05921) (xy 153.051562 90.464678)
        (xy 151.50124 90.463325) (xy 150.068411 91.055358) (xy 149.304 91.818435) (xy 149.304 82.521841) (xy 149.47879 82.347356)
        (xy 150.073322 80.915562) (xy 150.074675 79.36524) (xy 149.482642 77.932411) (xy 148.387356 76.83521) (xy 146.955562 76.240678)
        (xy 145.40524 76.239325) (xy 143.972411 76.831358) (xy 142.87521 77.926644) (xy 142.280678 79.358438) (xy 142.279325 80.90876)
        (xy 142.871358 82.341589) (xy 143.05 82.520543) (xy 143.05 91.691958) (xy 142.418356 91.05921) (xy 140.986562 90.464678)
        (xy 139.43624 90.463325) (xy 138.003411 91.055358) (xy 137.986431 91.072308) (xy 137.973356 91.05921) (xy 136.541562 90.464678)
        (xy 134.99124 90.463325) (xy 133.558411 91.055358) (xy 132.794 91.818435) (xy 132.794 82.521841) (xy 132.96879 82.347356)
        (xy 133.563322 80.915562) (xy 133.564675 79.36524) (xy 132.972642 77.932411) (xy 131.877356 76.83521) (xy 130.445562 76.240678)
        (xy 128.89524 76.239325) (xy 127.462411 76.831358) (xy 126.36521 77.926644) (xy 125.770678 79.358438) (xy 125.769325 80.90876)
        (xy 126.361358 82.341589) (xy 126.54 82.520543) (xy 126.54 91.36417) (xy 126.408798 91.560527) (xy 125.908356 91.05921)
        (xy 124.476562 90.464678) (xy 122.92624 90.463325) (xy 121.493411 91.055358) (xy 121.476431 91.072308) (xy 121.463356 91.05921)
        (xy 120.031562 90.464678) (xy 118.48124 90.463325) (xy 117.048411 91.055358) (xy 116.559877 91.54304) (xy 116.553971 91.513349)
        (xy 116.284 91.109309) (xy 116.284 82.521841) (xy 116.45879 82.347356) (xy 117.053322 80.915562) (xy 117.054675 79.36524)
        (xy 116.462642 77.932411) (xy 115.367356 76.83521) (xy 113.935562 76.240678) (xy 112.38524 76.239325) (xy 112.284186 76.28108)
        (xy 114.92013 73.645135) (xy 114.920133 73.645133) (xy 115.110242 73.360613) (xy 115.163992 73.090397) (xy 115.292499 73.143758)
        (xy 115.718864 73.14413) (xy 117.23352 74.658786) (xy 117.23352 75.62148) (xy 116.859424 75.994924) (xy 116.634147 76.537452)
        (xy 116.633634 77.124891) (xy 116.857964 77.667811) (xy 117.272984 78.083556) (xy 117.815512 78.308833) (xy 118.347092 78.309297)
        (xy 118.376 78.338205) (xy 118.376 80.478812) (xy 118.17984 80.559864) (xy 117.64574 81.093033) (xy 117.35633 81.790008)
        (xy 117.355672 82.544681) (xy 117.643864 83.24216) (xy 118.177033 83.77626) (xy 118.874008 84.06567) (xy 119.628681 84.066328)
        (xy 120.32616 83.778136) (xy 120.86026 83.244967) (xy 121.14967 82.547992) (xy 121.149672 82.544681) (xy 121.800672 82.544681)
        (xy 122.088864 83.24216) (xy 122.622033 83.77626) (xy 123.319008 84.06567) (xy 124.073681 84.066328) (xy 124.77116 83.778136)
        (xy 125.30526 83.244967) (xy 125.59467 82.547992) (xy 125.595328 81.793319) (xy 125.307136 81.09584) (xy 124.773967 80.56174)
        (xy 124.575 80.479121) (xy 124.575 78.321373) (xy 125.31015 78.321373) (xy 125.542502 78.277653) (xy 125.755903 78.140333)
        (xy 125.899067 77.930807) (xy 125.949433 77.68209) (xy 125.949433 75.98283) (xy 125.905713 75.750478) (xy 125.768393 75.537077)
        (xy 125.558867 75.393913) (xy 125.31015 75.343547) (xy 123.61089 75.343547) (xy 123.378538 75.387267) (xy 123.165137 75.524587)
        (xy 123.021973 75.734113) (xy 122.971607 75.98283) (xy 122.971607 77.133877) (xy 122.887758 77.259367) (xy 122.821 77.59498)
        (xy 122.821 80.478812) (xy 122.62484 80.559864) (xy 122.09074 81.093033) (xy 121.80133 81.790008) (xy 121.800672 82.544681)
        (xy 121.149672 82.544681) (xy 121.150328 81.793319) (xy 120.862136 81.09584) (xy 120.328967 80.56174) (xy 120.13 80.479121)
        (xy 120.13 77.974945) (xy 120.130001 77.97494) (xy 120.063242 77.639327) (xy 119.938471 77.452593) (xy 119.873133 77.354807)
        (xy 119.87313 77.354805) (xy 119.586944 77.068619) (xy 119.587406 76.540029) (xy 119.363076 75.997109) (xy 118.98752 75.620897)
        (xy 118.98752 74.295525) (xy 118.987521 74.29552) (xy 118.920762 73.959907) (xy 118.750506 73.705099) (xy 125.577403 73.705099)
        (xy 125.584321 74.338101) (xy 126.680594 74.68323) (xy 127.825492 74.582563) (xy 128.415679 74.338101) (xy 128.422597 73.705099)
        (xy 127 72.282502) (xy 125.577403 73.705099) (xy 118.750506 73.705099) (xy 118.730653 73.675387) (xy 116.95887 71.903604)
        (xy 116.95924 71.479923) (xy 116.940924 71.435594) (xy 124.07177 71.435594) (xy 124.172437 72.580492) (xy 124.416899 73.170679)
        (xy 125.049901 73.177597) (xy 126.472498 71.755) (xy 127.527502 71.755) (xy 128.950099 73.177597) (xy 129.583101 73.170679)
        (xy 129.591486 73.144045) (xy 129.815077 73.14424) (xy 130.325777 72.933223) (xy 130.71685 72.542833) (xy 130.809967 72.318581)
        (xy 130.901777 72.540777) (xy 131.292167 72.93185) (xy 131.802499 73.143758) (xy 132.228864 73.14413) (xy 133.74352 74.658786)
        (xy 133.74352 75.62148) (xy 133.369424 75.994924) (xy 133.144147 76.537452) (xy 133.143634 77.124891) (xy 133.367964 77.667811)
        (xy 133.782984 78.083556) (xy 134.325512 78.308833) (xy 134.857092 78.309297) (xy 134.886 78.338205) (xy 134.886 80.478812)
        (xy 134.68984 80.559864) (xy 134.15574 81.093033) (xy 133.86633 81.790008) (xy 133.865672 82.544681) (xy 134.153864 83.24216)
        (xy 134.687033 83.77626) (xy 135.384008 84.06567) (xy 136.138681 84.066328) (xy 136.83616 83.778136) (xy 137.37026 83.244967)
        (xy 137.65967 82.547992) (xy 137.659672 82.544681) (xy 138.310672 82.544681) (xy 138.598864 83.24216) (xy 139.132033 83.77626)
        (xy 139.829008 84.06567) (xy 140.583681 84.066328) (xy 141.28116 83.778136) (xy 141.81526 83.244967) (xy 142.10467 82.547992)
        (xy 142.105328 81.793319) (xy 141.817136 81.09584) (xy 141.283967 80.56174) (xy 141.085 80.479121) (xy 141.085 78.321373)
        (xy 141.82015 78.321373) (xy 142.052502 78.277653) (xy 142.265903 78.140333) (xy 142.409067 77.930807) (xy 142.459433 77.68209)
        (xy 142.459433 75.98283) (xy 142.415713 75.750478) (xy 142.278393 75.537077) (xy 142.068867 75.393913) (xy 141.82015 75.343547)
        (xy 140.12089 75.343547) (xy 139.888538 75.387267) (xy 139.675137 75.524587) (xy 139.531973 75.734113) (xy 139.481607 75.98283)
        (xy 139.481607 77.133877) (xy 139.397758 77.259367) (xy 139.331 77.59498) (xy 139.331 80.478812) (xy 139.13484 80.559864)
        (xy 138.60074 81.093033) (xy 138.31133 81.790008) (xy 138.310672 82.544681) (xy 137.659672 82.544681) (xy 137.660328 81.793319)
        (xy 137.372136 81.09584) (xy 136.838967 80.56174) (xy 136.64 80.479121) (xy 136.64 77.974945) (xy 136.640001 77.97494)
        (xy 136.573242 77.639327) (xy 136.448471 77.452593) (xy 136.383133 77.354807) (xy 136.38313 77.354805) (xy 136.096944 77.068619)
        (xy 136.097406 76.540029) (xy 135.873076 75.997109) (xy 135.49752 75.620897) (xy 135.49752 74.295525) (xy 135.497521 74.29552)
        (xy 135.430762 73.959907) (xy 135.260506 73.705099) (xy 142.087403 73.705099) (xy 142.094321 74.338101) (xy 143.190594 74.68323)
        (xy 144.335492 74.582563) (xy 144.925679 74.338101) (xy 144.932597 73.705099) (xy 143.51 72.282502) (xy 142.087403 73.705099)
        (xy 135.260506 73.705099) (xy 135.240653 73.675387) (xy 133.46887 71.903604) (xy 133.46924 71.479923) (xy 133.450924 71.435594)
        (xy 140.58177 71.435594) (xy 140.682437 72.580492) (xy 140.926899 73.170679) (xy 141.559901 73.177597) (xy 142.982498 71.755)
        (xy 141.559901 70.332403) (xy 140.926899 70.339321) (xy 140.58177 71.435594) (xy 133.450924 71.435594) (xy 133.258223 70.969223)
        (xy 132.867833 70.57815) (xy 132.357501 70.366242) (xy 131.804923 70.36576) (xy 131.294223 70.576777) (xy 130.90315 70.967167)
        (xy 130.810033 71.191419) (xy 130.718223 70.969223) (xy 130.507317 70.757949) (xy 131.460365 69.804901) (xy 142.087403 69.804901)
        (xy 143.51 71.227498) (xy 143.524142 71.213356) (xy 144.051644 71.740858) (xy 144.037502 71.755) (xy 145.460099 73.177597)
        (xy 146.093101 73.170679) (xy 146.101486 73.144045) (xy 146.325077 73.14424) (xy 146.835777 72.933223) (xy 147.22685 72.542833)
        (xy 147.319967 72.318581) (xy 147.411777 72.540777) (xy 147.802167 72.93185) (xy 148.312499 73.143758) (xy 148.738864 73.14413)
        (xy 150.25352 74.658786) (xy 150.25352 75.62148) (xy 149.879424 75.994924) (xy 149.654147 76.537452) (xy 149.653634 77.124891)
        (xy 149.877964 77.667811) (xy 150.292984 78.083556) (xy 150.835512 78.308833) (xy 151.367092 78.309297) (xy 151.396 78.338205)
        (xy 151.396 80.478812) (xy 151.19984 80.559864) (xy 150.66574 81.093033) (xy 150.37633 81.790008) (xy 150.375672 82.544681)
        (xy 150.663864 83.24216) (xy 151.197033 83.77626) (xy 151.894008 84.06567) (xy 152.648681 84.066328) (xy 153.34616 83.778136)
        (xy 153.88026 83.244967) (xy 154.16967 82.547992) (xy 154.170328 81.793319) (xy 153.882136 81.09584) (xy 153.348967 80.56174)
        (xy 153.15 80.479121) (xy 153.15 77.974945) (xy 153.150001 77.97494) (xy 153.083242 77.639327) (xy 152.958471 77.452593)
        (xy 152.893133 77.354807) (xy 152.89313 77.354805) (xy 152.606944 77.068619) (xy 152.607406 76.540029) (xy 152.383076 75.997109)
        (xy 152.00752 75.620897) (xy 152.00752 74.295525) (xy 152.007521 74.29552) (xy 151.940762 73.959907) (xy 151.750653 73.675387)
        (xy 149.97887 71.903604) (xy 149.97924 71.479923) (xy 149.768223 70.969223) (xy 149.377833 70.57815) (xy 148.867501 70.366242)
        (xy 148.314923 70.36576) (xy 147.804223 70.576777) (xy 147.41315 70.967167) (xy 147.320033 71.191419) (xy 147.228223 70.969223)
        (xy 146.927 70.667473) (xy 146.927 64.135005) (xy 146.927001 64.135) (xy 146.922292 64.111327) (xy 147.041207 63.824948)
        (xy 147.041772 63.17789) (xy 146.794675 62.579871) (xy 146.337536 62.121933) (xy 145.739948 61.873793) (xy 145.09289 61.873228)
        (xy 144.494871 62.120325) (xy 144.036933 62.577464) (xy 143.788793 63.175052) (xy 143.788228 63.82211) (xy 144.035325 64.420129)
        (xy 144.492464 64.878067) (xy 145.090052 65.126207) (xy 145.173 65.126279) (xy 145.173 69.564496) (xy 144.932597 69.804899)
        (xy 144.925679 69.171899) (xy 143.829406 68.82677) (xy 142.684508 68.927437) (xy 142.094321 69.171899) (xy 142.087403 69.804901)
        (xy 131.460365 69.804901) (xy 132.820043 68.445223) (xy 133.062464 68.688067) (xy 133.660052 68.936207) (xy 134.30711 68.936772)
        (xy 134.905129 68.689675) (xy 135.363067 68.232536) (xy 135.611207 67.634948) (xy 135.611772 66.98789) (xy 135.364675 66.389871)
        (xy 134.907536 65.931933) (xy 134.309948 65.683793) (xy 133.66289 65.683228) (xy 133.064871 65.930325) (xy 132.606933 66.387464)
        (xy 132.576593 66.460531) (xy 132.379387 66.499758) (xy 132.094867 66.689867) (xy 128.919867 69.864867) (xy 128.729758 70.149387)
        (xy 128.663 70.485) (xy 128.663 70.619502) (xy 127.527502 71.755) (xy 126.472498 71.755) (xy 125.049901 70.332403)
        (xy 124.416899 70.339321) (xy 124.07177 71.435594) (xy 116.940924 71.435594) (xy 116.748223 70.969223) (xy 116.357833 70.57815)
        (xy 115.847501 70.366242) (xy 115.294923 70.36576) (xy 115.177 70.414485) (xy 115.177 69.804901) (xy 125.577403 69.804901)
        (xy 127 71.227498) (xy 128.422597 69.804901) (xy 128.415679 69.171899) (xy 127.319406 68.82677) (xy 126.174508 68.927437)
        (xy 125.584321 69.171899) (xy 125.577403 69.804901) (xy 115.177 69.804901) (xy 115.177 65.768266) (xy 115.55513 65.390135)
        (xy 115.555133 65.390133) (xy 115.745242 65.105613) (xy 115.777142 64.945242) (xy 115.792071 64.870194) (xy 115.989013 64.738601)
        (xy 116.205 64.415354) (xy 116.420987 64.738601) (xy 116.904572 65.061723) (xy 117.475 65.175188) (xy 118.045428 65.061723)
        (xy 118.529013 64.738601) (xy 118.745 64.415354) (xy 118.960987 64.738601) (xy 119.138 64.856878) (xy 119.138 65.676735)
        (xy 119.113046 65.701689) (xy 119.069948 65.683793) (xy 118.42289 65.683228) (xy 117.824871 65.930325) (xy 117.366933 66.387464)
        (xy 117.118793 66.985052) (xy 117.118228 67.63211) (xy 117.365325 68.230129) (xy 117.822464 68.688067) (xy 118.420052 68.936207)
        (xy 119.06711 68.936772) (xy 119.665129 68.689675) (xy 120.123067 68.232536) (xy 120.371207 67.634948) (xy 120.371772 66.98789)
        (xy 120.352944 66.942322) (xy 120.63513 66.660135) (xy 120.635133 66.660133) (xy 120.749095 66.489576) (xy 120.825242 66.375614)
        (xy 120.892 66.04) (xy 120.892 64.856878) (xy 121.069013 64.738601) (xy 121.285 64.415354) (xy 121.500987 64.738601)
        (xy 121.678 64.856878) (xy 121.678 66.04) (xy 121.744758 66.375613) (xy 121.934867 66.660133) (xy 122.216689 66.941954)
        (xy 122.198793 66.985052) (xy 122.198228 67.63211) (xy 122.445325 68.230129) (xy 122.902464 68.688067) (xy 123.500052 68.936207)
        (xy 124.14711 68.936772) (xy 124.745129 68.689675) (xy 125.203067 68.232536) (xy 125.451207 67.634948) (xy 125.451772 66.98789)
        (xy 125.204675 66.389871) (xy 124.747536 65.931933) (xy 124.149948 65.683793) (xy 123.50289 65.683228) (xy 123.457322 65.702056)
        (xy 123.432 65.676734) (xy 123.432 64.856878) (xy 123.609013 64.738601) (xy 123.825 64.415354) (xy 124.040987 64.738601)
        (xy 124.524572 65.061723) (xy 124.710518 65.09871) (xy 124.968217 65.720849) (xy 125.566552 66.319184) (xy 126.348314 66.643)
        (xy 126.73025 66.643) (xy 127.262 66.11125) (xy 127.262 63.873) (xy 128.008 63.873) (xy 128.008 66.11125)
        (xy 128.53975 66.643) (xy 128.921686 66.643) (xy 129.703448 66.319184) (xy 130.301783 65.720849) (xy 130.6256 64.939087)
        (xy 130.6256 64.40475) (xy 130.09385 63.873) (xy 128.008 63.873) (xy 127.262 63.873) (xy 127.242 63.873)
        (xy 127.242 63.127) (xy 127.262 63.127) (xy 127.262 63.107) (xy 128.008 63.107) (xy 128.008 63.127)
        (xy 130.09385 63.127) (xy 130.6256 62.59525) (xy 130.6256 62.060913) (xy 130.532852 61.837) (xy 132.351734 61.837)
        (xy 133.646689 63.131954) (xy 133.628793 63.175052) (xy 133.628228 63.82211) (xy 133.875325 64.420129) (xy 134.332464 64.878067)
        (xy 134.930052 65.126207) (xy 135.57711 65.126772) (xy 136.175129 64.879675) (xy 136.633067 64.422536) (xy 136.881207 63.824948)
        (xy 136.881772 63.17789) (xy 136.634675 62.579871) (xy 136.177536 62.121933) (xy 135.579948 61.873793) (xy 134.93289 61.873228)
        (xy 134.887322 61.892056) (xy 133.335133 60.339867) (xy 133.050613 60.149758) (xy 132.715 60.083) (xy 126.365 60.083)
        (xy 126.029386 60.149758) (xy 125.915424 60.225905) (xy 125.744867 60.339867) (xy 125.744865 60.33987) (xy 124.474867 61.609867)
        (xy 124.284758 61.894387) (xy 124.23793 62.129806) (xy 124.040987 62.261399) (xy 123.825 62.584646) (xy 123.609013 62.261399)
        (xy 123.125428 61.938277) (xy 122.555 61.824812) (xy 121.984572 61.938277) (xy 121.500987 62.261399) (xy 121.285 62.584646)
        (xy 121.069013 62.261399) (xy 120.585428 61.938277) (xy 120.015 61.824812) (xy 119.444572 61.938277) (xy 118.960987 62.261399)
        (xy 118.745 62.584646) (xy 118.529013 62.261399) (xy 118.33207 62.129806) (xy 118.285242 61.894387) (xy 118.285242 61.894386)
        (xy 118.202291 61.770242) (xy 118.095133 61.609867) (xy 118.09513 61.609865) (xy 116.825133 60.339867) (xy 116.540613 60.149758)
        (xy 116.205 60.083) (xy 109.855 60.083) (xy 109.519386 60.149758) (xy 109.405424 60.225905) (xy 109.234867 60.339867)
        (xy 109.234865 60.33987) (xy 107.683046 61.891689) (xy 107.639948 61.873793) (xy 106.99289 61.873228) (xy 106.394871 62.120325)
        (xy 105.936933 62.577464) (xy 105.688793 63.175052) (xy 105.688228 63.82211) (xy 105.935325 64.420129) (xy 106.392464 64.878067)
        (xy 106.990052 65.126207) (xy 107.63711 65.126772) (xy 108.235129 64.879675) (xy 108.693067 64.422536) (xy 108.941207 63.824948)
        (xy 108.941772 63.17789) (xy 108.922944 63.132322) (xy 110.218265 61.837) (xy 114.873727 61.837) (xy 114.364572 61.938277)
        (xy 113.880987 62.261399) (xy 113.557865 62.744984) (xy 113.4444 63.315412) (xy 113.4444 63.684588) (xy 113.557865 64.255016)
        (xy 113.818961 64.645773) (xy 113.679867 64.784867) (xy 113.489758 65.069387) (xy 113.423 65.405) (xy 113.423 69.637734)
        (xy 110.475133 66.689867) (xy 110.190613 66.499758) (xy 109.993913 66.460632) (xy 109.964675 66.389871) (xy 109.507536 65.931933)
        (xy 108.909948 65.683793) (xy 108.26289 65.683228) (xy 107.664871 65.930325) (xy 107.206933 66.387464) (xy 106.958793 66.985052)
        (xy 106.958228 67.63211) (xy 107.205325 68.230129) (xy 107.662464 68.688067) (xy 108.260052 68.936207) (xy 108.90711 68.936772)
        (xy 109.505129 68.689675) (xy 109.749983 68.445249) (xy 110.186292 68.881558) (xy 109.664508 68.927437) (xy 109.074321 69.171899)
        (xy 109.067403 69.804901) (xy 110.49 71.227498) (xy 110.504142 71.213356) (xy 111.031644 71.740858) (xy 111.017502 71.755)
        (xy 111.031644 71.769142) (xy 110.504142 72.296644) (xy 110.49 72.282502) (xy 109.067403 73.705099) (xy 109.074321 74.338101)
        (xy 110.170594 74.68323) (xy 111.315492 74.582563) (xy 111.634172 74.450562) (xy 110.129274 75.95546) (xy 109.434283 75.95546)
        (xy 109.395713 75.750478) (xy 109.258393 75.537077) (xy 109.048867 75.393913) (xy 108.80015 75.343547) (xy 107.10089 75.343547)
        (xy 106.868538 75.387267) (xy 106.655137 75.524587) (xy 106.511973 75.734113) (xy 106.461607 75.98283) (xy 106.461607 77.133877)
        (xy 106.377758 77.259367) (xy 106.311 77.59498) (xy 106.311 80.478812) (xy 106.11484 80.559864) (xy 105.58074 81.093033)
        (xy 105.29133 81.790008) (xy 105.290672 82.544681) (xy 105.578864 83.24216) (xy 106.112033 83.77626) (xy 106.809008 84.06567)
        (xy 107.563681 84.066328) (xy 108.26116 83.778136) (xy 108.79526 83.244967) (xy 109.08467 82.547992) (xy 109.085328 81.793319)
        (xy 108.797136 81.09584) (xy 108.263967 80.56174) (xy 108.065 80.479121) (xy 108.065 78.321373) (xy 108.80015 78.321373)
        (xy 109.032502 78.277653) (xy 109.245903 78.140333) (xy 109.389067 77.930807) (xy 109.43389 77.70946) (xy 110.072774 77.70946)
        (xy 109.85521 77.926644) (xy 109.260678 79.358438) (xy 109.259325 80.90876) (xy 109.851358 82.341589) (xy 110.03 82.520543)
        (xy 110.03 91.691958) (xy 109.398356 91.05921) (xy 107.966562 90.464678) (xy 106.41624 90.463325) (xy 104.983411 91.055358)
        (xy 104.966431 91.072308) (xy 104.953356 91.05921) (xy 103.521562 90.464678) (xy 101.97124 90.463325) (xy 100.538411 91.055358)
        (xy 99.774 91.818435) (xy 99.774 82.521841) (xy 99.94879 82.347356) (xy 100.543322 80.915562) (xy 100.544675 79.36524)
        (xy 99.952642 77.932411) (xy 98.857356 76.83521) (xy 97.425562 76.240678) (xy 95.87524 76.239325) (xy 94.442411 76.831358)
        (xy 93.34521 77.926644) (xy 92.750678 79.358438) (xy 92.749325 80.90876) (xy 93.341358 82.341589) (xy 93.52 82.520543)
        (xy 93.52 91.691958) (xy 92.888356 91.05921) (xy 91.456562 90.464678) (xy 89.90624 90.463325) (xy 88.473411 91.055358)
        (xy 87.37621 92.150644) (xy 87.062 92.907347) (xy 87.062 82.544681) (xy 88.780672 82.544681) (xy 89.068864 83.24216)
        (xy 89.602033 83.77626) (xy 90.299008 84.06567) (xy 91.053681 84.066328) (xy 91.75116 83.778136) (xy 92.28526 83.244967)
        (xy 92.57467 82.547992) (xy 92.575328 81.793319) (xy 92.287136 81.09584) (xy 91.753967 80.56174) (xy 91.555 80.479121)
        (xy 91.555 78.321373) (xy 92.29015 78.321373) (xy 92.522502 78.277653) (xy 92.735903 78.140333) (xy 92.879067 77.930807)
        (xy 92.929433 77.68209) (xy 92.929433 75.98283) (xy 92.885713 75.750478) (xy 92.748393 75.537077) (xy 92.538867 75.393913)
        (xy 92.29015 75.343547) (xy 90.59089 75.343547) (xy 90.358538 75.387267) (xy 90.145137 75.524587) (xy 90.001973 75.734113)
        (xy 89.951607 75.98283) (xy 89.951607 77.133877) (xy 89.867758 77.259367) (xy 89.801 77.59498) (xy 89.801 80.478812)
        (xy 89.60484 80.559864) (xy 89.07074 81.093033) (xy 88.78133 81.790008) (xy 88.780672 82.544681) (xy 87.062 82.544681)
        (xy 87.062 73.705099) (xy 92.557403 73.705099) (xy 92.564321 74.338101) (xy 93.660594 74.68323) (xy 94.805492 74.582563)
        (xy 95.395679 74.338101) (xy 95.402597 73.705099) (xy 93.98 72.282502) (xy 92.557403 73.705099) (xy 87.062 73.705099)
        (xy 87.062 71.435594) (xy 91.05177 71.435594) (xy 91.152437 72.580492) (xy 91.396899 73.170679) (xy 92.029901 73.177597)
        (xy 93.452498 71.755) (xy 92.029901 70.332403) (xy 91.396899 70.339321) (xy 91.05177 71.435594) (xy 87.062 71.435594)
        (xy 87.062 69.804901) (xy 92.557403 69.804901) (xy 93.98 71.227498) (xy 93.994142 71.213356) (xy 94.521644 71.740858)
        (xy 94.507502 71.755) (xy 95.930099 73.177597) (xy 96.563101 73.170679) (xy 96.571486 73.144045) (xy 96.795077 73.14424)
        (xy 97.305777 72.933223) (xy 97.69685 72.542833) (xy 97.789967 72.318581) (xy 97.881777 72.540777) (xy 98.272167 72.93185)
        (xy 98.782499 73.143758) (xy 99.208864 73.14413) (xy 100.72352 74.658786) (xy 100.72352 75.62148) (xy 100.349424 75.994924)
        (xy 100.124147 76.537452) (xy 100.123634 77.124891) (xy 100.347964 77.667811) (xy 100.762984 78.083556) (xy 101.305512 78.308833)
        (xy 101.837092 78.309297) (xy 101.866 78.338205) (xy 101.866 80.478812) (xy 101.66984 80.559864) (xy 101.13574 81.093033)
        (xy 100.84633 81.790008) (xy 100.845672 82.544681) (xy 101.133864 83.24216) (xy 101.667033 83.77626) (xy 102.364008 84.06567)
        (xy 103.118681 84.066328) (xy 103.81616 83.778136) (xy 104.35026 83.244967) (xy 104.63967 82.547992) (xy 104.640328 81.793319)
        (xy 104.352136 81.09584) (xy 103.818967 80.56174) (xy 103.62 80.479121) (xy 103.62 77.974945) (xy 103.620001 77.97494)
        (xy 103.553242 77.639327) (xy 103.428471 77.452593) (xy 103.363133 77.354807) (xy 103.36313 77.354805) (xy 103.076944 77.068619)
        (xy 103.077406 76.540029) (xy 102.853076 75.997109) (xy 102.47752 75.620897) (xy 102.47752 74.295525) (xy 102.477521 74.29552)
        (xy 102.410762 73.959907) (xy 102.220653 73.675387) (xy 100.44887 71.903604) (xy 100.44924 71.479923) (xy 100.430924 71.435594)
        (xy 107.56177 71.435594) (xy 107.662437 72.580492) (xy 107.906899 73.170679) (xy 108.539901 73.177597) (xy 109.962498 71.755)
        (xy 108.539901 70.332403) (xy 107.906899 70.339321) (xy 107.56177 71.435594) (xy 100.430924 71.435594) (xy 100.238223 70.969223)
        (xy 99.847833 70.57815) (xy 99.337501 70.366242) (xy 98.784923 70.36576) (xy 98.274223 70.576777) (xy 97.88315 70.967167)
        (xy 97.790033 71.191419) (xy 97.698223 70.969223) (xy 97.397 70.667473) (xy 97.397 65.126702) (xy 97.47711 65.126772)
        (xy 98.075129 64.879675) (xy 98.533067 64.422536) (xy 98.781207 63.824948) (xy 98.781772 63.17789) (xy 98.534675 62.579871)
        (xy 98.077536 62.121933) (xy 97.479948 61.873793) (xy 96.83289 61.873228) (xy 96.234871 62.120325) (xy 95.776933 62.577464)
        (xy 95.528793 63.175052) (xy 95.528228 63.82211) (xy 95.647716 64.111292) (xy 95.643 64.135) (xy 95.643 69.564496)
        (xy 95.402597 69.804899) (xy 95.395679 69.171899) (xy 94.299406 68.82677) (xy 93.154508 68.927437) (xy 92.564321 69.171899)
        (xy 92.557403 69.804901) (xy 87.062 69.804901) (xy 87.062 62.128552) (xy 87.840057 62.45163) (xy 88.68623 62.452368)
        (xy 89.468274 62.129234) (xy 90.067131 61.531422) (xy 90.39163 60.749943) (xy 90.392368 59.90377) (xy 90.069347 59.122)
        (xy 152.501448 59.122)
      )
    )
  )
)
