EESchema Schematic File Version 2
LIBS:mcp23008-eight-mosfet-rescue
LIBS:power
LIBS:device
LIBS:transistors
LIBS:conn
LIBS:linear
LIBS:regul
LIBS:74xx
LIBS:cmos4000
LIBS:adc-dac
LIBS:memory
LIBS:xilinx
LIBS:microcontrollers
LIBS:dsp
LIBS:microchip
LIBS:analog_switches
LIBS:motorola
LIBS:texas
LIBS:intel
LIBS:audio
LIBS:interface
LIBS:digital-audio
LIBS:philips
LIBS:display
LIBS:cypress
LIBS:siliconi
LIBS:opto
LIBS:atmel
LIBS:contrib
LIBS:valves
LIBS:my-regulators
LIBS:my-relays
LIBS:my-power-supplies
LIBS:my-switches
LIBS:my-ICs
LIBS:my-transistors
LIBS:mcp23008-eight-mosfet-cache
EELAYER 25 0
EELAYER END
$Descr A3 11693 16535 portrait
encoding utf-8
Sheet 1 1
Title ""
Date ""
Rev ""
Comp ""
Comment1 ""
Comment2 ""
Comment3 ""
Comment4 ""
$EndDescr
$Comp
L GND #PWR01
U 1 1 60ACE2B7
P 3450 9700
F 0 "#PWR01" H 3450 9450 50  0001 C CNN
F 1 "GND" H 3450 9550 50  0000 C CNN
F 2 "" H 3450 9700 50  0000 C CNN
F 3 "" H 3450 9700 50  0000 C CNN
	1    3450 9700
	1    0    0    -1  
$EndComp
$Comp
L MCP23008-RESCUE-mcp23008-eight-mosfet U1
U 1 1 60AF73BA
P 4550 8300
F 0 "U1" H 4550 8150 50  0000 C CNN
F 1 "MCP23008" H 4600 8350 50  0000 C CNN
F 2 "Housings_DIP:DIP-18_W7.62mm_LongPads" H 4550 8300 60  0001 C CNN
F 3 "" H 4550 8300 60  0000 C CNN
	1    4550 8300
	-1   0    0    -1  
$EndComp
$Comp
L R R4
U 1 1 60AF8691
P 5650 7300
F 0 "R4" V 5730 7300 50  0000 C CNN
F 1 "220" V 5650 7300 50  0000 C CNN
F 2 "Resistors_ThroughHole:Resistor_Horizontal_RM10mm" V 5580 7300 50  0001 C CNN
F 3 "" H 5650 7300 50  0000 C CNN
	1    5650 7300
	0    1    1    0   
$EndComp
$Comp
L VDD #PWR02
U 1 1 60AFB3EC
P 3550 8750
F 0 "#PWR02" H 3550 8600 50  0001 C CNN
F 1 "VDD" H 3550 8900 50  0000 C CNN
F 2 "" H 3550 8750 50  0000 C CNN
F 3 "" H 3550 8750 50  0000 C CNN
	1    3550 8750
	1    0    0    -1  
$EndComp
$Comp
L R R9
U 1 1 60C8E4D8
P 3850 9150
F 0 "R9" V 3930 9150 50  0000 C CNN
F 1 "4.7K" V 3850 9150 50  0000 C CNN
F 2 "Resistors_ThroughHole:Resistor_Horizontal_RM10mm" V 3780 9150 50  0001 C CNN
F 3 "" H 3850 9150 50  0000 C CNN
	1    3850 9150
	-1   0    0    1   
$EndComp
$Comp
L R R10
U 1 1 60C8E605
P 4050 9150
F 0 "R10" V 4130 9150 50  0000 C CNN
F 1 "4.7K" V 4050 9150 50  0000 C CNN
F 2 "Resistors_ThroughHole:Resistor_Horizontal_RM10mm" V 3980 9150 50  0001 C CNN
F 3 "" H 4050 9150 50  0000 C CNN
	1    4050 9150
	-1   0    0    1   
$EndComp
$Comp
L VDD #PWR03
U 1 1 60E1A1BB
P 4450 7300
F 0 "#PWR03" H 4450 7150 50  0001 C CNN
F 1 "VDD" H 4450 7450 50  0000 C CNN
F 2 "" H 4450 7300 50  0000 C CNN
F 3 "" H 4450 7300 50  0000 C CNN
	1    4450 7300
	1    0    0    -1  
$EndComp
$Comp
L R R14
U 1 1 60E3392E
P 6100 7550
F 0 "R14" V 6180 7550 50  0000 C CNN
F 1 "100K" V 6100 7550 50  0000 C CNN
F 2 "Resistors_ThroughHole:Resistor_Horizontal_RM10mm" V 6030 7550 50  0001 C CNN
F 3 "" H 6100 7550 50  0000 C CNN
	1    6100 7550
	-1   0    0    1   
$EndComp
$Comp
L GND #PWR04
U 1 1 60E33AF2
P 6100 7800
F 0 "#PWR04" H 6100 7550 50  0001 C CNN
F 1 "GND" H 6100 7650 50  0000 C CNN
F 2 "" H 6100 7800 50  0000 C CNN
F 3 "" H 6100 7800 50  0000 C CNN
	1    6100 7800
	1    0    0    -1  
$EndComp
$Comp
L GND #PWR05
U 1 1 60E33B92
P 6500 7600
F 0 "#PWR05" H 6500 7350 50  0001 C CNN
F 1 "GND" H 6500 7450 50  0000 C CNN
F 2 "" H 6500 7600 50  0000 C CNN
F 3 "" H 6500 7600 50  0000 C CNN
	1    6500 7600
	1    0    0    -1  
$EndComp
$Comp
L CONN_01X02 P6
U 1 1 60E33C4A
P 7000 6950
F 0 "P6" H 7000 7100 50  0000 C CNN
F 1 "OUT4" V 7100 6950 50  0000 C CNN
F 2 "Connect:bornier2" H 7000 6950 50  0001 C CNN
F 3 "" H 7000 6950 50  0000 C CNN
	1    7000 6950
	1    0    0    -1  
$EndComp
$Comp
L R R3
U 1 1 60E33E22
P 5650 6150
F 0 "R3" V 5730 6150 50  0000 C CNN
F 1 "220" V 5650 6150 50  0000 C CNN
F 2 "Resistors_ThroughHole:Resistor_Horizontal_RM10mm" V 5580 6150 50  0001 C CNN
F 3 "" H 5650 6150 50  0000 C CNN
	1    5650 6150
	0    1    1    0   
$EndComp
$Comp
L R R13
U 1 1 60E33E2F
P 6100 6400
F 0 "R13" V 6180 6400 50  0000 C CNN
F 1 "100K" V 6100 6400 50  0000 C CNN
F 2 "Resistors_ThroughHole:Resistor_Horizontal_RM10mm" V 6030 6400 50  0001 C CNN
F 3 "" H 6100 6400 50  0000 C CNN
	1    6100 6400
	-1   0    0    1   
$EndComp
$Comp
L GND #PWR06
U 1 1 60E33E38
P 6100 6650
F 0 "#PWR06" H 6100 6400 50  0001 C CNN
F 1 "GND" H 6100 6500 50  0000 C CNN
F 2 "" H 6100 6650 50  0000 C CNN
F 3 "" H 6100 6650 50  0000 C CNN
	1    6100 6650
	1    0    0    -1  
$EndComp
$Comp
L GND #PWR07
U 1 1 60E33E3F
P 6500 6450
F 0 "#PWR07" H 6500 6200 50  0001 C CNN
F 1 "GND" H 6500 6300 50  0000 C CNN
F 2 "" H 6500 6450 50  0000 C CNN
F 3 "" H 6500 6450 50  0000 C CNN
	1    6500 6450
	1    0    0    -1  
$EndComp
$Comp
L CONN_01X02 P5
U 1 1 60E33E46
P 7000 5800
F 0 "P5" H 7000 5950 50  0000 C CNN
F 1 "OUT3" V 7100 5800 50  0000 C CNN
F 2 "Connect:bornier2" H 7000 5800 50  0001 C CNN
F 3 "" H 7000 5800 50  0000 C CNN
	1    7000 5800
	1    0    0    -1  
$EndComp
$Comp
L R R2
U 1 1 60E3455A
P 5650 5000
F 0 "R2" V 5730 5000 50  0000 C CNN
F 1 "220" V 5650 5000 50  0000 C CNN
F 2 "Resistors_ThroughHole:Resistor_Horizontal_RM10mm" V 5580 5000 50  0001 C CNN
F 3 "" H 5650 5000 50  0000 C CNN
	1    5650 5000
	0    1    1    0   
$EndComp
$Comp
L R R12
U 1 1 60E34567
P 6100 5250
F 0 "R12" V 6180 5250 50  0000 C CNN
F 1 "100K" V 6100 5250 50  0000 C CNN
F 2 "Resistors_ThroughHole:Resistor_Horizontal_RM10mm" V 6030 5250 50  0001 C CNN
F 3 "" H 6100 5250 50  0000 C CNN
	1    6100 5250
	-1   0    0    1   
$EndComp
$Comp
L GND #PWR08
U 1 1 60E34571
P 6100 5500
F 0 "#PWR08" H 6100 5250 50  0001 C CNN
F 1 "GND" H 6100 5350 50  0000 C CNN
F 2 "" H 6100 5500 50  0000 C CNN
F 3 "" H 6100 5500 50  0000 C CNN
	1    6100 5500
	1    0    0    -1  
$EndComp
$Comp
L GND #PWR09
U 1 1 60E34578
P 6500 5300
F 0 "#PWR09" H 6500 5050 50  0001 C CNN
F 1 "GND" H 6500 5150 50  0000 C CNN
F 2 "" H 6500 5300 50  0000 C CNN
F 3 "" H 6500 5300 50  0000 C CNN
	1    6500 5300
	1    0    0    -1  
$EndComp
$Comp
L CONN_01X02 P4
U 1 1 60E3457F
P 7000 4650
F 0 "P4" H 7000 4800 50  0000 C CNN
F 1 "OUT2" V 7100 4650 50  0000 C CNN
F 2 "Connect:bornier2" H 7000 4650 50  0001 C CNN
F 3 "" H 7000 4650 50  0000 C CNN
	1    7000 4650
	1    0    0    -1  
$EndComp
$Comp
L R R1
U 1 1 60E34587
P 5650 3850
F 0 "R1" V 5730 3850 50  0000 C CNN
F 1 "220" V 5650 3850 50  0000 C CNN
F 2 "Resistors_ThroughHole:Resistor_Horizontal_RM10mm" V 5580 3850 50  0001 C CNN
F 3 "" H 5650 3850 50  0000 C CNN
	1    5650 3850
	0    1    1    0   
$EndComp
$Comp
L R R11
U 1 1 60E34594
P 6100 4100
F 0 "R11" V 6180 4100 50  0000 C CNN
F 1 "100K" V 6100 4100 50  0000 C CNN
F 2 "Resistors_ThroughHole:Resistor_Horizontal_RM10mm" V 6030 4100 50  0001 C CNN
F 3 "" H 6100 4100 50  0000 C CNN
	1    6100 4100
	-1   0    0    1   
$EndComp
$Comp
L GND #PWR010
U 1 1 60E3459E
P 6100 4350
F 0 "#PWR010" H 6100 4100 50  0001 C CNN
F 1 "GND" H 6100 4200 50  0000 C CNN
F 2 "" H 6100 4350 50  0000 C CNN
F 3 "" H 6100 4350 50  0000 C CNN
	1    6100 4350
	1    0    0    -1  
$EndComp
$Comp
L GND #PWR011
U 1 1 60E345A5
P 6500 4150
F 0 "#PWR011" H 6500 3900 50  0001 C CNN
F 1 "GND" H 6500 4000 50  0000 C CNN
F 2 "" H 6500 4150 50  0000 C CNN
F 3 "" H 6500 4150 50  0000 C CNN
	1    6500 4150
	1    0    0    -1  
$EndComp
$Comp
L CONN_01X02 P3
U 1 1 60E345AC
P 7000 3500
F 0 "P3" H 7000 3650 50  0000 C CNN
F 1 "OUT1" V 7100 3500 50  0000 C CNN
F 2 "Connect:bornier2" H 7000 3500 50  0001 C CNN
F 3 "" H 7000 3500 50  0000 C CNN
	1    7000 3500
	1    0    0    -1  
$EndComp
$Comp
L R R8
U 1 1 60E353FD
P 5650 11900
F 0 "R8" V 5730 11900 50  0000 C CNN
F 1 "220" V 5650 11900 50  0000 C CNN
F 2 "Resistors_ThroughHole:Resistor_Horizontal_RM10mm" V 5580 11900 50  0001 C CNN
F 3 "" H 5650 11900 50  0000 C CNN
	1    5650 11900
	0    1    1    0   
$EndComp
$Comp
L R R18
U 1 1 60E3540B
P 6100 12150
F 0 "R18" V 6180 12150 50  0000 C CNN
F 1 "100K" V 6100 12150 50  0000 C CNN
F 2 "Resistors_ThroughHole:Resistor_Horizontal_RM10mm" V 6030 12150 50  0001 C CNN
F 3 "" H 6100 12150 50  0000 C CNN
	1    6100 12150
	-1   0    0    1   
$EndComp
$Comp
L GND #PWR012
U 1 1 60E35415
P 6100 12400
F 0 "#PWR012" H 6100 12150 50  0001 C CNN
F 1 "GND" H 6100 12250 50  0000 C CNN
F 2 "" H 6100 12400 50  0000 C CNN
F 3 "" H 6100 12400 50  0000 C CNN
	1    6100 12400
	1    0    0    -1  
$EndComp
$Comp
L GND #PWR013
U 1 1 60E3541C
P 6500 12200
F 0 "#PWR013" H 6500 11950 50  0001 C CNN
F 1 "GND" H 6500 12050 50  0000 C CNN
F 2 "" H 6500 12200 50  0000 C CNN
F 3 "" H 6500 12200 50  0000 C CNN
	1    6500 12200
	1    0    0    -1  
$EndComp
$Comp
L CONN_01X02 P10
U 1 1 60E35423
P 7000 11550
F 0 "P10" H 7000 11700 50  0000 C CNN
F 1 "OUT8" V 7100 11550 50  0000 C CNN
F 2 "Connect:bornier2" H 7000 11550 50  0001 C CNN
F 3 "" H 7000 11550 50  0000 C CNN
	1    7000 11550
	1    0    0    -1  
$EndComp
$Comp
L R R7
U 1 1 60E3542B
P 5650 10750
F 0 "R7" V 5730 10750 50  0000 C CNN
F 1 "220" V 5650 10750 50  0000 C CNN
F 2 "Resistors_ThroughHole:Resistor_Horizontal_RM10mm" V 5580 10750 50  0001 C CNN
F 3 "" H 5650 10750 50  0000 C CNN
	1    5650 10750
	0    1    1    0   
$EndComp
$Comp
L R R17
U 1 1 60E35438
P 6100 11000
F 0 "R17" V 6180 11000 50  0000 C CNN
F 1 "100K" V 6100 11000 50  0000 C CNN
F 2 "Resistors_ThroughHole:Resistor_Horizontal_RM10mm" V 6030 11000 50  0001 C CNN
F 3 "" H 6100 11000 50  0000 C CNN
	1    6100 11000
	-1   0    0    1   
$EndComp
$Comp
L GND #PWR014
U 1 1 60E35442
P 6100 11250
F 0 "#PWR014" H 6100 11000 50  0001 C CNN
F 1 "GND" H 6100 11100 50  0000 C CNN
F 2 "" H 6100 11250 50  0000 C CNN
F 3 "" H 6100 11250 50  0000 C CNN
	1    6100 11250
	1    0    0    -1  
$EndComp
$Comp
L GND #PWR015
U 1 1 60E35449
P 6500 11050
F 0 "#PWR015" H 6500 10800 50  0001 C CNN
F 1 "GND" H 6500 10900 50  0000 C CNN
F 2 "" H 6500 11050 50  0000 C CNN
F 3 "" H 6500 11050 50  0000 C CNN
	1    6500 11050
	1    0    0    -1  
$EndComp
$Comp
L CONN_01X02 P9
U 1 1 60E35450
P 7000 10400
F 0 "P9" H 7000 10550 50  0000 C CNN
F 1 "OUT7" V 7100 10400 50  0000 C CNN
F 2 "Connect:bornier2" H 7000 10400 50  0001 C CNN
F 3 "" H 7000 10400 50  0000 C CNN
	1    7000 10400
	1    0    0    -1  
$EndComp
$Comp
L R R6
U 1 1 60E35468
P 5650 9600
F 0 "R6" V 5730 9600 50  0000 C CNN
F 1 "220" V 5650 9600 50  0000 C CNN
F 2 "Resistors_ThroughHole:Resistor_Horizontal_RM10mm" V 5580 9600 50  0001 C CNN
F 3 "" H 5650 9600 50  0000 C CNN
	1    5650 9600
	0    1    1    0   
$EndComp
$Comp
L R R16
U 1 1 60E35474
P 6100 9850
F 0 "R16" V 6180 9850 50  0000 C CNN
F 1 "100K" V 6100 9850 50  0000 C CNN
F 2 "Resistors_ThroughHole:Resistor_Horizontal_RM10mm" V 6030 9850 50  0001 C CNN
F 3 "" H 6100 9850 50  0000 C CNN
	1    6100 9850
	-1   0    0    1   
$EndComp
$Comp
L GND #PWR016
U 1 1 60E3547E
P 6100 10100
F 0 "#PWR016" H 6100 9850 50  0001 C CNN
F 1 "GND" H 6100 9950 50  0000 C CNN
F 2 "" H 6100 10100 50  0000 C CNN
F 3 "" H 6100 10100 50  0000 C CNN
	1    6100 10100
	1    0    0    -1  
$EndComp
$Comp
L GND #PWR017
U 1 1 60E35485
P 6500 9900
F 0 "#PWR017" H 6500 9650 50  0001 C CNN
F 1 "GND" H 6500 9750 50  0000 C CNN
F 2 "" H 6500 9900 50  0000 C CNN
F 3 "" H 6500 9900 50  0000 C CNN
	1    6500 9900
	1    0    0    -1  
$EndComp
$Comp
L CONN_01X02 P8
U 1 1 60E3548C
P 7000 9250
F 0 "P8" H 7000 9400 50  0000 C CNN
F 1 "OUT6" V 7100 9250 50  0000 C CNN
F 2 "Connect:bornier2" H 7000 9250 50  0001 C CNN
F 3 "" H 7000 9250 50  0000 C CNN
	1    7000 9250
	1    0    0    -1  
$EndComp
$Comp
L R R5
U 1 1 60E35494
P 5650 8450
F 0 "R5" V 5730 8450 50  0000 C CNN
F 1 "220" V 5650 8450 50  0000 C CNN
F 2 "Resistors_ThroughHole:Resistor_Horizontal_RM10mm" V 5580 8450 50  0001 C CNN
F 3 "" H 5650 8450 50  0000 C CNN
	1    5650 8450
	0    1    1    0   
$EndComp
$Comp
L R R15
U 1 1 60E354A1
P 6100 8700
F 0 "R15" V 6180 8700 50  0000 C CNN
F 1 "100K" V 6100 8700 50  0000 C CNN
F 2 "Resistors_ThroughHole:Resistor_Horizontal_RM10mm" V 6030 8700 50  0001 C CNN
F 3 "" H 6100 8700 50  0000 C CNN
	1    6100 8700
	-1   0    0    1   
$EndComp
$Comp
L GND #PWR018
U 1 1 60E354AB
P 6100 8950
F 0 "#PWR018" H 6100 8700 50  0001 C CNN
F 1 "GND" H 6100 8800 50  0000 C CNN
F 2 "" H 6100 8950 50  0000 C CNN
F 3 "" H 6100 8950 50  0000 C CNN
	1    6100 8950
	1    0    0    -1  
$EndComp
$Comp
L GND #PWR019
U 1 1 60E354B2
P 6500 8750
F 0 "#PWR019" H 6500 8500 50  0001 C CNN
F 1 "GND" H 6500 8600 50  0000 C CNN
F 2 "" H 6500 8750 50  0000 C CNN
F 3 "" H 6500 8750 50  0000 C CNN
	1    6500 8750
	1    0    0    -1  
$EndComp
$Comp
L CONN_01X02 P7
U 1 1 60E354B9
P 7000 8100
F 0 "P7" H 7000 8250 50  0000 C CNN
F 1 "OUT5" V 7100 8100 50  0000 C CNN
F 2 "Connect:bornier2" H 7000 8100 50  0001 C CNN
F 3 "" H 7000 8100 50  0000 C CNN
	1    7000 8100
	1    0    0    -1  
$EndComp
$Comp
L GND #PWR020
U 1 1 60E37187
P 3450 10650
F 0 "#PWR020" H 3450 10400 50  0001 C CNN
F 1 "GND" H 3450 10500 50  0000 C CNN
F 2 "" H 3450 10650 50  0000 C CNN
F 3 "" H 3450 10650 50  0000 C CNN
	1    3450 10650
	1    0    0    -1  
$EndComp
$Comp
L VCC #PWR021
U 1 1 60E372BF
P 3450 10250
F 0 "#PWR021" H 3450 10100 50  0001 C CNN
F 1 "VCC" H 3450 10400 50  0000 C CNN
F 2 "" H 3450 10250 50  0000 C CNN
F 3 "" H 3450 10250 50  0000 C CNN
	1    3450 10250
	1    0    0    -1  
$EndComp
$Comp
L VCC #PWR022
U 1 1 60E3740E
P 5900 3300
F 0 "#PWR022" H 5900 3150 50  0001 C CNN
F 1 "VCC" H 5900 3450 50  0000 C CNN
F 2 "" H 5900 3300 50  0000 C CNN
F 3 "" H 5900 3300 50  0000 C CNN
	1    5900 3300
	1    0    0    -1  
$EndComp
$Comp
L IRLU2905 Q1
U 1 1 60E37FAF
P 6400 3850
F 0 "Q1" H 6600 3925 50  0000 L CNN
F 1 "IRLU2905" H 6600 3850 50  0000 L CNN
F 2 "TO_SOT_Packages_THT:TO-251AA" H 6600 3775 50  0001 L CIN
F 3 "" H 6400 3850 50  0001 L CNN
	1    6400 3850
	1    0    0    -1  
$EndComp
$Comp
L IRLU2905 Q2
U 1 1 60E38A77
P 6400 5000
F 0 "Q2" H 6600 5075 50  0000 L CNN
F 1 "IRLU2905" H 6600 5000 50  0000 L CNN
F 2 "TO_SOT_Packages_THT:TO-251AA" H 6600 4925 50  0001 L CIN
F 3 "" H 6400 5000 50  0001 L CNN
	1    6400 5000
	1    0    0    -1  
$EndComp
$Comp
L IRLU2905 Q3
U 1 1 60E38B35
P 6400 6150
F 0 "Q3" H 6600 6225 50  0000 L CNN
F 1 "IRLU2905" H 6600 6150 50  0000 L CNN
F 2 "TO_SOT_Packages_THT:TO-251AA" H 6600 6075 50  0001 L CIN
F 3 "" H 6400 6150 50  0001 L CNN
	1    6400 6150
	1    0    0    -1  
$EndComp
$Comp
L IRLU2905 Q4
U 1 1 60E38C19
P 6400 7300
F 0 "Q4" H 6600 7375 50  0000 L CNN
F 1 "IRLU2905" H 6600 7300 50  0000 L CNN
F 2 "TO_SOT_Packages_THT:TO-251AA" H 6600 7225 50  0001 L CIN
F 3 "" H 6400 7300 50  0001 L CNN
	1    6400 7300
	1    0    0    -1  
$EndComp
$Comp
L IRLU2905 Q5
U 1 1 60E38CBC
P 6400 8450
F 0 "Q5" H 6600 8525 50  0000 L CNN
F 1 "IRLU2905" H 6600 8450 50  0000 L CNN
F 2 "TO_SOT_Packages_THT:TO-251AA" H 6600 8375 50  0001 L CIN
F 3 "" H 6400 8450 50  0001 L CNN
	1    6400 8450
	1    0    0    -1  
$EndComp
$Comp
L IRLU2905 Q6
U 1 1 60E38DAE
P 6400 9600
F 0 "Q6" H 6600 9675 50  0000 L CNN
F 1 "IRLU2905" H 6600 9600 50  0000 L CNN
F 2 "TO_SOT_Packages_THT:TO-251AA" H 6600 9525 50  0001 L CIN
F 3 "" H 6400 9600 50  0001 L CNN
	1    6400 9600
	1    0    0    -1  
$EndComp
$Comp
L IRLU2905 Q7
U 1 1 60E38E57
P 6400 10750
F 0 "Q7" H 6600 10825 50  0000 L CNN
F 1 "IRLU2905" H 6600 10750 50  0000 L CNN
F 2 "TO_SOT_Packages_THT:TO-251AA" H 6600 10675 50  0001 L CIN
F 3 "" H 6400 10750 50  0001 L CNN
	1    6400 10750
	1    0    0    -1  
$EndComp
$Comp
L IRLU2905 Q8
U 1 1 60E38F03
P 6400 11900
F 0 "Q8" H 6600 11975 50  0000 L CNN
F 1 "IRLU2905" H 6600 11900 50  0000 L CNN
F 2 "TO_SOT_Packages_THT:TO-251AA" H 6600 11825 50  0001 L CIN
F 3 "" H 6400 11900 50  0001 L CNN
	1    6400 11900
	1    0    0    -1  
$EndComp
$Comp
L VSS #PWR023
U 1 1 60E5B0DB
P 4600 9500
F 0 "#PWR023" H 4600 9350 50  0001 C CNN
F 1 "VSS" H 4600 9650 50  0000 C CNN
F 2 "" H 4600 9500 50  0000 C CNN
F 3 "" H 4600 9500 50  0000 C CNN
	1    4600 9500
	1    0    0    -1  
$EndComp
$Comp
L GND #PWR024
U 1 1 60E76345
P 2800 8100
F 0 "#PWR024" H 2800 7850 50  0001 C CNN
F 1 "GND" H 2800 7950 50  0000 C CNN
F 2 "" H 2800 8100 50  0000 C CNN
F 3 "" H 2800 8100 50  0000 C CNN
	1    2800 8100
	1    0    0    -1  
$EndComp
$Comp
L VDD #PWR025
U 1 1 60E7634B
P 3750 7300
F 0 "#PWR025" H 3750 7150 50  0001 C CNN
F 1 "VDD" H 3750 7450 50  0000 C CNN
F 2 "" H 3750 7300 50  0000 C CNN
F 3 "" H 3750 7300 50  0000 C CNN
	1    3750 7300
	1    0    0    -1  
$EndComp
$Comp
L SW_DIP_x03 SW1
U 1 1 60E76359
P 3200 8000
F 0 "SW1" H 3200 8350 50  0000 C CNN
F 1 "ADDRESS" H 3200 7850 50  0000 C CNN
F 2 "mySwitches:SW_DIP_SPSTx03_Slide_9.78x9.8mm_W7.62mm_P2.54mm" H 3200 8000 50  0001 C CNN
F 3 "" H 3200 8000 50  0001 C CNN
	1    3200 8000
	1    0    0    -1  
$EndComp
$Comp
L R R19
U 1 1 60E76363
P 3600 7550
F 0 "R19" V 3680 7550 50  0000 C CNN
F 1 "100K" V 3600 7550 50  0000 C CNN
F 2 "Resistors_ThroughHole:Resistor_Horizontal_RM10mm" V 3530 7550 50  0001 C CNN
F 3 "" H 3600 7550 50  0000 C CNN
	1    3600 7550
	-1   0    0    1   
$EndComp
$Comp
L R R20
U 1 1 60E7636A
P 3750 7550
F 0 "R20" V 3830 7550 50  0000 C CNN
F 1 "100K" V 3750 7550 50  0000 C CNN
F 2 "Resistors_ThroughHole:Resistor_Horizontal_RM10mm" V 3680 7550 50  0001 C CNN
F 3 "" H 3750 7550 50  0000 C CNN
	1    3750 7550
	-1   0    0    1   
$EndComp
$Comp
L R R21
U 1 1 60E76371
P 3900 7550
F 0 "R21" V 3980 7550 50  0000 C CNN
F 1 "100K" V 3900 7550 50  0000 C CNN
F 2 "Resistors_ThroughHole:Resistor_Horizontal_RM10mm" V 3830 7550 50  0001 C CNN
F 3 "" H 3900 7550 50  0000 C CNN
	1    3900 7550
	-1   0    0    1   
$EndComp
$Comp
L Conn_01x03 J2
U 1 1 6118F2B5
P 3150 10450
F 0 "J2" H 3150 10650 50  0000 C CNN
F 1 "PWR" V 3250 10450 50  0000 C CNN
F 2 "myConnectors:JST-B3P-VH" H 3150 10450 50  0001 C CNN
F 3 "" H 3150 10450 50  0001 C CNN
	1    3150 10450
	-1   0    0    -1  
$EndComp
$Comp
L VDD #PWR026
U 1 1 6118FEA5
P 3600 10350
F 0 "#PWR026" H 3600 10200 50  0001 C CNN
F 1 "VDD" H 3600 10500 50  0000 C CNN
F 2 "" H 3600 10350 50  0000 C CNN
F 3 "" H 3600 10350 50  0000 C CNN
	1    3600 10350
	1    0    0    -1  
$EndComp
Wire Wire Line
	3450 10350 3350 10350
Wire Wire Line
	3450 10250 3450 10350
Wire Wire Line
	3600 10450 3600 10350
Connection ~ 3900 8000
Wire Wire Line
	3900 7700 3900 8000
Connection ~ 3750 7900
Wire Wire Line
	3750 7700 3750 7900
Connection ~ 3600 7800
Wire Wire Line
	3600 7700 3600 7800
Wire Wire Line
	3900 7350 3900 7400
Connection ~ 3750 7350
Wire Wire Line
	3600 7350 3600 7400
Wire Wire Line
	3600 7350 3900 7350
Wire Wire Line
	3750 7300 3750 7400
Wire Wire Line
	3500 8000 4000 8000
Wire Wire Line
	3500 7900 4000 7900
Wire Wire Line
	3500 7800 4000 7800
Wire Wire Line
	3250 8000 3250 8050
Wire Wire Line
	3250 7800 3250 7750
Connection ~ 2800 7900
Wire Wire Line
	2900 7900 2800 7900
Connection ~ 2800 8000
Wire Wire Line
	2900 8000 2800 8000
Wire Wire Line
	2800 7800 2800 8100
Wire Wire Line
	2900 7800 2800 7800
Connection ~ 3450 9600
Wire Wire Line
	4600 9600 4600 9500
Connection ~ 5900 10350
Wire Wire Line
	5900 11500 6800 11500
Connection ~ 5900 9200
Wire Wire Line
	5900 10350 6800 10350
Connection ~ 5900 8050
Wire Wire Line
	5900 9200 6800 9200
Connection ~ 5900 6900
Wire Wire Line
	5900 8050 6800 8050
Connection ~ 5900 5750
Wire Wire Line
	5900 6900 6800 6900
Connection ~ 5900 4600
Wire Wire Line
	5900 5750 6800 5750
Connection ~ 5900 3450
Wire Wire Line
	5900 4600 6800 4600
Wire Wire Line
	5900 3450 6800 3450
Wire Wire Line
	5900 3300 5900 11500
Wire Wire Line
	3350 10450 3600 10450
Wire Wire Line
	3450 10550 3450 10650
Wire Wire Line
	3350 10550 3450 10550
Wire Wire Line
	6500 8150 6500 8250
Wire Wire Line
	6800 8150 6500 8150
Wire Wire Line
	6500 8750 6500 8650
Wire Wire Line
	6100 8950 6100 8850
Connection ~ 6100 8450
Wire Wire Line
	6100 8450 6100 8550
Wire Wire Line
	5800 8450 6200 8450
Wire Wire Line
	6500 9300 6500 9400
Wire Wire Line
	6800 9300 6500 9300
Wire Wire Line
	6500 9900 6500 9800
Wire Wire Line
	6100 10100 6100 10000
Connection ~ 6100 9600
Wire Wire Line
	6100 9600 6100 9700
Wire Wire Line
	5800 9600 6200 9600
Wire Wire Line
	6500 10450 6500 10550
Wire Wire Line
	6800 10450 6500 10450
Wire Wire Line
	6500 11050 6500 10950
Wire Wire Line
	6100 11250 6100 11150
Connection ~ 6100 10750
Wire Wire Line
	6100 10750 6100 10850
Wire Wire Line
	5800 10750 6200 10750
Wire Wire Line
	5250 10750 5500 10750
Wire Wire Line
	6500 11600 6500 11700
Wire Wire Line
	6800 11600 6500 11600
Wire Wire Line
	6500 12200 6500 12100
Wire Wire Line
	6100 12400 6100 12300
Connection ~ 6100 11900
Wire Wire Line
	6100 11900 6100 12000
Wire Wire Line
	5800 11900 6200 11900
Wire Wire Line
	5200 11900 5500 11900
Wire Wire Line
	6500 3550 6500 3650
Wire Wire Line
	6800 3550 6500 3550
Wire Wire Line
	6500 4150 6500 4050
Wire Wire Line
	6100 4350 6100 4250
Connection ~ 6100 3850
Wire Wire Line
	6100 3850 6100 3950
Wire Wire Line
	5800 3850 6200 3850
Wire Wire Line
	5200 3850 5500 3850
Wire Wire Line
	6500 4700 6500 4800
Wire Wire Line
	6800 4700 6500 4700
Wire Wire Line
	6500 5300 6500 5200
Wire Wire Line
	6100 5500 6100 5400
Connection ~ 6100 5000
Wire Wire Line
	6100 5000 6100 5100
Wire Wire Line
	5800 5000 6200 5000
Wire Wire Line
	6500 5850 6500 5950
Wire Wire Line
	6800 5850 6500 5850
Wire Wire Line
	6500 6450 6500 6350
Wire Wire Line
	6100 6650 6100 6550
Connection ~ 6100 6150
Wire Wire Line
	6100 6150 6100 6250
Wire Wire Line
	5800 6150 6200 6150
Wire Wire Line
	5300 6150 5500 6150
Wire Wire Line
	6500 7000 6500 7100
Wire Wire Line
	6800 7000 6500 7000
Wire Wire Line
	6500 7600 6500 7500
Wire Wire Line
	6100 7800 6100 7700
Connection ~ 6100 7300
Wire Wire Line
	6100 7300 6100 7400
Wire Wire Line
	5800 7300 6200 7300
Wire Wire Line
	4350 9500 4350 9000
Wire Wire Line
	4450 9400 4450 9000
Wire Wire Line
	4450 7300 4450 7400
Wire Wire Line
	5300 9600 5500 9600
Wire Wire Line
	5250 5000 5500 5000
Connection ~ 4050 9500
Wire Wire Line
	4050 9300 4050 9500
Connection ~ 3850 9400
Wire Wire Line
	3850 9300 3850 9400
Connection ~ 3850 8900
Wire Wire Line
	4050 8900 4050 9000
Connection ~ 3550 8900
Wire Wire Line
	3550 8900 4050 8900
Wire Wire Line
	3850 9000 3850 8900
Wire Wire Line
	5200 8550 5200 11900
Wire Wire Line
	5100 8550 5200 8550
Wire Wire Line
	5250 8450 5250 10750
Wire Wire Line
	5100 8450 5250 8450
Wire Wire Line
	5300 8350 5300 9600
Wire Wire Line
	5100 8350 5300 8350
Wire Wire Line
	5350 8450 5500 8450
Wire Wire Line
	5350 8250 5350 8450
Wire Wire Line
	5100 8250 5350 8250
Wire Wire Line
	5350 8150 5100 8150
Wire Wire Line
	5350 7300 5350 8150
Wire Wire Line
	5500 7300 5350 7300
Wire Wire Line
	5300 8050 5300 6150
Wire Wire Line
	5100 8050 5300 8050
Wire Wire Line
	5250 7950 5100 7950
Wire Wire Line
	5250 5000 5250 7950
Wire Wire Line
	5200 7850 5200 3850
Wire Wire Line
	5100 7850 5200 7850
Wire Wire Line
	3450 9600 3450 9700
Wire Wire Line
	3350 9600 4600 9600
Wire Wire Line
	3350 9400 4450 9400
Wire Wire Line
	3350 9500 4350 9500
Wire Wire Line
	3550 8750 3550 9300
Wire Wire Line
	3550 9300 3350 9300
$Comp
L Conn_01x04 J1
U 1 1 611900DE
P 3150 9500
F 0 "J1" H 3150 9700 50  0000 C CNN
F 1 "IN" V 3250 9450 50  0000 C CNN
F 2 "myConnectors:JST_XH_B4B-XH-A_1x04_P2.50mm_Vertical" H 3150 9500 50  0001 C CNN
F 3 "" H 3150 9500 50  0001 C CNN
	1    3150 9500
	-1   0    0    1   
$EndComp
Text Notes 3100 11200 0    60   ~ 0
Jumper on J1 1&2\nif VCC = VDD\nElse power on 1&3
$EndSCHEMATC
