EESchema Schematic File Version 2
LIBS:sot23-16-module-rescue
LIBS:power
LIBS:device
LIBS:transistors
LIBS:conn
LIBS:linear
LIBS:regul
LIBS:74xx
LIBS:cmos4000
LIBS:adc-dac
LIBS:memory
LIBS:xilinx
LIBS:microcontrollers
LIBS:dsp
LIBS:microchip
LIBS:analog_switches
LIBS:motorola
LIBS:texas
LIBS:intel
LIBS:audio
LIBS:interface
LIBS:digital-audio
LIBS:philips
LIBS:display
LIBS:cypress
LIBS:siliconi
LIBS:opto
LIBS:atmel
LIBS:contrib
LIBS:valves
LIBS:my-transistors
LIBS:my-misc-modules
LIBS:sot23-16-module-cache
EELAYER 25 0
EELAYER END
$Descr A2 16535 23386 portrait
encoding utf-8
Sheet 1 1
Title ""
Date ""
Rev ""
Comp ""
Comment1 ""
Comment2 ""
Comment3 ""
Comment4 ""
$EndDescr
$Comp
L R R15
U 1 1 5C7E9F71
P 8250 17000
F 0 "R15" V 8330 17000 50  0000 C CNN
F 1 "220" V 8250 17000 50  0000 C CNN
F 2 "Resistors_SMD:R_0805_HandSoldering" V 8180 17000 50  0001 C CNN
F 3 "" H 8250 17000 50  0000 C CNN
	1    8250 17000
	0    1    1    0   
$EndComp
$Comp
L R R31
U 1 1 5C7E9FE2
P 8500 17300
F 0 "R31" V 8580 17300 50  0000 C CNN
F 1 "100K" V 8500 17300 50  0000 C CNN
F 2 "Resistors_SMD:R_0805_HandSoldering" V 8430 17300 50  0001 C CNN
F 3 "" H 8500 17300 50  0000 C CNN
	1    8500 17300
	-1   0    0    1   
$EndComp
$Comp
L GND #PWR01
U 1 1 5C7EA015
P 8500 17550
F 0 "#PWR01" H 8500 17300 50  0001 C CNN
F 1 "GND" H 8500 17400 50  0000 C CNN
F 2 "" H 8500 17550 50  0000 C CNN
F 3 "" H 8500 17550 50  0000 C CNN
	1    8500 17550
	1    0    0    -1  
$EndComp
$Comp
L GND #PWR02
U 1 1 5C7EA043
P 8900 17250
F 0 "#PWR02" H 8900 17000 50  0001 C CNN
F 1 "GND" H 8900 17100 50  0000 C CNN
F 2 "" H 8900 17250 50  0000 C CNN
F 3 "" H 8900 17250 50  0000 C CNN
	1    8900 17250
	1    0    0    -1  
$EndComp
$Comp
L R R14
U 1 1 5C7EA50A
P 8250 16100
F 0 "R14" V 8330 16100 50  0000 C CNN
F 1 "220" V 8250 16100 50  0000 C CNN
F 2 "Resistors_SMD:R_0805_HandSoldering" V 8180 16100 50  0001 C CNN
F 3 "" H 8250 16100 50  0000 C CNN
	1    8250 16100
	0    1    1    0   
$EndComp
$Comp
L R R30
U 1 1 5C7EA511
P 8500 16350
F 0 "R30" V 8580 16350 50  0000 C CNN
F 1 "100K" V 8500 16350 50  0000 C CNN
F 2 "Resistors_SMD:R_0805_HandSoldering" V 8430 16350 50  0001 C CNN
F 3 "" H 8500 16350 50  0000 C CNN
	1    8500 16350
	-1   0    0    1   
$EndComp
$Comp
L GND #PWR03
U 1 1 5C7EA519
P 8500 16600
F 0 "#PWR03" H 8500 16350 50  0001 C CNN
F 1 "GND" H 8500 16450 50  0000 C CNN
F 2 "" H 8500 16600 50  0000 C CNN
F 3 "" H 8500 16600 50  0000 C CNN
	1    8500 16600
	1    0    0    -1  
$EndComp
$Comp
L GND #PWR04
U 1 1 5C7EA520
P 8900 16350
F 0 "#PWR04" H 8900 16100 50  0001 C CNN
F 1 "GND" H 8900 16200 50  0000 C CNN
F 2 "" H 8900 16350 50  0000 C CNN
F 3 "" H 8900 16350 50  0000 C CNN
	1    8900 16350
	1    0    0    -1  
$EndComp
$Comp
L R R13
U 1 1 5C7EA672
P 8250 15200
F 0 "R13" V 8330 15200 50  0000 C CNN
F 1 "220" V 8250 15200 50  0000 C CNN
F 2 "Resistors_SMD:R_0805_HandSoldering" V 8180 15200 50  0001 C CNN
F 3 "" H 8250 15200 50  0000 C CNN
	1    8250 15200
	0    1    1    0   
$EndComp
$Comp
L R R29
U 1 1 5C7EA679
P 8500 15450
F 0 "R29" V 8580 15450 50  0000 C CNN
F 1 "100K" V 8500 15450 50  0000 C CNN
F 2 "Resistors_SMD:R_0805_HandSoldering" V 8430 15450 50  0001 C CNN
F 3 "" H 8500 15450 50  0000 C CNN
	1    8500 15450
	-1   0    0    1   
$EndComp
$Comp
L GND #PWR05
U 1 1 5C7EA681
P 8500 15700
F 0 "#PWR05" H 8500 15450 50  0001 C CNN
F 1 "GND" H 8500 15550 50  0000 C CNN
F 2 "" H 8500 15700 50  0000 C CNN
F 3 "" H 8500 15700 50  0000 C CNN
	1    8500 15700
	1    0    0    -1  
$EndComp
$Comp
L GND #PWR06
U 1 1 5C7EA688
P 8900 15450
F 0 "#PWR06" H 8900 15200 50  0001 C CNN
F 1 "GND" H 8900 15300 50  0000 C CNN
F 2 "" H 8900 15450 50  0000 C CNN
F 3 "" H 8900 15450 50  0000 C CNN
	1    8900 15450
	1    0    0    -1  
$EndComp
$Comp
L R R12
U 1 1 5C7EA6A5
P 8250 14300
F 0 "R12" V 8330 14300 50  0000 C CNN
F 1 "220" V 8250 14300 50  0000 C CNN
F 2 "Resistors_SMD:R_0805_HandSoldering" V 8180 14300 50  0001 C CNN
F 3 "" H 8250 14300 50  0000 C CNN
	1    8250 14300
	0    1    1    0   
$EndComp
$Comp
L R R28
U 1 1 5C7EA6AC
P 8500 14550
F 0 "R28" V 8580 14550 50  0000 C CNN
F 1 "100K" V 8500 14550 50  0000 C CNN
F 2 "Resistors_SMD:R_0805_HandSoldering" V 8430 14550 50  0001 C CNN
F 3 "" H 8500 14550 50  0000 C CNN
	1    8500 14550
	-1   0    0    1   
$EndComp
$Comp
L GND #PWR07
U 1 1 5C7EA6B4
P 8500 14800
F 0 "#PWR07" H 8500 14550 50  0001 C CNN
F 1 "GND" H 8500 14650 50  0000 C CNN
F 2 "" H 8500 14800 50  0000 C CNN
F 3 "" H 8500 14800 50  0000 C CNN
	1    8500 14800
	1    0    0    -1  
$EndComp
$Comp
L GND #PWR08
U 1 1 5C7EA6BB
P 8900 14550
F 0 "#PWR08" H 8900 14300 50  0001 C CNN
F 1 "GND" H 8900 14400 50  0000 C CNN
F 2 "" H 8900 14550 50  0000 C CNN
F 3 "" H 8900 14550 50  0000 C CNN
	1    8900 14550
	1    0    0    -1  
$EndComp
$Comp
L R R11
U 1 1 5C7EAE87
P 8250 13400
F 0 "R11" V 8330 13400 50  0000 C CNN
F 1 "220" V 8250 13400 50  0000 C CNN
F 2 "Resistors_SMD:R_0805_HandSoldering" V 8180 13400 50  0001 C CNN
F 3 "" H 8250 13400 50  0000 C CNN
	1    8250 13400
	0    1    1    0   
$EndComp
$Comp
L R R27
U 1 1 5C7EAE8E
P 8500 13650
F 0 "R27" V 8580 13650 50  0000 C CNN
F 1 "100K" V 8500 13650 50  0000 C CNN
F 2 "Resistors_SMD:R_0805_HandSoldering" V 8430 13650 50  0001 C CNN
F 3 "" H 8500 13650 50  0000 C CNN
	1    8500 13650
	-1   0    0    1   
$EndComp
$Comp
L GND #PWR09
U 1 1 5C7EAE96
P 8500 13900
F 0 "#PWR09" H 8500 13650 50  0001 C CNN
F 1 "GND" H 8500 13750 50  0000 C CNN
F 2 "" H 8500 13900 50  0000 C CNN
F 3 "" H 8500 13900 50  0000 C CNN
	1    8500 13900
	1    0    0    -1  
$EndComp
$Comp
L GND #PWR010
U 1 1 5C7EAE9D
P 8900 13650
F 0 "#PWR010" H 8900 13400 50  0001 C CNN
F 1 "GND" H 8900 13500 50  0000 C CNN
F 2 "" H 8900 13650 50  0000 C CNN
F 3 "" H 8900 13650 50  0000 C CNN
	1    8900 13650
	1    0    0    -1  
$EndComp
$Comp
L R R10
U 1 1 5C7EAEBA
P 8250 12500
F 0 "R10" V 8330 12500 50  0000 C CNN
F 1 "220" V 8250 12500 50  0000 C CNN
F 2 "Resistors_SMD:R_0805_HandSoldering" V 8180 12500 50  0001 C CNN
F 3 "" H 8250 12500 50  0000 C CNN
	1    8250 12500
	0    1    1    0   
$EndComp
$Comp
L R R26
U 1 1 5C7EAEC1
P 8500 12750
F 0 "R26" V 8580 12750 50  0000 C CNN
F 1 "100K" V 8500 12750 50  0000 C CNN
F 2 "Resistors_SMD:R_0805_HandSoldering" V 8430 12750 50  0001 C CNN
F 3 "" H 8500 12750 50  0000 C CNN
	1    8500 12750
	-1   0    0    1   
$EndComp
$Comp
L GND #PWR011
U 1 1 5C7EAEC9
P 8500 13000
F 0 "#PWR011" H 8500 12750 50  0001 C CNN
F 1 "GND" H 8500 12850 50  0000 C CNN
F 2 "" H 8500 13000 50  0000 C CNN
F 3 "" H 8500 13000 50  0000 C CNN
	1    8500 13000
	1    0    0    -1  
$EndComp
$Comp
L GND #PWR012
U 1 1 5C7EAED0
P 8900 12750
F 0 "#PWR012" H 8900 12500 50  0001 C CNN
F 1 "GND" H 8900 12600 50  0000 C CNN
F 2 "" H 8900 12750 50  0000 C CNN
F 3 "" H 8900 12750 50  0000 C CNN
	1    8900 12750
	1    0    0    -1  
$EndComp
$Comp
L R R9
U 1 1 5C7EAEED
P 8250 11600
F 0 "R9" V 8330 11600 50  0000 C CNN
F 1 "220" V 8250 11600 50  0000 C CNN
F 2 "Resistors_SMD:R_0805_HandSoldering" V 8180 11600 50  0001 C CNN
F 3 "" H 8250 11600 50  0000 C CNN
	1    8250 11600
	0    1    1    0   
$EndComp
$Comp
L R R25
U 1 1 5C7EAEF4
P 8500 11850
F 0 "R25" V 8580 11850 50  0000 C CNN
F 1 "100K" V 8500 11850 50  0000 C CNN
F 2 "Resistors_SMD:R_0805_HandSoldering" V 8430 11850 50  0001 C CNN
F 3 "" H 8500 11850 50  0000 C CNN
	1    8500 11850
	-1   0    0    1   
$EndComp
$Comp
L GND #PWR013
U 1 1 5C7EAEFC
P 8500 12100
F 0 "#PWR013" H 8500 11850 50  0001 C CNN
F 1 "GND" H 8500 11950 50  0000 C CNN
F 2 "" H 8500 12100 50  0000 C CNN
F 3 "" H 8500 12100 50  0000 C CNN
	1    8500 12100
	1    0    0    -1  
$EndComp
$Comp
L GND #PWR014
U 1 1 5C7EAF03
P 8900 11850
F 0 "#PWR014" H 8900 11600 50  0001 C CNN
F 1 "GND" H 8900 11700 50  0000 C CNN
F 2 "" H 8900 11850 50  0000 C CNN
F 3 "" H 8900 11850 50  0000 C CNN
	1    8900 11850
	1    0    0    -1  
$EndComp
$Comp
L R R8
U 1 1 5C7EAF20
P 8250 10700
F 0 "R8" V 8330 10700 50  0000 C CNN
F 1 "220" V 8250 10700 50  0000 C CNN
F 2 "Resistors_SMD:R_0805_HandSoldering" V 8180 10700 50  0001 C CNN
F 3 "" H 8250 10700 50  0000 C CNN
	1    8250 10700
	0    1    1    0   
$EndComp
$Comp
L R R24
U 1 1 5C7EAF27
P 8500 10950
F 0 "R24" V 8580 10950 50  0000 C CNN
F 1 "100K" V 8500 10950 50  0000 C CNN
F 2 "Resistors_SMD:R_0805_HandSoldering" V 8430 10950 50  0001 C CNN
F 3 "" H 8500 10950 50  0000 C CNN
	1    8500 10950
	-1   0    0    1   
$EndComp
$Comp
L GND #PWR015
U 1 1 5C7EAF2F
P 8500 11200
F 0 "#PWR015" H 8500 10950 50  0001 C CNN
F 1 "GND" H 8500 11050 50  0000 C CNN
F 2 "" H 8500 11200 50  0000 C CNN
F 3 "" H 8500 11200 50  0000 C CNN
	1    8500 11200
	1    0    0    -1  
$EndComp
$Comp
L GND #PWR016
U 1 1 5C7EAF36
P 8900 10950
F 0 "#PWR016" H 8900 10700 50  0001 C CNN
F 1 "GND" H 8900 10800 50  0000 C CNN
F 2 "" H 8900 10950 50  0000 C CNN
F 3 "" H 8900 10950 50  0000 C CNN
	1    8900 10950
	1    0    0    -1  
$EndComp
$Comp
L R R7
U 1 1 5C7EB6B7
P 8250 9800
F 0 "R7" V 8330 9800 50  0000 C CNN
F 1 "220" V 8250 9800 50  0000 C CNN
F 2 "Resistors_SMD:R_0805_HandSoldering" V 8180 9800 50  0001 C CNN
F 3 "" H 8250 9800 50  0000 C CNN
	1    8250 9800
	0    1    1    0   
$EndComp
$Comp
L R R23
U 1 1 5C7EB6BE
P 8500 10050
F 0 "R23" V 8580 10050 50  0000 C CNN
F 1 "100K" V 8500 10050 50  0000 C CNN
F 2 "Resistors_SMD:R_0805_HandSoldering" V 8430 10050 50  0001 C CNN
F 3 "" H 8500 10050 50  0000 C CNN
	1    8500 10050
	-1   0    0    1   
$EndComp
$Comp
L GND #PWR017
U 1 1 5C7EB6C6
P 8500 10300
F 0 "#PWR017" H 8500 10050 50  0001 C CNN
F 1 "GND" H 8500 10150 50  0000 C CNN
F 2 "" H 8500 10300 50  0000 C CNN
F 3 "" H 8500 10300 50  0000 C CNN
	1    8500 10300
	1    0    0    -1  
$EndComp
$Comp
L GND #PWR018
U 1 1 5C7EB6CD
P 8900 10050
F 0 "#PWR018" H 8900 9800 50  0001 C CNN
F 1 "GND" H 8900 9900 50  0000 C CNN
F 2 "" H 8900 10050 50  0000 C CNN
F 3 "" H 8900 10050 50  0000 C CNN
	1    8900 10050
	1    0    0    -1  
$EndComp
$Comp
L R R6
U 1 1 5C7EB6EA
P 8250 8950
F 0 "R6" V 8330 8950 50  0000 C CNN
F 1 "220" V 8250 8950 50  0000 C CNN
F 2 "Resistors_SMD:R_0805_HandSoldering" V 8180 8950 50  0001 C CNN
F 3 "" H 8250 8950 50  0000 C CNN
	1    8250 8950
	0    1    1    0   
$EndComp
$Comp
L R R22
U 1 1 5C7EB6F1
P 8500 9200
F 0 "R22" V 8580 9200 50  0000 C CNN
F 1 "100K" V 8500 9200 50  0000 C CNN
F 2 "Resistors_SMD:R_0805_HandSoldering" V 8430 9200 50  0001 C CNN
F 3 "" H 8500 9200 50  0000 C CNN
	1    8500 9200
	-1   0    0    1   
$EndComp
$Comp
L GND #PWR019
U 1 1 5C7EB6F9
P 8500 9450
F 0 "#PWR019" H 8500 9200 50  0001 C CNN
F 1 "GND" H 8500 9300 50  0000 C CNN
F 2 "" H 8500 9450 50  0000 C CNN
F 3 "" H 8500 9450 50  0000 C CNN
	1    8500 9450
	1    0    0    -1  
$EndComp
$Comp
L GND #PWR020
U 1 1 5C7EB700
P 8900 9200
F 0 "#PWR020" H 8900 8950 50  0001 C CNN
F 1 "GND" H 8900 9050 50  0000 C CNN
F 2 "" H 8900 9200 50  0000 C CNN
F 3 "" H 8900 9200 50  0000 C CNN
	1    8900 9200
	1    0    0    -1  
$EndComp
$Comp
L R R5
U 1 1 5C7EB71D
P 8250 8050
F 0 "R5" V 8330 8050 50  0000 C CNN
F 1 "220" V 8250 8050 50  0000 C CNN
F 2 "Resistors_SMD:R_0805_HandSoldering" V 8180 8050 50  0001 C CNN
F 3 "" H 8250 8050 50  0000 C CNN
	1    8250 8050
	0    1    1    0   
$EndComp
$Comp
L R R21
U 1 1 5C7EB724
P 8500 8300
F 0 "R21" V 8580 8300 50  0000 C CNN
F 1 "100K" V 8500 8300 50  0000 C CNN
F 2 "Resistors_SMD:R_0805_HandSoldering" V 8430 8300 50  0001 C CNN
F 3 "" H 8500 8300 50  0000 C CNN
	1    8500 8300
	-1   0    0    1   
$EndComp
$Comp
L GND #PWR021
U 1 1 5C7EB72C
P 8500 8550
F 0 "#PWR021" H 8500 8300 50  0001 C CNN
F 1 "GND" H 8500 8400 50  0000 C CNN
F 2 "" H 8500 8550 50  0000 C CNN
F 3 "" H 8500 8550 50  0000 C CNN
	1    8500 8550
	1    0    0    -1  
$EndComp
$Comp
L GND #PWR022
U 1 1 5C7EB733
P 8900 8300
F 0 "#PWR022" H 8900 8050 50  0001 C CNN
F 1 "GND" H 8900 8150 50  0000 C CNN
F 2 "" H 8900 8300 50  0000 C CNN
F 3 "" H 8900 8300 50  0000 C CNN
	1    8900 8300
	1    0    0    -1  
$EndComp
$Comp
L R R4
U 1 1 5C7EB750
P 8250 7150
F 0 "R4" V 8330 7150 50  0000 C CNN
F 1 "220" V 8250 7150 50  0000 C CNN
F 2 "Resistors_SMD:R_0805_HandSoldering" V 8180 7150 50  0001 C CNN
F 3 "" H 8250 7150 50  0000 C CNN
	1    8250 7150
	0    1    1    0   
$EndComp
$Comp
L R R20
U 1 1 5C7EB757
P 8500 7400
F 0 "R20" V 8580 7400 50  0000 C CNN
F 1 "100K" V 8500 7400 50  0000 C CNN
F 2 "Resistors_SMD:R_0805_HandSoldering" V 8430 7400 50  0001 C CNN
F 3 "" H 8500 7400 50  0000 C CNN
	1    8500 7400
	-1   0    0    1   
$EndComp
$Comp
L GND #PWR023
U 1 1 5C7EB75F
P 8500 7650
F 0 "#PWR023" H 8500 7400 50  0001 C CNN
F 1 "GND" H 8500 7500 50  0000 C CNN
F 2 "" H 8500 7650 50  0000 C CNN
F 3 "" H 8500 7650 50  0000 C CNN
	1    8500 7650
	1    0    0    -1  
$EndComp
$Comp
L GND #PWR024
U 1 1 5C7EB766
P 8900 7400
F 0 "#PWR024" H 8900 7150 50  0001 C CNN
F 1 "GND" H 8900 7250 50  0000 C CNN
F 2 "" H 8900 7400 50  0000 C CNN
F 3 "" H 8900 7400 50  0000 C CNN
	1    8900 7400
	1    0    0    -1  
$EndComp
$Comp
L R R3
U 1 1 5C7EB783
P 8250 6250
F 0 "R3" V 8330 6250 50  0000 C CNN
F 1 "220" V 8250 6250 50  0000 C CNN
F 2 "Resistors_SMD:R_0805_HandSoldering" V 8180 6250 50  0001 C CNN
F 3 "" H 8250 6250 50  0000 C CNN
	1    8250 6250
	0    1    1    0   
$EndComp
$Comp
L R R19
U 1 1 5C7EB78A
P 8500 6500
F 0 "R19" V 8580 6500 50  0000 C CNN
F 1 "100K" V 8500 6500 50  0000 C CNN
F 2 "Resistors_SMD:R_0805_HandSoldering" V 8430 6500 50  0001 C CNN
F 3 "" H 8500 6500 50  0000 C CNN
	1    8500 6500
	-1   0    0    1   
$EndComp
$Comp
L GND #PWR025
U 1 1 5C7EB792
P 8500 6750
F 0 "#PWR025" H 8500 6500 50  0001 C CNN
F 1 "GND" H 8500 6600 50  0000 C CNN
F 2 "" H 8500 6750 50  0000 C CNN
F 3 "" H 8500 6750 50  0000 C CNN
	1    8500 6750
	1    0    0    -1  
$EndComp
$Comp
L GND #PWR026
U 1 1 5C7EB799
P 8900 6500
F 0 "#PWR026" H 8900 6250 50  0001 C CNN
F 1 "GND" H 8900 6350 50  0000 C CNN
F 2 "" H 8900 6500 50  0000 C CNN
F 3 "" H 8900 6500 50  0000 C CNN
	1    8900 6500
	1    0    0    -1  
$EndComp
$Comp
L R R2
U 1 1 5C7EDC23
P 8250 5350
F 0 "R2" V 8330 5350 50  0000 C CNN
F 1 "220" V 8250 5350 50  0000 C CNN
F 2 "Resistors_SMD:R_0805_HandSoldering" V 8180 5350 50  0001 C CNN
F 3 "" H 8250 5350 50  0000 C CNN
	1    8250 5350
	0    1    1    0   
$EndComp
$Comp
L R R18
U 1 1 5C7EDC2B
P 8500 5600
F 0 "R18" V 8580 5600 50  0000 C CNN
F 1 "100K" V 8500 5600 50  0000 C CNN
F 2 "Resistors_SMD:R_0805_HandSoldering" V 8430 5600 50  0001 C CNN
F 3 "" H 8500 5600 50  0000 C CNN
	1    8500 5600
	-1   0    0    1   
$EndComp
$Comp
L GND #PWR027
U 1 1 5C7EDC33
P 8500 5900
F 0 "#PWR027" H 8500 5650 50  0001 C CNN
F 1 "GND" H 8500 5750 50  0000 C CNN
F 2 "" H 8500 5900 50  0000 C CNN
F 3 "" H 8500 5900 50  0000 C CNN
	1    8500 5900
	1    0    0    -1  
$EndComp
$Comp
L GND #PWR028
U 1 1 5C7EDC3A
P 8900 5650
F 0 "#PWR028" H 8900 5400 50  0001 C CNN
F 1 "GND" H 8900 5500 50  0000 C CNN
F 2 "" H 8900 5650 50  0000 C CNN
F 3 "" H 8900 5650 50  0000 C CNN
	1    8900 5650
	1    0    0    -1  
$EndComp
$Comp
L R R1
U 1 1 5C7EDC57
P 8250 4450
F 0 "R1" V 8330 4450 50  0000 C CNN
F 1 "220" V 8250 4450 50  0000 C CNN
F 2 "Resistors_SMD:R_0805_HandSoldering" V 8180 4450 50  0001 C CNN
F 3 "" H 8250 4450 50  0000 C CNN
	1    8250 4450
	0    1    1    0   
$EndComp
$Comp
L R R17
U 1 1 5C7EDC5F
P 8500 4700
F 0 "R17" V 8580 4700 50  0000 C CNN
F 1 "100K" V 8500 4700 50  0000 C CNN
F 2 "Resistors_SMD:R_0805_HandSoldering" V 8430 4700 50  0001 C CNN
F 3 "" H 8500 4700 50  0000 C CNN
	1    8500 4700
	-1   0    0    1   
$EndComp
$Comp
L GND #PWR029
U 1 1 5C7EDC67
P 8500 4950
F 0 "#PWR029" H 8500 4700 50  0001 C CNN
F 1 "GND" H 8500 4800 50  0000 C CNN
F 2 "" H 8500 4950 50  0000 C CNN
F 3 "" H 8500 4950 50  0000 C CNN
	1    8500 4950
	1    0    0    -1  
$EndComp
$Comp
L GND #PWR030
U 1 1 5C7EDC6E
P 8900 4700
F 0 "#PWR030" H 8900 4450 50  0001 C CNN
F 1 "GND" H 8900 4550 50  0000 C CNN
F 2 "" H 8900 4700 50  0000 C CNN
F 3 "" H 8900 4700 50  0000 C CNN
	1    8900 4700
	1    0    0    -1  
$EndComp
$Comp
L GND #PWR031
U 1 1 5E4D66CE
P 7100 7300
F 0 "#PWR031" H 7100 7050 50  0001 C CNN
F 1 "GND" H 7100 7150 50  0000 C CNN
F 2 "" H 7100 7300 50  0000 C CNN
F 3 "" H 7100 7300 50  0000 C CNN
	1    7100 7300
	1    0    0    -1  
$EndComp
$Comp
L R R32
U 1 1 5E4E1FFE
P 8500 18150
F 0 "R32" V 8580 18150 50  0000 C CNN
F 1 "100K" V 8500 18150 50  0000 C CNN
F 2 "Resistors_SMD:R_0805_HandSoldering" V 8430 18150 50  0001 C CNN
F 3 "" H 8500 18150 50  0000 C CNN
	1    8500 18150
	-1   0    0    1   
$EndComp
$Comp
L R R16
U 1 1 5E4E2235
P 8250 17900
F 0 "R16" V 8330 17900 50  0000 C CNN
F 1 "220" V 8250 17900 50  0000 C CNN
F 2 "Resistors_SMD:R_0805_HandSoldering" V 8180 17900 50  0001 C CNN
F 3 "" H 8250 17900 50  0000 C CNN
	1    8250 17900
	0    1    1    0   
$EndComp
$Comp
L GND #PWR032
U 1 1 5E4E2D0D
P 8500 18400
F 0 "#PWR032" H 8500 18150 50  0001 C CNN
F 1 "GND" H 8500 18250 50  0000 C CNN
F 2 "" H 8500 18400 50  0000 C CNN
F 3 "" H 8500 18400 50  0000 C CNN
	1    8500 18400
	1    0    0    -1  
$EndComp
$Comp
L GND #PWR033
U 1 1 5E4E307B
P 8900 18150
F 0 "#PWR033" H 8900 17900 50  0001 C CNN
F 1 "GND" H 8900 18000 50  0000 C CNN
F 2 "" H 8900 18150 50  0000 C CNN
F 3 "" H 8900 18150 50  0000 C CNN
	1    8900 18150
	1    0    0    -1  
$EndComp
Wire Wire Line
	8400 17000 8600 17000
Wire Wire Line
	8500 17000 8500 17150
Connection ~ 8500 17000
Wire Wire Line
	8500 17550 8500 17450
Wire Wire Line
	8900 17250 8900 17150
Wire Wire Line
	8900 16600 9950 16600
Wire Wire Line
	8900 16600 8900 16750
Wire Wire Line
	8400 16100 8600 16100
Wire Wire Line
	8500 16100 8500 16200
Connection ~ 8500 16100
Wire Wire Line
	8500 16600 8500 16500
Wire Wire Line
	8900 16350 8900 16250
Wire Wire Line
	8900 15700 9900 15700
Wire Wire Line
	8900 15700 8900 15850
Wire Wire Line
	8400 15200 8600 15200
Wire Wire Line
	8500 15200 8500 15300
Connection ~ 8500 15200
Wire Wire Line
	8500 15700 8500 15600
Wire Wire Line
	8900 15450 8900 15350
Wire Wire Line
	8900 14800 9850 14800
Wire Wire Line
	8900 14800 8900 14950
Wire Wire Line
	8400 14300 8600 14300
Wire Wire Line
	8500 14300 8500 14400
Connection ~ 8500 14300
Wire Wire Line
	8500 14800 8500 14700
Wire Wire Line
	8900 14550 8900 14450
Wire Wire Line
	8900 13900 9800 13900
Wire Wire Line
	8900 13900 8900 14050
Wire Wire Line
	8400 13400 8600 13400
Wire Wire Line
	8500 13400 8500 13500
Connection ~ 8500 13400
Wire Wire Line
	8500 13900 8500 13800
Wire Wire Line
	8900 13650 8900 13550
Wire Wire Line
	8900 13000 9750 13000
Wire Wire Line
	8900 13000 8900 13150
Wire Wire Line
	8400 12500 8600 12500
Wire Wire Line
	8500 12500 8500 12600
Connection ~ 8500 12500
Wire Wire Line
	8500 13000 8500 12900
Wire Wire Line
	8900 12750 8900 12650
Wire Wire Line
	8900 12100 9700 12100
Wire Wire Line
	8900 12100 8900 12250
Wire Wire Line
	8400 11600 8600 11600
Wire Wire Line
	8500 11600 8500 11700
Connection ~ 8500 11600
Wire Wire Line
	8500 12100 8500 12000
Wire Wire Line
	8900 11850 8900 11750
Wire Wire Line
	8900 11200 9650 11200
Wire Wire Line
	8900 11200 8900 11350
Wire Wire Line
	8400 10700 8600 10700
Wire Wire Line
	8500 10700 8500 10800
Connection ~ 8500 10700
Wire Wire Line
	8500 11200 8500 11100
Wire Wire Line
	8900 10950 8900 10850
Wire Wire Line
	8900 10300 9600 10300
Wire Wire Line
	8400 9800 8600 9800
Wire Wire Line
	8500 9800 8500 9900
Connection ~ 8500 9800
Wire Wire Line
	8500 10300 8500 10200
Wire Wire Line
	8900 10050 8900 9950
Wire Wire Line
	8900 9450 9550 9450
Wire Wire Line
	8900 9450 8900 9550
Wire Wire Line
	8400 8950 8600 8950
Wire Wire Line
	8500 8950 8500 9050
Connection ~ 8500 8950
Wire Wire Line
	8500 9450 8500 9350
Wire Wire Line
	8900 9200 8900 9100
Wire Wire Line
	8900 8550 9500 8550
Wire Wire Line
	8900 8550 8900 8700
Wire Wire Line
	8400 8050 8600 8050
Wire Wire Line
	8500 8050 8500 8150
Connection ~ 8500 8050
Wire Wire Line
	8500 8550 8500 8450
Wire Wire Line
	8900 8300 8900 8200
Wire Wire Line
	8900 7650 9450 7650
Wire Wire Line
	8900 7650 8900 7800
Wire Wire Line
	8400 7150 8600 7150
Wire Wire Line
	8500 7150 8500 7250
Connection ~ 8500 7150
Wire Wire Line
	8500 7650 8500 7550
Wire Wire Line
	8900 7400 8900 7300
Wire Wire Line
	9400 6750 8900 6750
Wire Wire Line
	8900 6750 8900 6900
Wire Wire Line
	8400 6250 8600 6250
Wire Wire Line
	8500 6250 8500 6350
Connection ~ 8500 6250
Wire Wire Line
	8500 6750 8500 6650
Wire Wire Line
	8900 6500 8900 6400
Wire Wire Line
	8900 5900 8900 6000
Wire Wire Line
	8400 5350 8600 5350
Wire Wire Line
	8500 5350 8500 5450
Connection ~ 8500 5350
Wire Wire Line
	8500 5900 8500 5750
Wire Wire Line
	8900 5650 8900 5500
Wire Wire Line
	8900 4950 9900 4950
Wire Wire Line
	8900 4950 8900 5100
Wire Wire Line
	8400 4450 8600 4450
Wire Wire Line
	8500 4450 8500 4550
Connection ~ 8500 4450
Wire Wire Line
	8500 4950 8500 4850
Wire Wire Line
	8900 4700 8900 4600
Wire Wire Line
	8900 4050 9950 4050
Wire Wire Line
	8900 4050 8900 4200
Wire Wire Line
	7400 17000 8100 17000
Wire Wire Line
	7450 16100 8100 16100
Wire Wire Line
	7500 15200 8100 15200
Wire Wire Line
	7550 14300 8100 14300
Wire Wire Line
	7600 13400 8100 13400
Wire Wire Line
	7650 12500 8100 12500
Wire Wire Line
	8100 11600 7700 11600
Wire Wire Line
	7750 10700 8100 10700
Wire Wire Line
	7800 9800 8100 9800
Wire Wire Line
	7850 8950 8100 8950
Wire Wire Line
	7900 8050 8100 8050
Wire Wire Line
	7950 7150 8100 7150
Wire Wire Line
	8000 6250 8100 6250
Wire Wire Line
	7150 5350 8100 5350
Wire Wire Line
	8900 10300 8900 10450
Wire Wire Line
	7100 4450 8100 4450
Wire Wire Line
	7100 7300 7100 7200
Wire Wire Line
	7350 17900 8100 17900
Wire Wire Line
	8900 17500 10000 17500
Wire Wire Line
	8900 17500 8900 17650
Wire Wire Line
	8400 17900 8600 17900
Wire Wire Line
	8500 18400 8500 18300
Wire Wire Line
	8500 18000 8500 17900
Connection ~ 8500 17900
Wire Wire Line
	8900 18050 8900 18150
$Comp
L CONN_01X17 P1
U 1 1 5EE22664
P 6800 6400
F 0 "P1" H 6800 7300 50  0000 C CNN
F 1 "INPUT" V 6900 6400 50  0000 C CNN
F 2 "Pin_Headers:Pin_Header_Straight_1x17" H 6800 6400 50  0001 C CNN
F 3 "" H 6800 6400 50  0000 C CNN
	1    6800 6400
	-1   0    0    1   
$EndComp
Wire Wire Line
	7100 7200 7000 7200
Wire Wire Line
	7000 5600 7100 5600
Wire Wire Line
	7100 5600 7100 4450
Wire Wire Line
	7150 5350 7150 5700
Wire Wire Line
	7150 5700 7000 5700
Wire Wire Line
	8000 6250 8000 5800
Wire Wire Line
	8000 5800 7000 5800
Wire Wire Line
	7000 5900 7950 5900
Wire Wire Line
	7950 5900 7950 7150
Wire Wire Line
	7900 8050 7900 6000
Wire Wire Line
	7900 6000 7000 6000
Wire Wire Line
	7850 8950 7850 6100
Wire Wire Line
	7850 6100 7000 6100
Wire Wire Line
	7800 9800 7800 6200
Wire Wire Line
	7800 6200 7000 6200
Wire Wire Line
	7750 10700 7750 6300
Wire Wire Line
	7750 6300 7000 6300
Wire Wire Line
	7000 6400 7700 6400
Wire Wire Line
	7700 6400 7700 11600
Wire Wire Line
	7650 12500 7650 6500
Wire Wire Line
	7650 6500 7000 6500
Wire Wire Line
	7000 6600 7600 6600
Wire Wire Line
	7600 6600 7600 13400
Wire Wire Line
	7550 14300 7550 6700
Wire Wire Line
	7550 6700 7000 6700
Wire Wire Line
	7000 6800 7500 6800
Wire Wire Line
	7500 6800 7500 15200
Wire Wire Line
	7450 16100 7450 6900
Wire Wire Line
	7450 6900 7000 6900
Wire Wire Line
	7000 7000 7400 7000
Wire Wire Line
	7400 7000 7400 17000
Wire Wire Line
	7350 17900 7350 7100
Wire Wire Line
	7350 7100 7000 7100
$Comp
L AO3400-RESCUE-sot23-16-module Q1
U 1 1 5EE27881
P 8800 4400
F 0 "Q1" H 9050 4475 50  0000 L CNN
F 1 "AO3400" H 9050 4400 50  0000 L CNN
F 2 "TO_SOT_Packages_SMD:SOT-23_Handsoldering" H 9050 4325 50  0001 L CIN
F 3 "" H 8800 4400 50  0000 L CNN
	1    8800 4400
	1    0    0    -1  
$EndComp
$Comp
L AO3400-RESCUE-sot23-16-module Q2
U 1 1 5EE27F4F
P 8800 5300
F 0 "Q2" H 9050 5375 50  0000 L CNN
F 1 "AO3400" H 9050 5300 50  0000 L CNN
F 2 "TO_SOT_Packages_SMD:SOT-23_Handsoldering" H 9050 5225 50  0001 L CIN
F 3 "" H 8800 5300 50  0000 L CNN
	1    8800 5300
	1    0    0    -1  
$EndComp
$Comp
L AO3400-RESCUE-sot23-16-module Q3
U 1 1 5EE28018
P 8800 6200
F 0 "Q3" H 9050 6275 50  0000 L CNN
F 1 "AO3400" H 9050 6200 50  0000 L CNN
F 2 "TO_SOT_Packages_SMD:SOT-23_Handsoldering" H 9050 6125 50  0001 L CIN
F 3 "" H 8800 6200 50  0000 L CNN
	1    8800 6200
	1    0    0    -1  
$EndComp
$Comp
L AO3400-RESCUE-sot23-16-module Q4
U 1 1 5EE280E4
P 8800 7100
F 0 "Q4" H 9050 7175 50  0000 L CNN
F 1 "AO3400" H 9050 7100 50  0000 L CNN
F 2 "TO_SOT_Packages_SMD:SOT-23_Handsoldering" H 9050 7025 50  0001 L CIN
F 3 "" H 8800 7100 50  0000 L CNN
	1    8800 7100
	1    0    0    -1  
$EndComp
$Comp
L AO3400-RESCUE-sot23-16-module Q5
U 1 1 5EE2821D
P 8800 8000
F 0 "Q5" H 9050 8075 50  0000 L CNN
F 1 "AO3400" H 9050 8000 50  0000 L CNN
F 2 "TO_SOT_Packages_SMD:SOT-23_Handsoldering" H 9050 7925 50  0001 L CIN
F 3 "" H 8800 8000 50  0000 L CNN
	1    8800 8000
	1    0    0    -1  
$EndComp
$Comp
L AO3400-RESCUE-sot23-16-module Q6
U 1 1 5EE282EF
P 8800 8900
F 0 "Q6" H 9050 8975 50  0000 L CNN
F 1 "AO3400" H 9050 8900 50  0000 L CNN
F 2 "TO_SOT_Packages_SMD:SOT-23_Handsoldering" H 9050 8825 50  0001 L CIN
F 3 "" H 8800 8900 50  0000 L CNN
	1    8800 8900
	1    0    0    -1  
$EndComp
$Comp
L AO3400-RESCUE-sot23-16-module Q7
U 1 1 5EE283C4
P 8800 9750
F 0 "Q7" H 9050 9825 50  0000 L CNN
F 1 "AO3400" H 9050 9750 50  0000 L CNN
F 2 "TO_SOT_Packages_SMD:SOT-23_Handsoldering" H 9050 9675 50  0001 L CIN
F 3 "" H 8800 9750 50  0000 L CNN
	1    8800 9750
	1    0    0    -1  
$EndComp
$Comp
L AO3400-RESCUE-sot23-16-module Q8
U 1 1 5EE2850A
P 8800 10650
F 0 "Q8" H 9050 10725 50  0000 L CNN
F 1 "AO3400" H 9050 10650 50  0000 L CNN
F 2 "TO_SOT_Packages_SMD:SOT-23_Handsoldering" H 9050 10575 50  0001 L CIN
F 3 "" H 8800 10650 50  0000 L CNN
	1    8800 10650
	1    0    0    -1  
$EndComp
$Comp
L AO3400-RESCUE-sot23-16-module Q9
U 1 1 5EE285E5
P 8800 11550
F 0 "Q9" H 9050 11625 50  0000 L CNN
F 1 "AO3400" H 9050 11550 50  0000 L CNN
F 2 "TO_SOT_Packages_SMD:SOT-23_Handsoldering" H 9050 11475 50  0001 L CIN
F 3 "" H 8800 11550 50  0000 L CNN
	1    8800 11550
	1    0    0    -1  
$EndComp
$Comp
L AO3400-RESCUE-sot23-16-module Q10
U 1 1 5EE286C3
P 8800 12450
F 0 "Q10" H 9050 12525 50  0000 L CNN
F 1 "AO3400" H 9050 12450 50  0000 L CNN
F 2 "TO_SOT_Packages_SMD:SOT-23_Handsoldering" H 9050 12375 50  0001 L CIN
F 3 "" H 8800 12450 50  0000 L CNN
	1    8800 12450
	1    0    0    -1  
$EndComp
$Comp
L AO3400-RESCUE-sot23-16-module Q11
U 1 1 5EE287A4
P 8800 13350
F 0 "Q11" H 9050 13425 50  0000 L CNN
F 1 "AO3400" H 9050 13350 50  0000 L CNN
F 2 "TO_SOT_Packages_SMD:SOT-23_Handsoldering" H 9050 13275 50  0001 L CIN
F 3 "" H 8800 13350 50  0000 L CNN
	1    8800 13350
	1    0    0    -1  
$EndComp
$Comp
L AO3400-RESCUE-sot23-16-module Q12
U 1 1 5EE28904
P 8800 14250
F 0 "Q12" H 9050 14325 50  0000 L CNN
F 1 "AO3400" H 9050 14250 50  0000 L CNN
F 2 "TO_SOT_Packages_SMD:SOT-23_Handsoldering" H 9050 14175 50  0001 L CIN
F 3 "" H 8800 14250 50  0000 L CNN
	1    8800 14250
	1    0    0    -1  
$EndComp
$Comp
L AO3400-RESCUE-sot23-16-module Q13
U 1 1 5EE289EB
P 8800 15150
F 0 "Q13" H 9050 15225 50  0000 L CNN
F 1 "AO3400" H 9050 15150 50  0000 L CNN
F 2 "TO_SOT_Packages_SMD:SOT-23_Handsoldering" H 9050 15075 50  0001 L CIN
F 3 "" H 8800 15150 50  0000 L CNN
	1    8800 15150
	1    0    0    -1  
$EndComp
$Comp
L AO3400-RESCUE-sot23-16-module Q14
U 1 1 5EE28AD5
P 8800 16050
F 0 "Q14" H 9050 16125 50  0000 L CNN
F 1 "AO3400" H 9050 16050 50  0000 L CNN
F 2 "TO_SOT_Packages_SMD:SOT-23_Handsoldering" H 9050 15975 50  0001 L CIN
F 3 "" H 8800 16050 50  0000 L CNN
	1    8800 16050
	1    0    0    -1  
$EndComp
$Comp
L AO3400-RESCUE-sot23-16-module Q15
U 1 1 5EE28BC6
P 8800 16950
F 0 "Q15" H 9050 17025 50  0000 L CNN
F 1 "AO3400" H 9050 16950 50  0000 L CNN
F 2 "TO_SOT_Packages_SMD:SOT-23_Handsoldering" H 9050 16875 50  0001 L CIN
F 3 "" H 8800 16950 50  0000 L CNN
	1    8800 16950
	1    0    0    -1  
$EndComp
$Comp
L AO3400-RESCUE-sot23-16-module Q16
U 1 1 5EE28CB6
P 8800 17850
F 0 "Q16" H 9050 17925 50  0000 L CNN
F 1 "AO3400" H 9050 17850 50  0000 L CNN
F 2 "TO_SOT_Packages_SMD:SOT-23_Handsoldering" H 9050 17775 50  0001 L CIN
F 3 "" H 8800 17850 50  0000 L CNN
	1    8800 17850
	1    0    0    -1  
$EndComp
$Comp
L CONN_01X02 P3
U 1 1 5EE29C07
P 10500 4750
F 0 "P3" H 10500 4900 50  0000 C CNN
F 1 "12V" V 10600 4750 50  0000 C CNN
F 2 "myConnectors:NINIGI_NS25-W2P" H 10500 4750 50  0001 C CNN
F 3 "" H 10500 4750 50  0000 C CNN
	1    10500 4750
	1    0    0    1   
$EndComp
$Comp
L +12V #PWR034
U 1 1 5EE29ED0
P 10100 4600
F 0 "#PWR034" H 10100 4450 50  0001 C CNN
F 1 "+12V" H 10100 4740 50  0000 C CNN
F 2 "" H 10100 4600 50  0000 C CNN
F 3 "" H 10100 4600 50  0000 C CNN
	1    10100 4600
	1    0    0    -1  
$EndComp
Wire Wire Line
	10100 4600 10100 8400
Wire Wire Line
	10100 4700 10300 4700
$Comp
L GND #PWR035
U 1 1 5EE2A0A7
P 10200 4900
F 0 "#PWR035" H 10200 4650 50  0001 C CNN
F 1 "GND" H 10200 4750 50  0000 C CNN
F 2 "" H 10200 4900 50  0000 C CNN
F 3 "" H 10200 4900 50  0000 C CNN
	1    10200 4900
	1    0    0    -1  
$EndComp
Wire Wire Line
	10200 4900 10200 4800
Wire Wire Line
	10200 4800 10300 4800
$Comp
L CONN_01X32 P2
U 1 1 5EE61121
P 10400 6850
F 0 "P2" H 10400 8500 50  0000 C CNN
F 1 "LEDs" V 10500 6850 50  0000 C CNN
F 2 "Pin_Headers:Pin_Header_Angled_1x32" H 10400 6850 50  0001 C CNN
F 3 "" H 10400 6850 50  0000 C CNN
	1    10400 6850
	1    0    0    1   
$EndComp
Wire Wire Line
	10100 8400 10200 8400
Connection ~ 10100 4700
Wire Wire Line
	10200 8200 10100 8200
Connection ~ 10100 8200
Wire Wire Line
	10200 8000 10100 8000
Connection ~ 10100 8000
Wire Wire Line
	10200 7800 10100 7800
Connection ~ 10100 7800
Wire Wire Line
	10200 7600 10100 7600
Connection ~ 10100 7600
Wire Wire Line
	10200 7400 10100 7400
Connection ~ 10100 7400
Wire Wire Line
	10200 7200 10100 7200
Connection ~ 10100 7200
Wire Wire Line
	10200 7000 10100 7000
Connection ~ 10100 7000
Wire Wire Line
	10200 6800 10100 6800
Connection ~ 10100 6800
Wire Wire Line
	10200 6600 10100 6600
Connection ~ 10100 6600
Wire Wire Line
	10200 6400 10100 6400
Connection ~ 10100 6400
Wire Wire Line
	10200 6200 10100 6200
Connection ~ 10100 6200
Wire Wire Line
	10200 6000 10100 6000
Connection ~ 10100 6000
Wire Wire Line
	10200 5800 10100 5800
Connection ~ 10100 5800
Wire Wire Line
	10200 5600 10100 5600
Connection ~ 10100 5600
Wire Wire Line
	10200 5400 10100 5400
Connection ~ 10100 5400
Wire Wire Line
	9950 4050 9950 5300
Wire Wire Line
	9950 5300 10200 5300
Wire Wire Line
	9900 4950 9900 5500
Wire Wire Line
	9900 5500 10200 5500
Wire Wire Line
	10200 5700 9350 5700
Wire Wire Line
	9350 5700 9350 5900
Wire Wire Line
	9350 5900 8900 5900
Wire Wire Line
	10200 5900 9400 5900
Wire Wire Line
	9400 5900 9400 6750
Wire Wire Line
	10200 6100 9450 6100
Wire Wire Line
	9450 6100 9450 7650
Wire Wire Line
	9500 8550 9500 6300
Wire Wire Line
	9500 6300 10200 6300
Wire Wire Line
	10200 6500 9550 6500
Wire Wire Line
	9550 6500 9550 9450
Wire Wire Line
	9600 10300 9600 6700
Wire Wire Line
	9600 6700 10200 6700
Wire Wire Line
	10200 6900 9650 6900
Wire Wire Line
	9650 6900 9650 11200
Wire Wire Line
	9700 12100 9700 7100
Wire Wire Line
	9700 7100 10200 7100
Wire Wire Line
	10200 7300 9750 7300
Wire Wire Line
	9750 7300 9750 13000
Wire Wire Line
	9800 13900 9800 7500
Wire Wire Line
	9800 7500 10200 7500
Wire Wire Line
	10200 7700 9850 7700
Wire Wire Line
	9850 7700 9850 14800
Wire Wire Line
	9900 15700 9900 7900
Wire Wire Line
	9900 7900 10200 7900
Wire Wire Line
	10200 8100 9950 8100
Wire Wire Line
	9950 8100 9950 16600
Wire Wire Line
	10000 17500 10000 8300
Wire Wire Line
	10000 8300 10200 8300
$EndSCHEMATC
